,pred,true
0,58.184605000000005,58.05075576157537
1,45.908176,45.75347713013539
2,41.760467999999996,41.875306590126414
3,44.28069,44.12318684049468
4,56.963154,56.68599126238274
5,44.583884999999995,44.36978076573269
6,44.466843,43.95346157997984
7,45.406094,45.13171437642255
8,51.8969,51.61211022378644
9,57.06503299999999,57.295073358661796
10,46.189346,45.81458104939047
11,53.410419999999995,53.10218419589953
12,55.222275,55.53877675133917
13,52.554173,53.56246245248773
14,52.117302,51.965458117651046
15,51.559909999999995,52.18235691439178
16,50.07871,50.80231663204752
17,51.9885,52.241759145541316
18,47.06355,47.10573572488904
19,46.720802,46.56417897388342
20,47.285816,46.99261922487031
21,46.359320000000004,47.501709018975966
22,42.5183,43.07751019142953
23,42.55406,42.6549429931848
24,44.587353,44.70796430525755
25,44.364323,44.111466330593146
26,48.42281,48.366414944819525
27,46.33518,46.08218281460132
28,48.80657,48.43583667860958
29,54.14539,53.48455295465649
30,43.919407,44.13253471690435
31,45.738815,45.26826406532485
32,48.144104,48.13916148905669
33,58.34076700000001,58.74537278825185
34,57.891833999999996,57.646259379879275
35,50.97871,50.67733846431866
36,50.62415,51.77616823934043
37,43.307594,42.90762262102789
38,50.385178,50.34547056216474
39,46.958843,46.9006628583635
40,46.418407,46.799139154638866
41,50.37689,50.25748594759092
42,61.370174,63.62726067396294
43,59.6674,59.23760308237827
44,56.280944999999996,57.29300000746681
45,44.887173,44.66923090196953
46,48.199593,48.11422031097054
47,57.81576,59.30205630413358
48,55.835930000000005,55.8277432214031
49,45.183834000000004,45.707503481639826
50,51.143496999999996,50.85140081783801
51,58.472263,59.40951790098211
52,55.576443000000005,55.24585351092454
53,59.41584399999999,60.338019755340994
54,42.43117,42.33055712807947
55,49.568573,50.81983354410305
56,47.785942,48.17576273317546
57,51.442295,51.5570125774298
58,42.151012,41.90077294433061
59,43.018295,42.751554433381884
60,53.253330000000005,53.13234002498057
61,46.988503,47.01353003223893
62,50.51831,51.291289596288436
63,54.090194999999994,53.71114748870223
64,52.980713,53.98185599523267
65,45.464946999999995,45.59045362332899
66,47.411556,47.36069393763612
67,42.154007,42.10898901640018
68,50.436913,51.667566728819935
69,41.160540000000005,40.64500030194442
70,48.205418,48.11255469548581
71,43.552634999999995,43.422106628565814
72,54.73115,55.10299768974064
73,50.778496000000004,50.75263393611618
74,47.61942,48.50613257561562
75,59.693512,61.35420732262065
76,43.014515,42.871868364312014
77,46.40387,45.97395177951356
78,44.8133,44.81553300598507
79,43.169334,43.109329424076336
80,52.280415000000005,51.89934644470234
81,39.88297,39.971959641646755
82,42.632473,43.48566368055163
83,50.06344,49.76479215370096
84,48.678253000000005,48.63628037775596
85,42.286365999999994,42.512130732273285
86,55.18919399999999,54.92847396397868
87,42.381676,42.30376653310577
88,45.818709999999996,45.96278843224803
89,54.229015000000004,53.89207285999011
90,47.377834,47.84707926425106
91,49.863346,49.95521525452114
92,59.736999999999995,60.07378665140774
93,43.215702,43.754259310505056
94,47.917175,48.482011056335885
95,48.86172,48.86669927358752
96,57.82102,57.403866819278896
97,41.13354,40.94935980669327
98,59.530609999999996,60.145903530157526
99,61.232388,62.88966263297162
100,45.68735,45.32710879186062
101,43.73722,43.70505008283281
102,52.266506,51.74868291700759
103,49.373425,51.02959153254567
104,53.823036,54.77706258596475
105,53.73036,53.55235312502733
106,57.396954,57.25726007758608
107,43.421898,43.492343690087345
108,53.362015,53.0186727091615
109,40.908543,41.04513809961517
110,41.701164,41.47193898451968
111,46.750434999999996,47.06004659720189
112,54.876723999999996,54.685434937436455
113,49.602917,49.33945629478054
114,52.81195400000001,52.654564375349636
115,45.067387,45.517686468427726
116,52.443206999999994,52.2879982874594
117,44.129387,43.96782326569912
118,49.732490000000006,49.6583666646815
119,46.89033,48.10006430514761
120,45.90594,46.61594411934058
121,50.399864,51.216202230495824
122,44.086254,44.87070237424128
123,49.21594,50.045337188549254
124,56.47508199999999,57.34213908794157
125,54.962830000000004,54.65747017103
126,48.969936,48.818425591507214
127,55.984478,55.378996148060786
128,60.370613,61.177757275578664
129,49.908257,50.89944869556081
130,52.769367,52.480837706031906
131,47.463055,47.68398761331814
132,47.255157000000004,47.506434270527066
133,43.220240000000004,42.71646945193639
134,46.10502,45.66188011234888
135,43.083977000000004,42.85911061506735
136,55.51494,56.37236269363653
137,48.024944,47.72207273109075
138,51.839596,51.207361087769115
139,53.350306999999994,52.959770809304274
140,53.793488,53.40162664364152
141,46.073444,45.996451835605434
142,52.274516999999996,53.1149187375969
143,51.7817,51.41088599928686
144,43.155640000000005,42.83871232162301
145,48.476036,49.50660060504229
146,54.99944300000001,54.359238105761
147,49.77472,50.86521964280725
148,53.44461999999999,54.05818137962768
149,43.25598,42.81022972226771
150,60.024159999999995,59.66039073852669
151,46.925953,46.998235737834825
152,49.29861,49.453912451844865
153,54.028126,53.64874551305019
154,47.019455,46.71216608647657
155,54.383617,55.28253096953382
156,46.933323,47.647681444093045
157,42.50612,42.47816763985802
158,44.510754,45.21607204338507
159,51.771095,51.331244033419225
160,63.700844,62.93483232170179
161,42.835934,43.158053331284506
162,41.65943,42.420764389814366
163,44.630337,45.10726231890458
164,40.79585,40.86362059478532
165,59.39366,59.18295190175705
166,49.257884999999995,49.08457407753148
167,56.545432999999996,56.843629686179064
168,48.332592,48.36952385582457
169,45.732906,45.61128764152523
170,48.422607,48.361957295798
171,47.93124,48.90675550790926
172,53.78771,53.26557675184153
173,44.025944,43.912767885869414
174,55.380325,56.017215351938795
175,52.960228,53.764439748397706
176,52.64121,52.13093776690332
177,46.686073,46.42134343925511
178,52.90720400000001,53.48460671227097
179,48.52827,48.19099080236136
180,53.77221,53.632731137440274
