fname,hlc_mat,hlc_tot,hlc_se,hlc_si,hlc_inf_standard,hlc_inf_current,hlc_tot_pred,pred_err
chicago_control_concrete_inf_schedFalse_job18,65.33364347894315,47.213102021984426,1411.2605018364375,193.57617175641388,89.97395697914656,90.84700012692618,75.66851713446142,-3.745721515967503
chicago_control_concrete_inf_schedFalse_job163,87.08840823452275,57.98256464748326,1411.9905062858707,197.79422618858487,89.97395697914656,90.82748427903898,83.13764560512533,-4.043574536460014
chicago_control_concrete_inf_schedFalse_job185,59.08468816493759,43.762437184231466,1411.0485647602945,191.67753930884442,89.97395697914656,90.86737176611526,72.70305679747273,-3.6572658948219896
chicago_control_concrete_inf_schedFalse_job31,51.01645375432617,39.153149739308674,1410.3940077533111,191.19770292707128,89.97395697914656,90.89145946734384,70.78432943632664,-3.5899060432465433
chicago_control_concrete_inf_schedFalse_job195,63.956311240238044,46.42917294516076,1411.260092350089,192.5327185730692,89.97395697914656,90.85760938950477,74.61800005130053,-3.713607515311736
chicago_control_concrete_inf_schedFalse_job34,73.15896941098755,51.17723377156944,1412.1141541856366,193.6889744661737,89.97395697914656,90.83077913735856,78.30015822660863,-3.7876005520427753
chicago_control_concrete_inf_schedFalse_job43,57.56126694737847,42.93044136923681,1410.818121546645,191.86888489604047,89.97395697914656,90.87705689786898,72.58916299723964,-3.7093847544777248
chicago_control_concrete_inf_schedFalse_job82,63.58551400676207,46.29920718700345,1410.7148249264178,193.68850546931301,89.97395697914656,90.87270968457055,74.94375828555566,-3.826373964370802
chicago_control_concrete_inf_schedFalse_job110,59.22569622046479,43.942335037140005,1410.6416276558905,193.66194237469026,89.97395697914656,90.85418394979322,73.01340184119323,-3.6466729142574223
chicago_control_concrete_inf_schedFalse_job101,76.91705528648936,53.190750498372246,1411.7146717820738,196.42950199926972,89.97395697914656,90.8221852416946,79.73991945260036,-3.842078456762735
chicago_control_concrete_inf_schedFalse_job173,62.8120742122354,45.837333787228324,1411.09219147039,192.7859205205378,89.97395697914656,90.86228145125064,74.30084783462074,-3.7214441230436677
chicago_control_concrete_inf_schedFalse_job142,60.500679959086625,44.68649661624854,1410.2213343423084,194.54206623212318,89.97395697914656,90.8583247091847,73.37708447579652,-3.6836613802888962
chicago_control_concrete_inf_schedFalse_job52,64.3676556120379,46.72203530484167,1411.1316306827728,193.84454209094315,89.97395697914656,90.84689231817264,75.06560890721124,-3.7135007681323344
chicago_control_concrete_inf_schedFalse_job98,60.30212438470948,44.44867947968108,1411.1395352073116,192.0843802956147,89.97395697914656,90.86300945738573,73.20763028716894,-3.661241652999294
chicago_control_concrete_inf_schedFalse_job59,65.20972852332228,47.196520474287745,1410.6607543422117,194.4020067270499,89.97395697914656,90.87791467346653,75.48884144125546,-3.8837465533810303
chicago_control_concrete_inf_schedFalse_job113,67.06513149121793,48.089838081811976,1411.2325476540284,193.2391263681814,89.97395697914656,90.85972171501683,75.82511854984938,-3.781234874050895
chicago_control_concrete_inf_schedFalse_job186,76.34432480858142,52.82300031997868,1411.6870114282724,195.15148460398902,89.97395697914656,90.8139629215208,78.0952443978244,-3.72595236936381
chicago_control_concrete_inf_schedFalse_job187,87.4603078524386,58.10343067357212,1412.4566144759262,197.27977636519748,89.97395697914656,90.82532663591887,83.39298667884017,-4.040256880903101
chicago_control_concrete_inf_schedFalse_job155,73.00063527527956,51.32369157337295,1410.973006001513,196.9691405849631,89.97395697914656,90.8455011956329,78.54374907508866,-3.8997040066053756
chicago_control_concrete_inf_schedFalse_job91,57.62889342709804,43.036171033983294,1410.5668713884427,193.23946670153882,89.97395697914656,90.86376343123645,72.60825653397158,-3.6731918328428748
chicago_control_concrete_inf_schedFalse_job131,60.104146239465585,44.444171189725324,1410.4781469092718,194.04771755164742,89.97395697914656,90.85721354695106,73.354749484823,-3.678936966741915
chicago_control_concrete_inf_schedFalse_job11,73.2616424257807,51.30835660017658,1411.7076453505213,194.8583532337646,89.97395697914656,90.84445505365566,78.68173019215428,-3.8789738691591538
chicago_control_concrete_inf_schedFalse_job123,52.28860083958738,39.910130508961,1410.3892896940783,191.47391294225272,89.97395697914656,90.88449390855658,70.29426285036857,-3.61412247748315
chicago_control_concrete_inf_schedFalse_job146,56.81299559355434,42.49916950329565,1410.6977785301615,191.5930546909233,89.97395697914656,90.87741617495776,71.87618306609434,-3.658508673631161
chicago_control_concrete_inf_schedFalse_job16,75.39692680711396,52.38457090699368,1411.8121641507862,195.38344916093612,89.97395697914656,90.81814370617673,78.73540514432378,-3.794480582087445
chicago_control_concrete_inf_schedFalse_job30,67.57417024157847,48.454570256145345,1411.0052292520327,194.90823153963424,89.97395697914656,90.84061894874792,75.90790537102626,-3.7281834495878883
chicago_control_concrete_inf_schedFalse_job148,73.67060092896384,51.54867996505708,1411.4416911580372,195.43817178807308,89.97395697914656,90.81883212709894,77.3803081523062,-3.7162013640736973
chicago_control_concrete_inf_schedFalse_job8,58.246896058517635,43.37805048927225,1410.5683673757621,193.20300791189288,89.97395697914656,90.87070732642428,72.45534351130013,-3.682012082342908
chicago_control_concrete_inf_schedFalse_job74,55.981489765118745,42.06455865200976,1410.4932962762884,192.27208591102837,89.97395697914656,90.88294507695035,71.78661416501282,-3.696839780794747
chicago_control_concrete_inf_schedFalse_job198,62.44469611407029,45.69795615276508,1410.5957083599585,193.80873870487252,89.97395697914656,90.8757411515926,74.7636175609819,-3.8390464177200556
chicago_control_concrete_inf_schedFalse_job167,74.36459930285736,51.79439005283683,1411.7654271502206,194.11751474740652,89.97395697914656,90.84339436431866,78.27853771305112,-3.829183582641136
chicago_control_concrete_inf_schedFalse_job44,65.77537789765917,47.408242193099134,1411.4498705071308,192.98947027474247,89.97395697914656,90.84134433705515,75.35398233048194,-3.6935402286716226
chicago_control_concrete_inf_schedFalse_job81,70.33159825773478,49.779347159735764,1411.8366514058034,193.7235547890644,89.97395697914656,90.82603753603252,76.95028403713039,-3.712101570349361
chicago_control_concrete_inf_schedFalse_job121,56.665820682234646,42.42718430460869,1410.6722827569354,191.80641394395255,89.97395697914656,90.87928622255536,72.07329999486494,-3.685505310630205
chicago_control_concrete_inf_schedFalse_job4,71.267940571131,50.14764459912751,1411.8827827465757,192.26009557049463,89.97395697914656,90.83650154310833,76.72946054758808,-3.7219801301235833
chicago_control_concrete_inf_schedFalse_job172,70.6207974306717,49.97188308245741,1411.4770658698264,194.452625440078,89.97395697914656,90.83706379847318,77.01777946413043,-3.7599318446199845
chicago_control_concrete_inf_schedFalse_job175,65.74826483626407,47.39933787868366,1410.9382739411817,193.085006815142,89.97395697914656,90.86962410915555,75.20593409622774,-3.7933799191811914
chicago_control_concrete_inf_schedFalse_job66,85.44690640420076,57.34816830593247,1411.4029227042147,198.97884783934532,89.97395697914656,90.84251770222562,82.88316326348003,-4.129100557492777
chicago_control_concrete_inf_schedFalse_job89,76.57589912169394,52.86929632177528,1412.2989967080462,194.26659205756488,89.97395697914656,90.82659122713179,79.43469318020965,-3.8181554366877464
chicago_control_concrete_inf_schedFalse_job94,55.35499832236077,41.72544190666481,1410.4418684656152,192.60476650780944,89.97395697914656,90.87102700188856,71.72688628413344,-3.6580727740560235
chicago_control_concrete_inf_schedFalse_job132,55.33386880849611,41.685128320820354,1410.7764559126351,191.99654686195097,89.97395697914656,90.87438636340994,71.62896719568707,-3.641683724359993
chicago_control_concrete_inf_schedFalse_job116,62.62471883962232,45.72867849464533,1411.0292223298825,192.63083459003016,89.97395697914656,90.86575990343674,74.37073477081074,-3.736822222790991
chicago_control_concrete_inf_schedFalse_job68,53.93124714131498,40.87530291812349,1410.467592553658,191.8082757058825,89.97395697914656,90.88230658630553,71.15929127069575,-3.657283430833189
chicago_control_concrete_inf_schedFalse_job168,64.99757772772661,47.03404914757116,1411.2127298472478,193.52114575080026,89.97395697914656,90.86523019068395,75.65292706841655,-3.8150472238091027
chicago_control_concrete_inf_schedFalse_job164,70.16463591932809,49.70282908432805,1411.374883635332,193.8414199308328,89.97395697914656,90.85783350621264,76.94311631588795,-3.8315123218049933
chicago_control_concrete_inf_schedFalse_job41,69.58144273620906,49.4601901184729,1411.5656512046182,194.62070830637327,89.97395697914656,90.82342823607016,76.45534231356388,-3.7018592940379165
chicago_control_concrete_inf_schedFalse_job188,85.00554886018836,57.00763757598877,1411.9142382471146,197.26538968760903,89.97395697914656,90.81225009838026,81.58746607281645,-3.892276801926613
chicago_control_concrete_inf_schedFalse_job20,64.50317855237307,46.717172527186705,1411.5644136070582,192.53506083631117,89.97395697914656,90.84578819329246,75.0265876779531,-3.68971921189285
chicago_control_concrete_inf_schedFalse_job42,61.89461038584588,45.33110222617656,1411.0915853806046,192.50232683406017,89.97395697914656,90.86461992749399,74.07016916626128,-3.712883584737483
chicago_control_concrete_inf_schedFalse_job160,81.17775731077829,55.23423999654388,1411.6245015114043,196.9409998433917,89.97395697914656,90.84842063975209,81.63358454931492,-4.090115717991509
chicago_control_concrete_inf_schedFalse_job3,80.0447795699707,54.68208896994096,1411.563346180685,196.61498777925271,89.97395697914656,90.84725275513163,80.73388375742985,-4.009632312989169
chicago_control_concrete_inf_schedFalse_job152,68.56455826586281,48.91983910885371,1411.5484826435668,194.23631005815082,89.97395697914656,90.84509490322327,76.86283159282826,-3.789960958905766
chicago_control_concrete_inf_schedFalse_job103,76.7421740863022,53.026917414038664,1411.9284406885981,195.3334452102253,89.97395697914656,90.81362161273312,78.59606141539898,-3.7640742287371154
chicago_control_concrete_inf_schedFalse_job61,57.114149505653685,42.6819609074135,1410.7776918514032,191.8841965133953,89.97395697914656,90.87345803819633,72.31406614402809,-3.6676711205329866
chicago_control_concrete_inf_schedFalse_job133,66.57087065486567,47.894762246643104,1411.0679629499184,194.21844330304555,89.97395697914656,90.83481084891513,75.20806968533464,-3.6945317167196663
chicago_control_concrete_inf_schedFalse_job117,62.3060932856948,45.61758831228416,1411.0833469841346,193.68961808445613,89.97395697914656,90.84681778378071,74.32670614109257,-3.680588827607991
chicago_control_concrete_inf_schedFalse_job21,78.03376914309425,53.76112877132035,1411.04739828298,196.96121266633529,89.97395697914656,90.86276658426225,80.31195851455942,-4.107013139891663
chicago_control_concrete_inf_schedFalse_job162,85.97019731259432,57.36011275439776,1412.658485147449,196.31345492888929,89.97395697914656,90.82306362078361,83.09259131695887,-4.005596262106479
chicago_control_concrete_inf_schedFalse_job38,52.42414125859128,40.004541806723694,1410.4815728761844,191.82802408621413,89.97395697914656,90.88156387277608,70.40896929373648,-3.618443362547282
chicago_control_concrete_inf_schedFalse_job51,76.3553912621211,52.722942944981845,1412.4456596348587,193.70719880373642,89.97395697914656,90.82022358404652,79.08424523098054,-3.806761981795063
chicago_control_concrete_inf_schedFalse_job83,74.1974098241822,51.67672175635059,1411.9646376882931,193.60033758844645,89.97395697914656,90.8371117454704,78.03527482381598,-3.787457106856877
chicago_control_concrete_inf_schedFalse_job69,60.884527125898025,44.809276130902795,1411.0213315180945,192.9173485428431,89.97395697914656,90.8694835248495,74.08513093132866,-3.759774227311624
chicago_control_concrete_inf_schedFalse_job191,70.8156582405373,50.120361769205,1411.0454210945047,195.23220402800624,89.97395697914656,90.86805489045504,77.85034210622149,-3.9702300629008107
chicago_control_concrete_inf_schedFalse_job114,75.07428148770953,52.13115256592217,1411.9422126738905,194.023945916213,89.97395697914656,90.82060964818461,77.76107831213461,-3.744108917980583
chicago_control_concrete_inf_schedFalse_job107,64.64994102281776,46.77044307113078,1411.4074291478535,192.13795009214482,89.97395697914656,90.85688292931987,74.65022555201695,-3.703125297613127
chicago_control_concrete_inf_schedFalse_job33,73.89627659568609,51.622597897875785,1411.8220394108716,194.90991693785264,89.97395697914656,90.82593025191149,78.5009519232852,-3.8254769814864034
chicago_control_concrete_inf_schedFalse_job104,59.471630372908926,44.02626795865978,1410.8786648054459,192.6710058696999,89.97395697914656,90.87236922832687,73.32839178459902,-3.7194223790495897
chicago_control_concrete_inf_schedFalse_job169,58.80531954443881,43.65214670518639,1410.8416502392126,192.5179899124409,89.97395697914656,90.8607918255197,72.91555926894787,-3.6653889598255773
chicago_control_concrete_inf_schedFalse_job65,61.21752254168983,45.048286366644795,1410.691870731434,194.01132117666012,89.97395697914656,90.85589284999605,74.06418863797128,-3.7144732391549695
chicago_control_concrete_inf_schedFalse_job126,55.45517708568315,41.783544304336814,1410.4325891954718,192.63060918241024,89.97395697914656,90.87179907155964,71.74422920255864,-3.6596778802088323
chicago_control_concrete_inf_schedFalse_job170,73.34529016100946,51.298249757794494,1411.955886381131,194.119558399717,89.97395697914656,90.82233264416566,77.73746827430672,-3.7583982971603405
chicago_control_concrete_inf_schedFalse_job192,81.89510775384716,55.57354240271524,1411.5692031106198,197.04429231122845,89.97395697914656,90.85327728554374,81.84560877256382,-4.11353385239606
chicago_control_concrete_inf_schedFalse_job125,66.78340282795884,47.93967305181284,1411.4643460375432,193.15141067331672,89.97395697914656,90.84842097156074,76.10021820571714,-3.7554473411676383
chicago_control_concrete_inf_schedFalse_job112,70.79844134990525,50.01289285917684,1411.8944922044032,193.72444278867292,89.97395697914656,90.8260086659729,77.17364152316779,-3.754145003423929
chicago_control_concrete_inf_schedFalse_job46,74.33968544962619,51.85214600877896,1411.8377441224163,195.1012836531604,89.97395697914656,90.83727331206917,79.19981249982584,-3.881526529484759
chicago_control_concrete_inf_schedFalse_job76,67.45269286585481,48.31183298820866,1411.0137603240153,193.61281289084062,89.97395697914656,90.87433395565344,76.21440813566795,-3.896707814912645
chicago_control_concrete_inf_schedFalse_job150,59.65450337062112,44.07391910932324,1411.0190446148822,191.67171204827264,89.97395697914656,90.86509849568525,72.62544056462161,-3.630739021224599
chicago_control_concrete_inf_schedFalse_job24,63.87858731159141,46.45233852313238,1411.043357292513,193.6465367623094,89.97395697914656,90.84643072787446,74.47766410388968,-3.6792283622280166
chicago_control_concrete_inf_schedFalse_job55,67.1991124600534,48.20583872469335,1411.4829133747012,193.99577566965598,89.97395697914656,90.83635460167565,76.06983019987888,-3.715987581762235
chicago_control_concrete_inf_schedFalse_job193,72.48334390661735,50.908887593799264,1411.4631703974026,194.62151983993996,89.97395697914656,90.8521767092269,77.8656294382171,-3.857747782795826
chicago_control_concrete_inf_schedFalse_job137,66.34216975606938,47.68076218529054,1411.618937395732,192.6394878946555,89.97395697914656,90.84235732677605,75.89720127257772,-3.721252784038498
chicago_control_concrete_inf_schedFalse_job158,57.790538691329296,43.04834628952045,1410.985799789415,191.6773260220206,89.97395697914656,90.86738858367856,72.46533949730323,-3.64520304108585
chicago_control_concrete_inf_schedFalse_job54,54.07996845309845,40.956249036026996,1410.467990609184,191.71121728086942,89.97395697914656,90.87983972326194,71.01414167127791,-3.627521978088083
chicago_control_concrete_inf_schedFalse_job23,51.88462442755615,39.68886223537305,1410.2127001401846,191.8156083753389,89.97395697914656,90.89019822333908,70.2363236318777,-3.6433262072646357
chicago_control_concrete_inf_schedFalse_job119,64.74942315976465,46.81717845728536,1411.5893887294974,192.04522847052672,89.97395697914656,90.8492592099715,74.91633531304957,-3.6914641282655793
chicago_control_concrete_inf_schedFalse_job115,57.13380273876467,42.77066764720672,1410.4787447305364,193.4701133795511,89.97395697914656,90.85845936853262,72.08642640764833,-3.618801145470613
chicago_control_concrete_inf_schedFalse_job144,54.70651307528831,41.328828830759605,1410.457580355608,192.0183218736269,89.97395697914656,90.8884941508709,71.51884214872338,-3.7054474321067943
chicago_control_concrete_inf_schedFalse_job124,59.497394052272575,44.07115495226913,1410.7955729856653,193.2628662410792,89.97395697914656,90.86131573434771,73.34114546494459,-3.6952616786197154
chicago_control_concrete_inf_schedFalse_job79,82.37826422919552,55.75928035161335,1412.0098841026315,196.58339786245045,89.97395697914656,90.83096704324157,81.8895618503127,-3.9897311766961394
chicago_control_concrete_inf_schedFalse_job151,55.30419897456743,41.69790899606028,1410.5381576013465,192.63150007787868,89.97395697914656,90.87432114989024,71.75934703731588,-3.675806228284415
chicago_control_concrete_inf_schedFalse_job57,63.755171125514096,46.35540339237058,1411.3042033273043,193.09151437897305,89.97395697914656,90.85322215701177,74.85231980923774,-3.7132510373117213
chicago_control_concrete_inf_schedFalse_job140,69.28725025282807,49.22597596564199,1411.4033586852195,193.3004588121072,89.97395697914656,90.85268538378918,76.3899187435911,-3.7678673062354733
chicago_control_concrete_inf_schedFalse_job71,69.9603172426652,49.64653382202785,1411.6136627677506,194.54622469034214,89.97395697914656,90.83489151269838,77.08930452128658,-3.760110190625582
chicago_control_concrete_inf_schedFalse_job159,91.12425819989934,59.863615490058,1412.2147367750879,199.1038843330766,89.97395697914656,90.82125145612878,84.66782331931418,-4.1023748105201605
chicago_control_concrete_inf_schedFalse_job120,75.98899554851587,52.58656086574775,1412.1650494508615,194.23764120928848,89.97395697914656,90.8312783764798,79.25286876533511,-3.8296049496154865
chicago_control_concrete_inf_schedFalse_job200,73.46122978778979,51.43941235765744,1411.6950360925775,195.3370862934716,89.97395697914656,90.8142029108701,77.99743306320732,-3.7412717662365935
chicago_control_concrete_inf_schedFalse_job147,77.64570996284931,53.49140527882845,1411.748017112302,195.80051992097873,89.97395697914656,90.806909207878,78.6800198410347,-3.7313166985911295
chicago_control_concrete_inf_schedFalse_job75,74.51733928804998,51.87398326054788,1412.1828030852002,194.18730653194163,89.97395697914656,90.82215045052443,78.60495902089309,-3.8043266803206137
chicago_control_concrete_inf_schedFalse_job108,71.76371493676737,50.5321586545779,1411.819303357777,194.3085608346334,89.97395697914656,90.82130968734495,77.03794796683863,-3.722779084641431
chicago_control_concrete_inf_schedFalse_job86,62.39029097734943,45.60919554953571,1410.9739610820513,192.7325208208556,89.97395697914656,90.86636423788109,74.27804697825533,-3.7329875670533283
chicago_control_concrete_inf_schedFalse_job63,56.05769249380419,42.11985804105563,1410.5174827255262,192.5281439409657,89.97395697914656,90.8750987915128,72.08775609049025,-3.6906417497833672
chicago_control_concrete_inf_schedFalse_job13,53.15365008149436,40.43046741932569,1410.3821627323111,191.88660226247544,89.97395697914656,90.88275461926538,70.69766067288988,-3.630973489197274
chicago_control_concrete_inf_schedFalse_job36,57.439919178531746,42.8847133190622,1410.7786197151277,192.3073699595433,89.97395697914656,90.86832749445604,72.49416207311725,-3.6639897333578944
chicago_control_concrete_inf_schedFalse_job156,63.360241970243784,46.18555065874328,1410.91221608844,193.78853280792734,89.97395697914656,90.86583222116172,75.12462177098723,-3.808804947057965
chicago_control_concrete_inf_schedFalse_job196,84.83417333895737,56.82717865921308,1412.1262275166685,196.02619404848386,89.97395697914656,90.83539523515495,82.09303640679491,-4.004625431900479
chicago_control_concrete_inf_schedFalse_job32,72.90724924680174,51.11704308273111,1411.7464605520538,194.6075328831746,89.97395697914656,90.83360007997757,78.28227358227008,-3.804453837543676
chicago_control_concrete_inf_schedFalse_job183,77.40472281933916,53.296923681761555,1412.192792002312,194.71989501984123,89.97395697914656,90.80864816666215,79.17131459678195,-3.7700774206742267
chicago_control_concrete_inf_schedFalse_job178,59.51645895556818,44.032873573175294,1410.8181283079057,192.3290782674678,89.97395697914656,90.87492098200701,73.15812793520783,-3.7239489891999256
chicago_control_concrete_inf_schedFalse_job194,55.136802376216316,41.568828164137116,1410.4655314190295,191.909282068509,89.97395697914656,90.88541001039837,71.67286090491845,-3.6983007559275904
chicago_control_concrete_inf_schedFalse_job138,73.52729115486612,51.486356393162794,1411.6135763058478,195.5485390562999,89.97395697914656,90.81570706574739,77.83607093458643,-3.7354966167018375
chicago_control_concrete_inf_schedFalse_job145,64.25809462086103,46.61209621953015,1411.1486873338406,192.94685209599606,89.97395697914656,90.86029163890619,75.08155654150553,-3.7483370211205624
chicago_control_concrete_inf_schedFalse_job22,76.9239235711425,53.16512581867892,1411.1910892194007,196.04597313015665,89.97395697914656,90.87016817659858,79.98277652816408,-4.109906771674815
chicago_control_concrete_inf_schedFalse_job176,70.61090651966401,49.97214868350239,1411.5536580035016,194.53022415098027,89.97395697914656,90.82809552177463,77.18048661373683,-3.767689913780572
chicago_control_concrete_inf_schedFalse_job99,74.87731176490581,52.07787652938354,1412.001918528591,194.60488477057092,89.97395697914656,90.81642691252804,78.58271934248276,-3.787662320211112
chicago_control_concrete_inf_schedFalse_job127,80.3962420077315,54.68333796070288,1412.616467258749,194.52197033115917,89.97395697914656,90.80411441756651,80.3173199994589,-3.810322320796729
chicago_control_concrete_inf_schedFalse_job143,55.51319649577477,41.76709142326677,1410.6133823849627,191.58379482505936,89.97395697914656,90.87639112628683,71.5251416971673,-3.6357358693600332
chicago_control_concrete_inf_schedFalse_job102,60.341709812851754,44.53674557979521,1410.9078981936973,193.33679763238902,89.97395697914656,90.856822338696,73.69030348671106,-3.6932140825224593
chicago_control_concrete_inf_schedFalse_job96,64.85276943066795,46.98297650668255,1411.0241579042581,193.94661934778762,89.97395697914656,90.8675684805864,75.57868687853963,-3.8308065737127492
chicago_control_concrete_inf_schedFalse_job60,77.93613931301012,53.61017882062226,1411.9697475669918,195.5444903306297,89.97395697914656,90.82419979397484,79.63248816656149,-3.8697492821750785
chicago_control_concrete_inf_schedFalse_job73,91.09389551103632,59.764847017130485,1412.2766257292096,198.15779179737498,89.97395697914656,90.84116211899311,84.7713553537213,-4.215018439190018
chicago_control_concrete_inf_schedFalse_job184,75.03123755686269,52.17517518622519,1411.6813655776086,194.9300425667876,89.97395697914656,90.82657868568646,78.31668087432251,-3.814163004171718
chicago_control_concrete_inf_schedFalse_job56,61.33328516179152,45.1428620236471,1410.4085671208386,194.6085152450965,89.97395697914656,90.85494437198997,73.81862621707317,-3.692283739235066
chicago_control_concrete_inf_schedFalse_job106,82.15041704730137,55.66429773707823,1412.0360387771298,196.70145810287056,89.97395697914656,90.8310358985613,81.83797578902539,-3.9908444292415197
chicago_control_concrete_inf_schedFalse_job197,60.157379623368655,44.40994372096163,1410.8744928281478,192.84042064628483,89.97395697914656,90.86589120801929,73.35617917046815,-3.7066526637282067
chicago_control_concrete_inf_schedFalse_job179,91.84750406761816,60.11970259347791,1412.7284354640467,198.4906812671833,89.97395697914656,90.80367949580298,84.7823876788159,-4.044941358700967
chicago_control_concrete_inf_schedFalse_job14,60.34399039804627,44.48970795528852,1410.8923183734191,192.43059359034999,89.97395697914656,90.86984476721075,73.58746293049043,-3.715858273391916
chicago_control_concrete_inf_schedFalse_job39,62.03624491481796,45.447921221861876,1411.026754402919,193.24067302479,89.97395697914656,90.85073880241364,73.83172629504685,-3.6678227665626935
chicago_control_concrete_inf_schedFalse_job6,64.66811202406053,46.81701541253593,1411.2303614632,192.76803677472242,89.97395697914656,90.8576141964676,75.16185445047569,-3.740198141696027
chicago_control_concrete_inf_schedFalse_job58,55.93415718749154,42.04518957003456,1410.4211571951316,192.42750716724962,89.97395697914656,90.87520631666912,71.74214252439035,-3.676469746851268
chicago_control_concrete_inf_schedFalse_job139,61.608385636989006,45.19107958448789,1410.6901810461627,192.75876943599792,89.97395697914656,90.87829769305392,73.90050659478054,-3.776897037330187
chicago_control_concrete_inf_schedFalse_job5,54.684530384123015,41.319896334286014,1410.5553697695887,192.09461171883441,89.97395697914656,90.87359474197422,71.37813061629713,-3.644737678840727
chicago_control_concrete_inf_schedFalse_job9,69.74720438508795,49.545723511554996,1410.810769597535,194.66341265394558,89.97395697914656,90.88168063671324,77.43535249880321,-4.028727102953155
chicago_control_concrete_inf_schedFalse_job45,58.46312302687596,43.44537619888156,1410.8019353375391,192.16752472442482,89.97395697914656,90.86750690076872,72.91257025964015,-3.6786601657065177
chicago_control_concrete_inf_schedFalse_job10,57.1984096813301,42.740285109328546,1410.751660814408,192.11246542238862,89.97395697914656,90.87015796622504,72.15115151809798,-3.6608278697540158
chicago_control_concrete_inf_schedFalse_job12,57.89988146623585,43.15093342200677,1410.6039748381954,192.5164615309972,89.97395697914656,90.87934333688298,72.74510944095313,-3.722865973666117
chicago_control_concrete_inf_schedFalse_job189,59.85487068957632,44.313087983175734,1410.5130638755254,194.15001411756225,89.97395697914656,90.86437058243752,73.42070233374443,-3.722422026079329
chicago_control_concrete_inf_schedFalse_job190,65.22950167562419,47.221858480815634,1410.7595548121294,194.65443439997856,89.97395697914656,90.86160732812776,75.57895918284635,-3.815389876141282
chicago_control_concrete_inf_schedFalse_job153,60.855093563335764,44.836010635660095,1410.7978908959906,193.71571342712988,89.97395697914656,90.85065051882948,73.86956005621857,-3.681265023311866
chicago_control_concrete_inf_schedFalse_job122,69.69300258228442,49.373273379508504,1411.8758904394253,192.42046295423717,89.97395697914656,90.84098023336742,76.17442930195489,-3.7063114826147228
chicago_control_concrete_inf_schedFalse_job90,64.90233690894759,46.94273647695417,1411.3533516340462,192.8177428628169,89.97395697914656,90.85596245401831,75.38722550233531,-3.747341408846296
chicago_control_concrete_inf_schedFalse_job136,55.71711493261286,41.93915737004076,1410.4275948948566,192.7802358189783,89.97395697914656,90.87477806976686,71.87899074677605,-3.6789071030504346
chicago_control_concrete_inf_schedFalse_job134,64.82228391009404,46.97206404360634,1411.226251868467,194.02961520082505,89.97395697914656,90.83698066452942,75.0793090204088,-3.6713827047044845
chicago_control_concrete_inf_schedFalse_job64,54.44784614966995,41.177574054268,1410.5572774944474,191.9413645380207,89.97395697914656,90.87692382425341,71.40885668918997,-3.6560751131597584
chicago_control_concrete_inf_schedFalse_job67,67.18552896823465,48.18797568614516,1411.4801878068456,193.8198136321833,89.97395697914656,90.83502877112915,75.95681863210211,-3.710967563089426
chicago_control_concrete_inf_schedFalse_job72,55.30415982367842,41.6715796917017,1410.3138704161738,192.07550484072576,89.97395697914656,90.88823511619681,71.26448497632009,-3.674849569896736
chicago_control_concrete_inf_schedFalse_job40,71.08245979441979,50.12438957453927,1411.633354355346,193.2815261005404,89.97395697914656,90.83941416567932,76.93709655103841,-3.741585351652404
chicago_control_concrete_inf_schedFalse_job27,69.05809316476902,49.302270470753584,1410.7091210414746,196.3241760744448,89.97395697914656,90.85416752151691,76.85681394674862,-3.852701610931021
chicago_control_concrete_inf_schedFalse_job62,52.812989413676526,40.22084243186037,1410.3612087512702,191.60915331720085,89.97395697914656,90.8864354355429,70.74685239314759,-3.653949818480342
chicago_control_concrete_inf_schedFalse_job92,66.55451636239437,47.91380228897036,1410.8342457441101,194.67615183110118,89.97395697914656,90.86724822966322,76.41702058511723,-3.8959039304855168
chicago_control_concrete_inf_schedFalse_job177,85.28807593166297,57.06834954268355,1412.4165961012257,196.4685609365193,89.97395697914656,90.81902195676588,82.91603805563301,-3.9859709095090636
chicago_control_concrete_inf_schedFalse_job199,60.107731603656475,44.36275154470051,1410.8143438555921,192.46211183631817,89.97395697914656,90.87009620704929,73.31000862061424,-3.709169758906242
chicago_control_concrete_inf_schedFalse_job100,65.27595147234346,47.18343138925328,1410.909277698304,193.59060114383274,89.97395697914656,90.87374029491342,75.35988564880574,-3.8358383514788983
chicago_control_concrete_inf_schedFalse_job118,71.28659783803444,50.342236689377884,1411.4853568948859,195.0199625140136,89.97395697914656,90.81868238018757,77.1352665365473,-3.7167935434246857
chicago_control_concrete_inf_schedFalse_job111,72.27368621062237,50.751613014460006,1411.9593599501306,193.8256018728994,89.97395697914656,90.82885185136104,77.84924108784531,-3.76549351299127
chicago_control_concrete_inf_schedFalse_job182,60.46838325455828,44.61380141365325,1410.8255040199142,193.49037926380973,89.97395697914656,90.85145805773912,73.34012570195442,-3.645182159963724
chicago_control_concrete_inf_schedFalse_job129,84.85366002643259,56.828129634359186,1412.742814283478,195.92166708723943,89.97395697914656,90.79529749663642,81.7285282773625,-3.839176149690374
chicago_control_concrete_inf_schedFalse_job70,54.82195341736101,41.3885548572318,1410.4871854888947,191.88605161951747,89.97395697914656,90.88870037535028,71.36306602013526,-3.6971029266240407
chicago_control_concrete_inf_schedFalse_job37,87.6304717575767,58.15796269023454,1412.132336948105,197.0503328487089,89.97395697914656,90.83631967289708,83.21795463769212,-4.085109399090811
chicago_control_concrete_inf_schedFalse_job35,69.09016731766658,49.15845705617848,1411.432213194179,193.79695025294285,89.97395697914656,90.83376507930423,76.11379266152599,-3.6984108414054333
chicago_control_concrete_inf_schedFalse_job87,86.52787784579806,57.788957646122036,1411.623814157202,198.45321800536212,89.97395697914656,90.83806340772851,82.8974600180161,-4.0942417569547445
chicago_control_concrete_inf_schedFalse_job47,57.35072404917802,42.847503903808054,1410.609702331412,192.5632985457413,89.97395697914656,90.8792051523022,72.5088916958659,-3.7097888609567207
chicago_control_concrete_inf_schedFalse_job85,54.74672589544546,41.336286232446234,1410.5083203379197,191.68385997818828,89.97395697914656,90.88004462348526,71.2856374433324,-3.6449039107923653
chicago_control_concrete_inf_schedFalse_job109,81.07514452879398,55.134429202139,1411.6264454630414,196.2767092085806,89.97395697914656,90.86019435049354,81.1871086770091,-4.1177350184115795
chicago_control_concrete_inf_schedFalse_job141,55.29210386506697,41.70517512891637,1410.278866518103,192.93864130604985,89.97395697914656,90.8655466206103,71.46454746665842,-3.621190716402751
chicago_control_concrete_inf_schedFalse_job180,71.33539929256287,50.35126555551569,1411.3947151294876,194.79244294066365,89.97395697914656,90.83305593448928,77.12804084601834,-3.749474047247375
chicago_control_concrete_inf_schedFalse_job135,62.302873621999495,45.551676806021,1411.1150316205756,192.5370632021208,89.97395697914656,90.86246517163949,74.20261936810982,-3.712256426320536
chicago_control_concrete_inf_schedFalse_job130,63.82649093881657,46.331341368478114,1411.5389675932322,192.0218987135306,89.97395697914656,90.85018133573416,74.56206496686676,-3.6728233388247276
chicago_control_concrete_inf_schedFalse_job181,56.343678079773206,42.26330651841588,1410.641570472791,192.157306082591,89.97395697914656,90.87846408958033,72.00810856920054,-3.674323675730662
chicago_control_concrete_inf_schedFalse_job157,81.52892538971383,55.18701531721206,1412.649003755802,194.29816204745288,89.97395697914656,90.81236221165229,80.64032464644636,-3.842643018931028
chicago_control_concrete_inf_schedFalse_job161,80.79247776513917,54.97896568089509,1412.2104821685914,195.95261162309964,89.97395697914656,90.80973436781767,80.74310253059647,-3.860018457748126
chicago_control_concrete_inf_schedFalse_job128,74.5701318006283,51.88956115621223,1411.9761331807276,194.051288926407,89.97395697914656,90.83790964576993,78.99890881548956,-3.8589971877512
chicago_control_concrete_inf_schedFalse_job171,63.6197105960064,46.228449236739785,1411.222694306622,192.1341535843855,89.97395697914656,90.86123367328557,74.34212074083872,-3.7065547824008007
chicago_control_concrete_inf_schedFalse_job166,67.19922766485652,48.25322234486431,1410.9790256692406,194.77407924257042,89.97395697914656,90.86193226415413,76.41599006113265,-3.856132481754784
chicago_control_concrete_inf_schedFalse_job154,69.82603824345298,49.582701389963916,1410.7308473857354,194.62194553537546,89.97395697914656,90.88336551173745,77.09688398390134,-4.008292113175187
chicago_control_concrete_inf_schedFalse_job174,83.56350369010559,56.298208821696804,1411.94858186055,196.5653505225016,89.97395697914656,90.83598568964646,82.01386756649114,-4.023734050956932
chicago_control_concrete_inf_schedFalse_job149,72.78508527950095,50.95979673370826,1412.1429015316958,193.1960204108409,89.97395697914656,90.82726865276557,77.91805568412602,-3.752481089161961
chicago_control_concrete_inf_schedFalse_job7,78.11381470910628,53.87933929267725,1410.729429212517,198.0470964959121,89.97395697914656,90.85597531100338,80.19780168381976,-4.058706609097214
chicago_control_concrete_inf_schedFalse_job105,69.48706104558728,49.2966755202641,1411.9530236135865,192.82921104033383,89.97395697914656,90.83334297236587,76.83179354925444,-3.719833781280286
chicago_control_concrete_inf_schedFalse_job165,70.8052299267768,50.03761852493743,1411.5809294648363,194.05087235853202,89.97395697914656,90.85345894711021,77.78036089779408,-3.8697583373669033
