fname,hlc_mat,hlc_tot,hlc_se,hlc_si,hlc_inf_standard,hlc_inf_current,hlc_tot_pred,pred_err
chicago_control_concrete_inf_schedTrue_job94,55.35499832236077,41.768792284289695,1410.5885890880234,193.5291751326191,89.97395697914656,90.98552558663292,72.17621650821462,-3.9471544592440893
chicago_control_concrete_inf_schedTrue_job5,54.684530384123015,41.361929904638814,1410.7068412785266,193.00362591647823,89.97395697914656,90.99186382135262,71.43501886194795,-3.982824404610227
chicago_control_concrete_inf_schedTrue_job14,60.34399039804627,44.536034675687,1411.0667804540378,193.29701450800061,89.97395697914656,90.99544565550065,74.0976058768417,-3.962500834349271
chicago_control_concrete_inf_schedTrue_job10,57.1984096813301,42.77174860641443,1410.8803381568362,192.74739016915436,89.97395697914656,90.97118100344463,72.46253244247515,-3.8860571007641056
chicago_control_concrete_inf_schedTrue_job81,70.33159825773478,49.823442321963036,1412.0222736408966,194.3895681715498,89.97395697914656,90.94484366173195,76.61604130750493,-3.9672738560225156
chicago_control_concrete_inf_schedTrue_job58,55.93415718749154,42.090380056307204,1410.5814444841108,193.37470849376228,89.97395697914656,91.00310387129508,71.96993257936026,-3.9077901304415406
chicago_control_concrete_inf_schedTrue_job62,52.812989413676526,40.26134277814888,1410.490726733754,192.52939218806145,89.97395697914656,90.98983612303536,70.89425169397123,-3.7834527992736753
chicago_control_concrete_inf_schedTrue_job112,70.79844134990525,50.05133899467919,1412.0415075732144,194.29977878468716,89.97395697914656,90.91929616431439,76.81425761737447,-3.9166030837801173
chicago_control_concrete_inf_schedTrue_job96,64.85276943066795,47.01053994608065,1411.1143130044031,194.41546736032697,89.97395697914656,90.9327692159297,75.6018483977727,-3.895760105558935
chicago_control_concrete_inf_schedTrue_job141,55.29210386506697,41.74639339251914,1410.4338263089726,193.82104938249952,89.97395697914656,90.98962727321586,71.20829952315856,-3.8576356822907627
chicago_control_concrete_inf_schedTrue_job167,74.36459930285736,51.82450071848007,1411.8410635403436,194.53970075783923,89.97395697914656,90.88918874780033,77.89115041622227,-3.9927353934295127
chicago_control_concrete_inf_schedTrue_job165,70.8052299267768,50.07823125489018,1411.7118117585949,194.66061525570962,89.97395697914656,90.93517697720121,77.14774375818689,-4.10955411520699
chicago_control_concrete_inf_schedTrue_job85,54.74672589544546,41.37589247711539,1410.661803338558,192.53564986581486,89.97395697914656,90.99665593952456,71.58448689871395,-3.92926435927059
chicago_control_concrete_inf_schedTrue_job33,73.89627659568609,51.66051894633232,1411.9472355947028,195.4492128429127,89.97395697914656,90.90176765551159,78.05601784477477,-4.039911975746264
chicago_control_concrete_inf_schedTrue_job104,59.471630372908926,44.06888499199124,1411.0151127769586,193.48730784345864,89.97395697914656,90.96918853658462,73.66141091493293,-3.8850096357589337
chicago_control_concrete_inf_schedTrue_job24,63.87858731159141,46.49020164072245,1411.1885096478147,194.30348061022246,89.97395697914656,90.94894850916747,73.56489946552506,-3.912998757062695
chicago_control_concrete_inf_schedTrue_job30,67.57417024157847,48.476103218268506,1411.0928378845285,195.25543584860554,89.97395697914656,90.90203591485043,75.36217882435179,-3.8080525668531777
chicago_control_concrete_inf_schedTrue_job197,60.157379623368655,44.42980837890811,1410.944769567344,193.21421953689202,89.97395697914656,90.91812101425015,73.63360248170267,-3.7551661319421754
chicago_control_concrete_inf_schedTrue_job120,75.98899554851587,52.64455115450416,1412.3681103956742,195.02730080769828,89.97395697914656,90.95152824268924,78.89755680551767,-4.191624034337636
chicago_control_concrete_inf_schedTrue_job186,76.34432480858142,52.86366655291716,1411.855501315574,195.70444979516424,89.97395697914656,90.91939327772536,77.73122149552819,-3.9540793824149887
chicago_control_concrete_inf_schedTrue_job8,58.246896058517635,43.403340579052056,1410.640626390041,193.70435066741945,89.97395697914656,90.92540769522905,72.75212061470627,-3.8241315062398797
chicago_control_concrete_inf_schedTrue_job102,60.341709812851754,44.557794260494155,1410.995985030344,193.7324229272056,89.97395697914656,90.92410339096185,73.17397606737063,-3.8595539897165025
chicago_control_concrete_inf_schedTrue_job68,53.93124714131498,40.91168791569431,1410.5923089578882,192.6097814418483,89.97395697914656,90.98110597161008,71.4484410667849,-3.853838962062852
chicago_control_concrete_inf_schedTrue_job193,72.48334390661735,50.96855954298308,1411.6446463020636,195.49303101341062,89.97395697914656,90.96785100710619,77.31077696573591,-4.10572045713721
chicago_control_concrete_inf_schedTrue_job160,81.17775731077829,55.275514355276485,1411.7533639462995,197.46421636297475,89.97395697914656,90.92327420886609,81.30885000105215,-4.384723423809277
chicago_control_concrete_inf_schedTrue_job66,85.44690640420076,57.388513386677594,1411.538739706465,199.4626777403404,89.97395697914656,90.92197358048129,82.1868531596698,-4.269031630220894
chicago_control_concrete_inf_schedTrue_job52,64.3676556120379,46.75795772214862,1411.2584094947886,194.46197800745853,89.97395697914656,90.93586714103391,74.46316951725154,-3.9437506235729103
chicago_control_concrete_inf_schedTrue_job140,69.28725025282807,49.25464924794033,1411.4747707467718,193.7420029175629,89.97395697914656,90.89846810023303,75.98979329801816,-3.9284133336656737
chicago_control_concrete_inf_schedTrue_job192,81.89510775384716,55.60479087804146,1411.6513849425312,197.43609198016185,89.97395697914656,90.90175456512905,81.47754310477049,-4.258411555394545
chicago_control_concrete_inf_schedTrue_job65,61.21752254168983,45.082525691336414,1410.8517684310175,194.64494923358782,89.97395697914656,90.97538440700389,73.32497940411923,-3.9719332947191504
chicago_control_concrete_inf_schedTrue_job158,57.790538691329296,43.076264319336296,1411.1064075532965,192.22982422402725,89.97395697914656,90.95199082231248,72.22345435048175,-3.817953443051664
chicago_control_concrete_inf_schedTrue_job181,56.343678079773206,42.29273160777582,1410.7635118651194,192.7648165097154,89.97395697914656,90.97313241997509,72.2335162274936,-3.7979141043180533
chicago_control_concrete_inf_schedTrue_job4,71.267940571131,50.17373050194045,1411.9789672715926,192.64229844286956,89.97395697914656,90.89601697136095,76.26298727545571,-3.8531814329219998
chicago_control_concrete_inf_schedTrue_job126,55.45517708568315,41.81532319599265,1410.5447607622314,193.30578956882226,89.97395697914656,90.95977318786377,72.46977214175848,-3.884366438897999
chicago_control_concrete_inf_schedTrue_job37,87.6304717575767,58.211237830199174,1412.3062012576581,197.65985798362564,89.97395697914656,90.93119269527489,82.99517044486774,-4.317445425062715
chicago_control_concrete_inf_schedTrue_job154,69.82603824345298,49.63824172696721,1410.8910529054106,195.47740315595038,89.97395697914656,90.99120730152272,78.279170899577,-4.17541518257751
chicago_control_concrete_inf_schedTrue_job175,65.74826483626407,47.44839872420443,1411.0767563948666,193.89910834215203,89.97395697914656,90.96586021251204,75.23099379047738,-3.9966365222281155
chicago_control_concrete_inf_schedTrue_job118,71.28659783803444,50.38455909745014,1411.6564302110226,195.6533453202507,89.97395697914656,90.92869942990964,76.77501057935723,-3.9715129238308577
chicago_control_concrete_inf_schedTrue_job194,55.136802376216316,41.600215207083195,1410.5816557274084,192.57791952727652,89.97395697914656,90.9764297594956,71.96241952935928,-3.885562278629081
chicago_control_concrete_inf_schedTrue_job196,84.83417333895737,56.86589692050489,1412.2908284831283,196.48449234266118,89.97395697914656,90.92949977427364,81.59757977811007,-4.2503201664653005
chicago_control_concrete_inf_schedTrue_job47,57.35072404917802,42.88226871948024,1410.7284302524974,193.26522604857274,89.97395697914656,90.96958581284306,72.46922999861759,-3.8957874509178794
chicago_control_concrete_inf_schedTrue_job148,73.67060092896384,51.584005850554874,1411.5682236547345,195.94448789765815,89.97395697914656,90.90101556356562,76.8335522356825,-3.899700640611101
chicago_control_concrete_inf_schedTrue_job172,70.6207974306717,50.01411143836446,1411.6231123373827,195.09081304140526,89.97395697914656,90.93036461257364,76.41054686301311,-4.032845852006375
chicago_control_concrete_inf_schedTrue_job82,63.58551400676207,46.33782731100571,1410.8234403831962,194.36413059751962,89.97395697914656,90.95125937511652,75.46623842745687,-4.094715594074344
chicago_control_concrete_inf_schedTrue_job157,81.52892538971383,55.230107741569455,1412.8159575016946,194.8301916624396,89.97395697914656,90.90573757347916,80.76586862149006,-4.0816475951921944
chicago_control_concrete_inf_schedTrue_job116,62.62471883962232,45.77878172608496,1411.1876963748864,193.52007283987976,89.97395697914656,90.97511741181457,74.34680199424884,-3.9929813102148444
chicago_control_concrete_inf_schedTrue_job162,85.97019731259432,57.3875459022821,1412.752691981981,196.6333358420255,89.97395697914656,90.87204586499303,82.49101898224959,-4.127826226340744
chicago_control_concrete_inf_schedTrue_job63,56.05769249380419,42.14961042857246,1410.6432724586655,193.14899387340122,89.97395697914656,90.97765433683996,72.03571789054087,-3.840758076684054
chicago_control_concrete_inf_schedTrue_job113,67.06513149121793,48.130803345225104,1411.3743930558637,193.89960730472518,89.97395697914656,90.95758315388085,76.13865701583734,-3.898400503038147
chicago_control_concrete_inf_schedTrue_job190,65.22950167562419,47.26292303540733,1410.8856512145544,195.35168196169215,89.97395697914656,90.95121717400188,75.0326555220384,-3.957578953388932
chicago_control_concrete_inf_schedTrue_job168,64.99757772772661,47.08084896629124,1411.3610641614935,194.3130722012637,89.97395697914656,90.96660634056303,76.44356603086788,-3.955438195478564
chicago_control_concrete_inf_schedTrue_job108,71.76371493676737,50.570650922959025,1411.975648431745,194.87596187269918,89.97395697914656,90.92172871971529,76.6091104331581,-3.9885916556011267
chicago_control_concrete_inf_schedTrue_job159,91.12425819989934,59.88358778775068,1412.323764126379,199.3228176351997,89.97395697914656,90.8821261109393,84.23112011397791,-4.220809424341496
chicago_control_concrete_inf_schedTrue_job22,76.9239235711425,53.2181617273521,1411.3847168716723,196.76530870505448,89.97395697914656,90.99354308289689,80.87523883144065,-4.302527914519274
chicago_control_concrete_inf_schedTrue_job6,64.66811202406053,46.856330762694625,1411.3731611468115,193.43364145607308,89.97395697914656,90.95569160173933,75.77431256625799,-3.9163853291441058
chicago_control_concrete_inf_schedTrue_job128,74.5701318006283,51.91772278515397,1412.089076214045,194.44358368660798,89.97395697914656,90.90588242581305,78.38149186723572,-3.9482569549856095
chicago_control_concrete_inf_schedTrue_job16,75.39692680711396,52.42742021686639,1411.985029145089,195.97754361135426,89.97395697914656,90.92566778403132,78.5048238025669,-3.995702786832723
chicago_control_concrete_inf_schedTrue_job189,59.85487068957632,44.352527831516525,1410.6667243206393,194.9064531721418,89.97395697914656,90.98562436392035,73.8682474833834,-3.8920683828243625
chicago_control_concrete_inf_schedTrue_job57,63.755171125514096,46.391175307927554,1411.4343324018023,193.71126302277102,89.97395697914656,90.94398460746547,73.96328704141231,-3.891255301768524
chicago_control_concrete_inf_schedTrue_job21,78.03376914309425,53.820485798020506,1411.2111924883661,197.75704934381068,89.97395697914656,90.96515171332165,79.64099098668501,-4.462607889975217
chicago_control_concrete_inf_schedTrue_job173,62.8120742122354,45.863267987955886,1411.1688412705726,193.24407591364246,89.97395697914656,90.91592218571802,74.64995787757661,-3.805616432496791
chicago_control_concrete_inf_schedTrue_job101,76.91705528648936,53.210631572972666,1411.8144587630534,196.6989702222176,89.97395697914656,90.8857735274414,79.54804001513801,-3.9698590278755432
chicago_control_concrete_inf_schedTrue_job109,81.07514452879398,55.18756849572537,1411.8396036598263,196.94767968639619,89.97395697914656,90.98995835592414,81.3648593978775,-4.333710464647993
chicago_control_concrete_inf_schedTrue_job72,55.30415982367842,41.68876643617157,1410.3877211133706,192.43981274608814,89.97395697914656,90.94832434616568,71.41358598547129,-3.770871977942761
chicago_control_concrete_inf_schedTrue_job103,76.7421740863022,53.04610095263284,1412.0268582728072,195.59211864795088,89.97395697914656,90.875852979537,77.84453430226388,-3.9044186139323926
chicago_control_concrete_inf_schedTrue_job69,60.884527125898025,44.84937692021813,1411.1613958764408,193.66020783363888,89.97395697914656,90.97173700682825,74.12808156510562,-3.932379325087865
chicago_control_concrete_inf_schedTrue_job86,62.39029097734943,45.635586624797924,1411.058662423422,193.20307588948174,89.97395697914656,90.92723890690112,74.54615246902696,-3.819197337551259
chicago_control_concrete_inf_schedTrue_job117,62.3060932856948,45.6585401948275,1411.25637522242,194.42677249935556,89.97395697914656,90.9724182031029,73.50533966741705,-3.9757125288719664
chicago_control_concrete_inf_schedTrue_job73,91.09389551103632,59.81359935269215,1412.4170946531603,198.69197823333204,89.97395697914656,90.91766891736559,85.01343379864595,-4.364202153023427
chicago_control_concrete_inf_schedTrue_job143,55.51319649577477,41.799607081102124,1410.7274625054004,192.26772606451738,89.97395697914656,90.96080162403908,71.9753370247415,-3.8467264806859447
chicago_control_concrete_inf_schedTrue_job105,69.48706104558728,49.334707372336766,1412.0957255427868,193.40975648102227,89.97395697914656,90.92510944998199,76.4705975079109,-3.915807368430123
chicago_control_concrete_inf_schedTrue_job67,67.18552896823465,48.21319243544315,1411.571494127247,194.2266820990457,89.97395697914656,90.89797820852202,75.42819879758349,-3.810912092829639
chicago_control_concrete_inf_schedTrue_job182,60.46838325455828,44.636935944294976,1410.901324937193,193.92485307861102,89.97395697914656,90.90827038931454,72.5607188397469,-3.7572188489402407
chicago_control_concrete_inf_schedTrue_job122,69.69300258228442,49.427677285925846,1412.0616701172626,193.24595034998603,89.97395697914656,90.95911423290782,75.49037474150069,-4.021895449076439
chicago_control_concrete_inf_schedTrue_job9,69.74720438508795,49.60240919267417,1410.9624088074136,195.5384856995076,89.97395697914656,90.98262894277,79.12501643115262,-4.24173160661023
chicago_control_concrete_inf_schedTrue_job23,51.88462442755615,39.71682436673586,1410.3102055089569,192.46869260006105,89.97395697914656,90.96969805468433,70.54136807558463,-3.7892195100738633
chicago_control_concrete_inf_schedTrue_job136,55.71711493261286,41.981425090000336,1410.5879489516958,193.67355000592354,89.97395697914656,91.00182715798825,72.05537880857857,-3.9221106985918084
chicago_control_concrete_inf_schedTrue_job115,57.13380273876467,42.78906940095981,1410.556678086656,193.84573908277318,89.97395697914656,90.92234283517368,71.69149613432117,-3.780873841927317
chicago_control_concrete_inf_schedTrue_job76,67.45269286585481,48.36738078023586,1411.1865457321494,194.50475531380212,89.97395697914656,90.99329260058398,77.08470179477848,-4.158912388971473
chicago_control_concrete_inf_schedTrue_job184,75.03123755686269,52.213728915630966,1411.8014407270725,195.46697186447463,89.97395697914656,90.90098447536026,78.1135440082912,-4.038647249694847
chicago_control_concrete_inf_schedTrue_job42,61.89461038584588,45.36421427284307,1411.2001239863473,193.09883913048512,89.97395697914656,90.93966791230925,72.62189165548872,-3.940237660877429
chicago_control_concrete_inf_schedTrue_job31,51.01645375432617,39.19303035864273,1410.5534204001801,192.14955023860838,89.97395697914656,91.02574048720139,69.6117023337042,-3.8711121247510647
chicago_control_concrete_inf_schedTrue_job176,70.61090651966401,50.006793007883395,1411.677118929052,195.05391086515988,89.97395697914656,90.9070445560013,76.75699924208791,-3.942698150332518
chicago_control_concrete_inf_schedTrue_job185,59.08468816493759,43.804449961585014,1411.1947078545763,192.48341750562085,89.97395697914656,90.97298767913459,72.82419251555297,-3.869932684518986
chicago_control_concrete_inf_schedTrue_job99,74.87731176490581,52.122534572384055,1412.1631553970153,195.2268618565306,89.97395697914656,90.91499193395886,77.8043507649937,-3.97523971773046
chicago_control_concrete_inf_schedTrue_job59,65.20972852332228,47.24385588897654,1410.8250550946002,195.204477494177,89.97395697914656,90.99320643759481,75.84925188518827,-4.115824678652245
chicago_control_concrete_inf_schedTrue_job149,72.78508527950095,51.00223590694066,1412.3323994308234,193.80384194902493,89.97395697914656,90.94079653174578,77.10695870703012,-3.957010727219327
chicago_control_concrete_inf_schedTrue_job11,73.2616424257807,51.36612660322441,1411.8799497775813,195.6909044768644,89.97395697914656,90.94999239866932,79.2209673037753,-4.131624450012083
chicago_control_concrete_inf_schedTrue_job164,70.16463591932809,49.7579019480231,1411.549964285015,194.67845113563286,89.97395697914656,90.96998244021131,77.59677674859822,-4.163098511801337
chicago_control_concrete_inf_schedTrue_job100,65.27595147234346,47.23467296727264,1411.0464354755725,194.45351776791512,89.97395697914656,90.96769449917153,75.55826892499036,-4.108111701247054
chicago_control_concrete_inf_schedTrue_job3,80.0447795699707,54.7321443281555,1411.7336752709216,197.26033612653697,89.97395697914656,90.95104177504706,79.77652393684869,-4.231533867767709
chicago_control_concrete_inf_schedTrue_job121,56.665820682234646,42.46742234179899,1410.8201291187802,192.62879663721455,89.97395697914656,90.9862225496181,72.28418982369578,-3.9255151620235864
chicago_control_concrete_inf_schedTrue_job56,61.33328516179152,45.18565490703539,1410.5617086246343,195.4033544496787,89.97395697914656,90.96774041433936,72.92024336899449,-3.9464985096980882
chicago_control_concrete_inf_schedTrue_job161,80.79247776513917,55.017981900698054,1412.3821274412974,196.44582020785757,89.97395697914656,90.91048141104648,80.48458572847504,-4.03965448813247
chicago_control_concrete_inf_schedTrue_job155,73.00063527527956,51.37908556463725,1411.1379743196842,197.78428029566186,89.97395697914656,90.95246506211376,77.31879621013442,-4.189027023330269
chicago_control_concrete_inf_schedTrue_job134,64.82228391009404,47.007663090134265,1411.3456389718458,194.6362175219064,89.97395697914656,90.9220950164732,74.38021409681267,-3.923613493924904
chicago_control_concrete_inf_schedTrue_job39,62.03624491481796,45.46934127358763,1411.0989519648278,193.627156326608,89.97395697914656,90.90254828560218,73.05949440620404,-3.838359663993046
chicago_control_concrete_inf_schedTrue_job13,53.15365008149436,40.46243009977876,1410.5299376084865,192.6059560752301,89.97395697914656,91.00238816827182,70.55226399623723,-3.9329693724777712
chicago_control_concrete_inf_schedTrue_job138,73.52729115486612,51.52003285036769,1411.7647808038073,196.0323070109272,89.97395697914656,90.91508505552375,77.54866637341598,-3.8807037076767585
chicago_control_concrete_inf_schedTrue_job83,74.1974098241822,51.70309620528807,1412.0591441963336,193.9692475795731,89.97395697914656,90.8951524118687,77.54823363553223,-3.940169273471767
chicago_control_concrete_inf_schedTrue_job163,87.08840823452275,58.00861425182157,1412.0937009660938,198.09565710314283,89.97395697914656,90.88566190443589,82.53454348671494,-4.1329831717443
chicago_control_concrete_inf_schedTrue_job156,63.360241970243784,46.211252398657926,1411.0005977734222,194.24015129550307,89.97395697914656,90.93035124578381,75.34571780355522,-3.887358874588017
chicago_control_concrete_inf_schedTrue_job110,59.22569622046479,43.982462230982335,1410.7998229705217,194.4407708553086,89.97395697914656,90.9730793068949,72.48339649205383,-4.001719006465734
chicago_control_concrete_inf_schedTrue_job114,75.07428148770953,52.17875173459614,1412.1428428581414,194.6811238776766,89.97395697914656,90.94508735552176,77.09380547847151,-4.057413743878016
chicago_control_concrete_inf_schedTrue_job119,64.74942315976465,46.863938123122345,1411.7657838171426,192.83118891952046,89.97395697914656,90.96651264205283,74.64169868935792,-3.919653422453493
chicago_control_concrete_inf_schedTrue_job74,55.981489765118745,42.09780487464941,1410.6096684962472,192.9664856704328,89.97395697914656,90.97497696614268,71.69006651082779,-3.859275894406778
chicago_control_concrete_inf_schedTrue_job174,83.56350369010559,56.36179799729363,1412.1421608958206,197.3389469522047,89.97395697914656,90.94762267652008,81.37808748087186,-4.345333219125521
chicago_control_concrete_inf_schedTrue_job132,55.33386880849611,41.72179423665806,1410.9044364902381,192.77446664327343,89.97395697914656,90.9713289343199,70.92641810960221,-3.84176850530244
chicago_control_concrete_inf_schedTrue_job90,64.90233690894759,46.99269325268465,1411.5604155898748,193.65949383867468,89.97395697914656,90.99806085651636,75.081862896454,-4.036396916083703
chicago_control_concrete_inf_schedTrue_job169,58.80531954443881,43.69320859322869,1411.0175560756186,193.3159334304644,89.97395697914656,90.9923187329501,73.02444139164155,-3.8852049290037627
chicago_control_concrete_inf_schedTrue_job46,74.33968544962619,51.89282328119784,1411.9776559451418,195.67573589478408,89.97395697914656,90.92396697841166,79.93895760970605,-4.0330961445942535
chicago_control_concrete_inf_schedTrue_job43,57.56126694737847,42.96774181944519,1410.9624604148166,192.6135094927761,89.97395697914656,90.98520240192049,72.72536224693738,-3.906108451804002
chicago_control_concrete_inf_schedTrue_job124,59.497394052272575,44.09320581040148,1410.8752667079737,193.68613018278225,89.97395697914656,90.92144820650903,72.64274039943086,-3.8033106591151835
chicago_control_concrete_inf_schedTrue_job198,62.44469611407029,45.7351665677865,1410.7262554186068,194.47732364231652,89.97395697914656,90.97052209003928,74.92248947895399,-4.027743893948411
chicago_control_concrete_inf_schedTrue_job191,70.8156582405373,50.17593782593992,1411.188435397866,196.0754201767912,89.97395697914656,90.96239947468906,77.95984201050811,-4.147693263873279
chicago_control_concrete_inf_schedTrue_job170,73.34529016100946,51.34330076594355,1412.1064123915226,194.7633921047959,89.97395697914656,90.91494044605301,77.19519633499547,-4.017182513834356
chicago_control_concrete_inf_schedTrue_job71,69.9603172426652,49.68855279562584,1411.7568602684294,195.1903127881161,89.97395697914656,90.92884476693942,76.77953983054769,-4.0642781330236915
chicago_control_concrete_inf_schedTrue_job70,54.82195341736101,41.40938854632581,1410.5709515548624,192.33312395285301,89.97395697914656,90.9574288719506,71.84823221181946,-3.8116847910719116
chicago_control_concrete_inf_schedTrue_job107,64.64994102281776,46.80529620756559,1411.5363705232128,192.72511188792697,89.97395697914656,90.94256842834369,74.02572656298055,-3.9060889678721225
chicago_control_concrete_inf_schedTrue_job87,86.52787784579806,57.81747987138327,1411.715279335087,198.7881732123226,89.97395697914656,90.89280486389963,82.31244394127324,-4.233318480409537
chicago_control_concrete_inf_schedTrue_job7,78.11381470910628,53.90361486120742,1410.8153752777969,198.3737839729574,89.97395697914656,90.9117623678739,79.3711618742019,-4.196497206108617
chicago_control_concrete_inf_schedTrue_job54,54.07996845309845,40.97614374379493,1410.5553164336889,192.14628296314254,89.97395697914656,90.95094769572381,71.02097580216761,-3.7175933285632112
chicago_control_concrete_inf_schedTrue_job123,52.28860083958738,39.928682553536795,1410.4579859263738,191.90041293163242,89.97395697914656,90.94136188313381,70.38053358126315,-3.687053839442129
chicago_control_concrete_inf_schedTrue_job146,56.81299559355434,42.53271266671056,1410.8294418520707,192.27421650209118,89.97395697914656,90.97567212732937,71.95073223386731,-3.936498713101429
chicago_control_concrete_inf_schedTrue_job55,67.1991124600534,48.22896259278917,1411.558772683799,194.36937606537262,89.97395697914656,90.88754044981954,75.60348047412603,-3.8606151591138484
chicago_control_concrete_inf_schedTrue_job89,76.57589912169394,52.89375849985533,1412.3969923909751,194.59542247399432,89.97395697914656,90.88393769788311,78.78750822450685,-3.9327871006323107
chicago_control_concrete_inf_schedTrue_job35,69.09016731766658,49.1859949075399,1411.518065428308,194.22401513914718,89.97395697914656,90.89176555070416,75.47451968814426,-3.844103086051689
chicago_control_concrete_inf_schedTrue_job32,72.90724924680174,51.14383322121186,1411.8469495899665,194.99448387411275,89.97395697914656,90.89628392665439,77.80914792666034,-3.9640026378515216
chicago_control_concrete_inf_schedTrue_job51,76.3553912621211,52.767561955018365,1412.6287112824714,194.3074000893265,89.97395697914656,90.92695103581235,78.4448115593841,-3.9962950047498538
chicago_control_concrete_inf_schedTrue_job142,60.500679959086625,44.72884273651038,1410.3899533714364,195.34396924092312,89.97395697914656,90.98958700625673,72.80728063168456,-3.9673080138296797
chicago_control_concrete_inf_schedTrue_job20,64.50317855237307,46.753554126840676,1411.6868589590792,193.15221696211697,89.97395697914656,90.92833541961299,74.68636688480701,-3.926778740625764
chicago_control_concrete_inf_schedTrue_job178,59.51645895556818,44.08089154430057,1410.979660880992,193.24551798276943,89.97395697914656,90.993182052849,73.85397681751931,-3.951061751959301
chicago_control_concrete_inf_schedTrue_job106,82.15041704730137,55.709951543566206,1412.174930393598,197.2700183859468,89.97395697914656,90.9125914816913,81.17687556289016,-4.237738019683221
chicago_control_concrete_inf_schedTrue_job125,66.78340282795884,47.98461687265818,1411.6152586404671,193.8802257949293,89.97395697914656,90.94819864440836,75.76106745361415,-3.966106423480923
chicago_control_concrete_inf_schedTrue_job199,60.107731603656475,44.40471850430959,1410.9732932296472,193.25151202220425,89.97395697914656,90.98870096949132,73.92360612383801,-3.9346325311206556
chicago_control_concrete_inf_schedTrue_job177,85.28807593166297,57.109296946577146,1412.5872220446909,196.9514086069808,89.97395697914656,90.91531167312814,82.60806712922032,-4.216578424310526
chicago_control_concrete_inf_schedTrue_job171,63.6197105960064,46.26073936949091,1411.347381078002,192.69083816014918,89.97395697914656,90.94663493721468,74.59195955806432,-3.867396788043507
chicago_control_concrete_inf_schedTrue_job147,77.64570996284931,53.52744909472576,1411.8951766615005,196.2814797359881,89.97395697914656,90.89990020768295,78.82616924431778,-3.9962342737317726
chicago_control_concrete_inf_schedTrue_job92,66.55451636239437,47.97065147450856,1411.0003627943704,195.61486929610217,89.97395697914656,90.97992639860227,76.35241789905174,-4.1929608189654175
chicago_control_concrete_inf_schedTrue_job150,59.65450337062112,44.120770016898675,1411.1736630158493,192.55807386033547,89.97395697914656,90.97545372195893,72.76573809130906,-3.77881720398652
chicago_control_concrete_inf_schedTrue_job152,68.56455826586281,48.94805356265307,1411.6390997020112,194.68014741363567,89.97395697914656,90.90594385384523,76.25849646576052,-3.8799778338604085
chicago_control_concrete_inf_schedTrue_job131,60.104146239465585,44.485437773986675,1410.6262370131244,194.83401651066936,89.97395697914656,90.97047941265956,72.54237789259705,-3.9422042655918403
chicago_control_concrete_inf_schedTrue_job98,60.30212438470948,44.49271675408754,1411.3045207809064,192.9064197055322,89.97395697914656,90.9833163526709,73.29475989721475,-3.8901268798954476
chicago_control_concrete_inf_schedTrue_job183,77.40472281933916,53.35138855244668,1412.3842052465884,195.4452031934871,89.97395697914656,90.9228957912874,79.02729324435359,-4.075442242522968
chicago_control_concrete_inf_schedTrue_job166,67.19922766485652,48.30062505785208,1411.0959553042194,195.54649206144745,89.97395697914656,90.94186143768535,75.54027368618013,-4.022293291148401
chicago_control_concrete_inf_schedTrue_job188,85.00554886018836,57.0504621457987,1412.058253420976,197.77629082904812,89.97395697914656,90.89634460610974,81.26242941966012,-4.11298792623333
chicago_control_concrete_inf_schedTrue_job45,58.46312302687596,43.465773775689826,1410.893826261402,192.565527434324,89.97395697914656,90.93749605179657,72.92638455642009,-3.7545962526221786
chicago_control_concrete_inf_schedTrue_job151,55.30419897456743,41.73003921800167,1410.6410184782885,193.31719492310452,89.97395697914656,90.9533777968795,71.7152107891261,-3.766786318141442
chicago_control_concrete_inf_schedTrue_job187,87.4603078524386,58.16812234910417,1412.6496151488045,198.0237562471788,89.97395697914656,90.93028314284868,82.5888578291285,-4.340934574949941
chicago_control_concrete_inf_schedTrue_job179,91.84750406761816,60.17581153120821,1412.8916193556686,199.10037273533155,89.97395697914656,90.88945092275061,84.27106309935793,-4.207901501485438
chicago_control_concrete_inf_schedTrue_job75,74.51733928804998,51.917150599917925,1412.3350434997974,194.7907141531306,89.97395697914656,90.91616900929907,78.28354639873235,-3.9788216575343966
chicago_control_concrete_inf_schedTrue_job61,57.114149505653685,42.70237811340582,1410.8427656409067,192.29633267864762,89.97395697914656,90.92000043946676,72.27209069487682,-3.741091111561971
chicago_control_concrete_inf_schedTrue_job127,80.3962420077315,54.73988324771275,1412.8195434785653,195.23551198934197,89.97395697914656,90.91962061940875,79.90993257394501,-4.063003695081051
chicago_control_concrete_inf_schedTrue_job129,84.85366002643259,56.87580320007758,1412.9146143943658,196.4861613562481,89.97395697914656,90.890042092205,81.6950269105275,-4.181821949330754
chicago_control_concrete_inf_schedTrue_job36,57.439919178531746,42.919324945359655,1410.89763513964,193.0031047517918,89.97395697914656,90.955423754632,72.62474982226456,-3.873741994616978
chicago_control_concrete_inf_schedTrue_job38,52.42414125859128,40.04128822839589,1410.6282545016488,192.67317272958354,89.97395697914656,91.00225428757373,70.0089031840466,-3.865836123800605
chicago_control_concrete_inf_schedTrue_job200,73.46122978778979,51.458020577420136,1411.7965862320739,195.60374664274445,89.97395697914656,90.88010488015053,77.93008791366249,-3.863040402052249
chicago_control_concrete_inf_schedTrue_job180,71.33539929256287,50.40273802765633,1411.5821264056854,195.5614794941922,89.97395697914656,90.95411176272576,76.00722587112583,-3.9682335454436384
chicago_control_concrete_inf_schedTrue_job145,64.25809462086103,46.65794399863407,1411.2919569518995,193.732176275432,89.97395697914656,90.95924473430657,75.32817256959154,-3.969160908591178
chicago_control_concrete_inf_schedTrue_job135,62.302873621999495,45.585950702297,1411.2543675439651,193.14827025303802,89.97395697914656,90.9633796819176,74.04274327043305,-3.8903949609789095
chicago_control_concrete_inf_schedTrue_job18,65.33364347894315,47.234749496348186,1411.3579287816585,193.9387532210248,89.97395697914656,90.91574143838969,75.29773504813365,-3.883689269906
chicago_control_concrete_inf_schedTrue_job64,54.44784614966995,41.19696296166708,1410.6289159989756,192.36203800743712,89.97395697914656,90.9336773708676,71.52357043144448,-3.7368420467319083
chicago_control_concrete_inf_schedTrue_job60,77.93613931301012,53.65953188487672,1412.1328235844192,196.19956115215282,89.97395697914656,90.92118837730767,79.16317529970114,-4.128466962147087
chicago_control_concrete_inf_schedTrue_job153,60.855093563335764,44.86601467461315,1410.9062113265336,194.27499383288352,89.97395697914656,90.92863168465281,72.86409017515969,-3.8286076319139255
chicago_control_concrete_inf_schedTrue_job144,54.70651307528831,41.36331566194896,1410.605987337689,192.76226678864623,89.97395697914656,91.00816809001611,71.95998222298893,-3.944339527945374
chicago_control_concrete_inf_schedTrue_job133,66.57087065486567,47.93466193519303,1411.2173741113538,194.8733746289208,89.97395697914656,90.93647459948508,75.92341958207857,-3.9023729742752664
chicago_control_concrete_inf_schedTrue_job27,69.05809316476902,49.34137446233762,1410.8383827803355,196.94318861475082,89.97395697914656,90.94491785102323,75.78152136234735,-4.074452473362754
chicago_control_concrete_inf_schedTrue_job91,57.62889342709804,43.05690243111536,1410.6473446500308,193.6566314708675,89.97395697914656,90.92779346272715,72.36771432566624,-3.758980622300186
chicago_control_concrete_inf_schedTrue_job12,57.89988146623585,43.18340162805697,1410.7346302661026,193.16196885592618,89.97395697914656,90.98380899047442,73.40774175525712,-3.92365988355985
chicago_control_concrete_inf_schedTrue_job79,82.37826422919552,55.82007926979959,1412.2092860250666,197.33730056763633,89.97395697914656,90.94511520399651,81.11239673211148,-4.191042007680309
chicago_control_concrete_inf_schedTrue_job137,66.34216975606938,47.72689960231619,1411.7967933111997,193.3914805774113,89.97395697914656,90.95836803209929,76.10605562277301,-3.939601106216557
chicago_control_concrete_inf_schedTrue_job41,69.58144273620906,49.50067436181545,1411.729138197803,195.24592425369408,89.97395697914656,90.93315802404555,76.35210150049619,-3.9100118795207948
chicago_control_concrete_inf_schedTrue_job139,61.608385636989006,45.233254466112015,1410.8188281567386,193.52601442022566,89.97395697914656,90.96924994180206,74.00698594739134,-3.96224112205185
chicago_control_concrete_inf_schedTrue_job130,63.82649093881657,46.353962082776874,1411.6189834659738,192.40956947880298,89.97395697914656,90.90387542305855,73.92869327861692,-3.8117937570228264
chicago_control_concrete_inf_schedTrue_job111,72.27368621062237,50.807867036607206,1412.1508522415506,194.64503050037013,89.97395697914656,90.94527616366942,77.02966733670294,-4.076376944189619
chicago_control_concrete_inf_schedTrue_job44,65.77537789765917,47.432762527492955,1411.5501613544125,193.39457049538657,89.97395697914656,90.90998949867611,74.63133022823025,-3.7805355285290716
chicago_control_concrete_inf_schedTrue_job34,73.15896941098755,51.23226616818845,1412.2982066756877,194.4761207897017,89.97395697914656,90.9438232228581,77.65343678783105,-4.132107528813648
chicago_control_concrete_inf_schedTrue_job40,71.08245979441979,50.16623176447249,1411.7600472132142,193.9027752668846,89.97395697914656,90.920102141888,76.54282855199332,-3.97552153721918
chicago_control_concrete_inf_schedTrue_job195,63.956311240238044,46.479852281054875,1411.437945724935,193.40386379851714,89.97395697914656,90.97944713629788,74.95778186081162,-3.9920731785649366
