fname,hlc_mat,hlc_tot,hlc_se,hlc_si,c_tot,hlc_inf_standard,hlc_inf_current,hlc_tot_pred
chicago_control_concrete_inf_schedFalse_job18,65.33364347894315,47.213102021984426,1411.2605018364375,193.57617175641388,2623214.0694151004,89.97395697914656,90.84700012692618,46.11803007516646
chicago_control_concrete_inf_schedFalse_job163,87.08840823452275,57.98256464748326,1411.9905062858707,197.79422618858487,2529170.430627834,89.97395697914656,90.82748427903898,
chicago_control_concrete_inf_schedFalse_job185,59.08468816493759,43.762437184231466,1411.0485647602945,191.67753930884442,2613557.631348228,89.97395697914656,90.86737176611526,47.523818587083895
chicago_control_concrete_inf_schedFalse_job31,51.01645375432617,39.153149739308674,1410.3940077533111,191.19770292707128,2634950.22582816,89.97395697914656,90.89145946734384,53.37103828797656
chicago_control_concrete_inf_schedFalse_job195,63.956311240238044,46.42917294516076,1411.260092350089,192.5327185730692,2588393.194682978,89.97395697914656,90.85760938950477,46.269032450418
chicago_control_concrete_inf_schedFalse_job34,73.15896941098755,51.17723377156944,1412.1141541856366,193.6889744661737,2579977.0810101097,89.97395697914656,90.83077913735856,43.09073366186969
chicago_control_concrete_inf_schedFalse_job43,57.56126694737847,42.93044136923681,1410.818121546645,191.86888489604047,2638598.8950033826,89.97395697914656,90.87705689786898,48.0457278883878
chicago_control_concrete_inf_schedFalse_job82,63.58551400676207,46.29920718700345,1410.7148249264178,193.68850546931301,2553995.6813968443,89.97395697914656,90.87270968457055,46.22191348021123
chicago_control_concrete_inf_schedFalse_job110,59.22569622046479,43.942335037140005,1410.6416276558905,193.66194237469026,2560265.5926420395,89.97395697914656,90.85418394979322,47.188125469840635
chicago_control_concrete_inf_schedFalse_job101,76.91705528648936,53.190750498372246,1411.7146717820738,196.42950199926972,2539124.9576308136,89.97395697914656,90.8221852416946,
chicago_control_concrete_inf_schedFalse_job173,62.8120742122354,45.837333787228324,1411.09219147039,192.7859205205378,2575950.3685615063,89.97395697914656,90.86228145125064,46.36570358656055
chicago_control_concrete_inf_schedFalse_job142,60.500679959086625,44.68649661624854,1410.2213343423084,194.54206623212318,2591252.8443129305,89.97395697914656,90.8583247091847,47.44261457559276
chicago_control_concrete_inf_schedFalse_job52,64.3676556120379,46.72203530484167,1411.1316306827728,193.84454209094315,2578457.4034618153,89.97395697914656,90.84689231817264,45.64008865209682
chicago_control_concrete_inf_schedFalse_job98,60.30212438470948,44.44867947968108,1411.1395352073116,192.0843802956147,2533915.8517902503,89.97395697914656,90.86300945738573,46.12153798667359
chicago_control_concrete_inf_schedFalse_job59,65.20972852332228,47.196520474287745,1410.6607543422117,194.4020067270499,2505345.9029670306,89.97395697914656,90.87791467346653,77.67615534986768
chicago_control_concrete_inf_schedFalse_job113,67.06513149121793,48.089838081811976,1411.2325476540284,193.2391263681814,2582055.847536604,89.97395697914656,90.85972171501683,45.52512881148001
chicago_control_concrete_inf_schedFalse_job186,76.34432480858142,52.82300031997868,1411.6870114282724,195.15148460398902,2575547.755628296,89.97395697914656,90.8139629215208,43.07300871758277
chicago_control_concrete_inf_schedFalse_job187,87.4603078524386,58.10343067357212,1412.4566144759262,197.27977636519748,2495994.089443441,89.97395697914656,90.82532663591887,58.12403465036065
chicago_control_concrete_inf_schedFalse_job155,73.00063527527956,51.32369157337295,1410.973006001513,196.9691405849631,2543727.714501265,89.97395697914656,90.8455011956329,57.014723311000445
chicago_control_concrete_inf_schedFalse_job91,57.62889342709804,43.036171033983294,1410.5668713884427,193.23946670153882,2591427.1646053963,89.97395697914656,90.86376343123645,48.43235386885808
chicago_control_concrete_inf_schedFalse_job131,60.104146239465585,44.444171189725324,1410.4781469092718,194.04771755164742,2552243.794255691,89.97395697914656,90.85721354695106,46.61069945703758
chicago_control_concrete_inf_schedFalse_job11,73.2616424257807,51.30835660017658,1411.7076453505213,194.8583532337646,2527340.8031802457,89.97395697914656,90.84445505365566,43.65873536660295
chicago_control_concrete_inf_schedFalse_job123,52.28860083958738,39.910130508961,1410.3892896940783,191.47391294225272,2564273.183482834,89.97395697914656,90.88449390855658,51.11021357907037
chicago_control_concrete_inf_schedFalse_job146,56.81299559355434,42.49916950329565,1410.6977785301615,191.5930546909233,2627950.9882056336,89.97395697914656,90.87741617495776,49.002358594411795
chicago_control_concrete_inf_schedFalse_job16,75.39692680711396,52.38457090699368,1411.8121641507862,195.38344916093612,2567814.668896182,89.97395697914656,90.81814370617673,42.50477739187991
chicago_control_concrete_inf_schedFalse_job30,67.57417024157847,48.454570256145345,1411.0052292520327,194.90823153963424,2566983.3965714434,89.97395697914656,90.84061894874792,44.90594915864331
chicago_control_concrete_inf_schedFalse_job148,73.67060092896384,51.54867996505708,1411.4416911580372,195.43817178807308,2580848.5559886275,89.97395697914656,90.81883212709894,43.782144605199655
chicago_control_concrete_inf_schedFalse_job8,58.246896058517635,43.37805048927225,1410.5683673757621,193.20300791189288,2531543.3238876304,89.97395697914656,90.87070732642428,79.67992155758849
chicago_control_concrete_inf_schedFalse_job74,55.981489765118745,42.06455865200976,1410.4932962762884,192.27208591102837,2596641.44842878,89.97395697914656,90.88294507695035,48.965708820511644
chicago_control_concrete_inf_schedFalse_job198,62.44469611407029,45.69795615276508,1410.5957083599585,193.80873870487252,2554001.9743869165,89.97395697914656,90.8757411515926,46.4502528139326
chicago_control_concrete_inf_schedFalse_job167,74.36459930285736,51.79439005283683,1411.7654271502206,194.11751474740652,2532332.070928897,89.97395697914656,90.84339436431866,43.40286590425235
chicago_control_concrete_inf_schedFalse_job44,65.77537789765917,47.408242193099134,1411.4498705071308,192.98947027474247,2602896.055709727,89.97395697914656,90.84134433705515,45.38748454639067
chicago_control_concrete_inf_schedFalse_job81,70.33159825773478,49.779347159735764,1411.8366514058034,193.7235547890644,2565340.4683280373,89.97395697914656,90.82603753603252,43.602138101624355
chicago_control_concrete_inf_schedFalse_job121,56.665820682234646,42.42718430460869,1410.6722827569354,191.80641394395255,2603280.6587064075,89.97395697914656,90.87928622255536,48.016208726986186
chicago_control_concrete_inf_schedFalse_job4,71.267940571131,50.14764459912751,1411.8827827465757,192.26009557049463,2657266.4117457354,89.97395697914656,90.83650154310833,44.18732823742814
chicago_control_concrete_inf_schedFalse_job172,70.6207974306717,49.97188308245741,1411.4770658698264,194.452625440078,2546395.609341374,89.97395697914656,90.83706379847318,44.26800423209726
chicago_control_concrete_inf_schedFalse_job175,65.74826483626407,47.39933787868366,1410.9382739411817,193.085006815142,2549452.775586227,89.97395697914656,90.86962410915555,45.063645715823476
chicago_control_concrete_inf_schedFalse_job66,85.44690640420076,57.34816830593247,1411.4029227042147,198.97884783934532,2487390.4762330125,89.97395697914656,90.84251770222562,82.51714299446081
chicago_control_concrete_inf_schedFalse_job89,76.57589912169394,52.86929632177528,1412.2989967080462,194.26659205756488,2545743.421624439,89.97395697914656,90.82659122713179,
chicago_control_concrete_inf_schedFalse_job94,55.35499832236077,41.72544190666481,1410.4418684656152,192.60476650780944,2617287.7706010104,89.97395697914656,90.87102700188856,49.20182207067927
chicago_control_concrete_inf_schedFalse_job132,55.33386880849611,41.685128320820354,1410.7764559126351,191.99654686195097,2548798.1632038034,89.97395697914656,90.87438636340994,48.58454416575542
chicago_control_concrete_inf_schedFalse_job116,62.62471883962232,45.72867849464533,1411.0292223298825,192.63083459003016,2579649.0730634495,89.97395697914656,90.86575990343674,45.621355748879125
chicago_control_concrete_inf_schedFalse_job68,53.93124714131498,40.87530291812349,1410.467592553658,191.8082757058825,2610459.208260022,89.97395697914656,90.88230658630553,49.635359290606075
chicago_control_concrete_inf_schedFalse_job168,64.99757772772661,47.03404914757116,1411.2127298472478,193.52114575080026,2573890.9810464843,89.97395697914656,90.86523019068395,45.32155448939129
chicago_control_concrete_inf_schedFalse_job164,70.16463591932809,49.70282908432805,1411.374883635332,193.8414199308328,2559731.6593829836,89.97395697914656,90.85783350621264,44.18602643732757
chicago_control_concrete_inf_schedFalse_job41,69.58144273620906,49.4601901184729,1411.5656512046182,194.62070830637327,2542971.3115902618,89.97395697914656,90.82342823607016,43.900465092846105
chicago_control_concrete_inf_schedFalse_job188,85.00554886018836,57.00763757598877,1411.9142382471146,197.26538968760903,2563740.7052267804,89.97395697914656,90.81225009838026,57.72638722512071
chicago_control_concrete_inf_schedFalse_job20,64.50317855237307,46.717172527186705,1411.5644136070582,192.53506083631117,2601441.3898418616,89.97395697914656,90.84578819329246,45.52963830608045
chicago_control_concrete_inf_schedFalse_job42,61.89461038584588,45.33110222617656,1411.0915853806046,192.50232683406017,2552370.3696660916,89.97395697914656,90.86461992749399,45.540524145726266
chicago_control_concrete_inf_schedFalse_job160,81.17775731077829,55.23423999654388,1411.6245015114043,196.9409998433917,2529024.6449131635,89.97395697914656,90.84842063975209,
chicago_control_concrete_inf_schedFalse_job3,80.0447795699707,54.68208896994096,1411.563346180685,196.61498777925271,2514692.4985719044,89.97395697914656,90.84725275513163,
chicago_control_concrete_inf_schedFalse_job152,68.56455826586281,48.91983910885371,1411.5484826435668,194.23631005815082,2554720.6315504597,89.97395697914656,90.84509490322327,44.59179984226966
chicago_control_concrete_inf_schedFalse_job103,76.7421740863022,53.026917414038664,1411.9284406885981,195.3334452102253,2597623.514262208,89.97395697914656,90.81362161273312,43.07094856396574
chicago_control_concrete_inf_schedFalse_job61,57.114149505653685,42.6819609074135,1410.7776918514032,191.8841965133953,2610249.0140007734,89.97395697914656,90.87345803819633,48.10818878498226
chicago_control_concrete_inf_schedFalse_job133,66.57087065486567,47.894762246643104,1411.0679629499184,194.21844330304555,2636043.2602171977,89.97395697914656,90.83481084891513,45.344921502852394
chicago_control_concrete_inf_schedFalse_job117,62.3060932856948,45.61758831228416,1411.0833469841346,193.68961808445613,2575654.1983984793,89.97395697914656,90.84681778378071,46.55744205349391
chicago_control_concrete_inf_schedFalse_job21,78.03376914309425,53.76112877132035,1411.04739828298,196.96121266633529,2511841.179127334,89.97395697914656,90.86276658426225,43.22233186083164
chicago_control_concrete_inf_schedFalse_job162,85.97019731259432,57.36011275439776,1412.658485147449,196.31345492888929,2530036.4083500896,89.97395697914656,90.82306362078361,58.127637267631606
chicago_control_concrete_inf_schedFalse_job38,52.42414125859128,40.004541806723694,1410.4815728761844,191.82802408621413,2561266.3961253646,89.97395697914656,90.88156387277608,50.50179671694029
chicago_control_concrete_inf_schedFalse_job51,76.3553912621211,52.722942944981845,1412.4456596348587,193.70719880373642,2616536.031489216,89.97395697914656,90.82022358404652,42.545173963949914
chicago_control_concrete_inf_schedFalse_job83,74.1974098241822,51.67672175635059,1411.9646376882931,193.60033758844645,2564781.4202515106,89.97395697914656,90.8371117454704,43.49870563050132
chicago_control_concrete_inf_schedFalse_job69,60.884527125898025,44.809276130902795,1411.0213315180945,192.9173485428431,2578043.4250418902,89.97395697914656,90.8694835248495,47.01230754729447
chicago_control_concrete_inf_schedFalse_job191,70.8156582405373,50.120361769205,1411.0454210945047,195.23220402800624,2521172.2736736895,89.97395697914656,90.86805489045504,44.35259578539713
chicago_control_concrete_inf_schedFalse_job114,75.07428148770953,52.13115256592217,1411.9422126738905,194.023945916213,2602228.312301653,89.97395697914656,90.82060964818461,43.37325080153209
chicago_control_concrete_inf_schedFalse_job107,64.64994102281776,46.77044307113078,1411.4074291478535,192.13795009214482,2602660.168912279,89.97395697914656,90.85688292931987,46.27370707693375
chicago_control_concrete_inf_schedFalse_job33,73.89627659568609,51.622597897875785,1411.8220394108716,194.90991693785264,2621448.327414606,89.97395697914656,90.82593025191149,43.43927288226789
chicago_control_concrete_inf_schedFalse_job104,59.471630372908926,44.02626795865978,1410.8786648054459,192.6710058696999,2559436.3877416584,89.97395697914656,90.87236922832687,46.73491984324104
chicago_control_concrete_inf_schedFalse_job169,58.80531954443881,43.65214670518639,1410.8416502392126,192.5179899124409,2634185.6595059307,89.97395697914656,90.8607918255197,47.958641220074796
chicago_control_concrete_inf_schedFalse_job65,61.21752254168983,45.048286366644795,1410.691870731434,194.01132117666012,2595231.7186778397,89.97395697914656,90.85589284999605,47.02818192447957
chicago_control_concrete_inf_schedFalse_job126,55.45517708568315,41.783544304336814,1410.4325891954718,192.63060918241024,2609219.3522845698,89.97395697914656,90.87179907155964,49.22170593310982
chicago_control_concrete_inf_schedFalse_job170,73.34529016100946,51.298249757794494,1411.955886381131,194.119558399717,2583302.180818829,89.97395697914656,90.82233264416566,43.53988552550151
chicago_control_concrete_inf_schedFalse_job192,81.89510775384716,55.57354240271524,1411.5692031106198,197.04429231122845,2490221.62678818,89.97395697914656,90.85327728554374,
chicago_control_concrete_inf_schedFalse_job125,66.78340282795884,47.93967305181284,1411.4643460375432,193.15141067331672,2607629.9539618734,89.97395697914656,90.84842097156074,45.09780206907392
chicago_control_concrete_inf_schedFalse_job112,70.79844134990525,50.01289285917684,1411.8944922044032,193.72444278867292,2623603.221828503,89.97395697914656,90.8260086659729,44.24005544663317
chicago_control_concrete_inf_schedFalse_job46,74.33968544962619,51.85214600877896,1411.8377441224163,195.1012836531604,2580231.1152603207,89.97395697914656,90.83727331206917,43.499573175969786
chicago_control_concrete_inf_schedFalse_job76,67.45269286585481,48.31183298820866,1411.0137603240153,193.61281289084062,2562961.6485762615,89.97395697914656,90.87433395565344,44.77590029289527
chicago_control_concrete_inf_schedFalse_job150,59.65450337062112,44.07391910932324,1411.0190446148822,191.67171204827264,2575657.516397197,89.97395697914656,90.86509849568525,47.0644632086829
chicago_control_concrete_inf_schedFalse_job24,63.87858731159141,46.45233852313238,1411.043357292513,193.6465367623094,2565817.451220548,89.97395697914656,90.84643072787446,46.28288471380014
chicago_control_concrete_inf_schedFalse_job55,67.1991124600534,48.20583872469335,1411.4829133747012,193.99577566965598,2562297.737754357,89.97395697914656,90.83635460167565,44.89741861336446
chicago_control_concrete_inf_schedFalse_job193,72.48334390661735,50.908887593799264,1411.4631703974026,194.62151983993996,2526192.0383603815,89.97395697914656,90.8521767092269,44.18781286035001
chicago_control_concrete_inf_schedFalse_job137,66.34216975606938,47.68076218529054,1411.618937395732,192.6394878946555,2635317.654652835,89.97395697914656,90.84235732677605,45.14710190342689
chicago_control_concrete_inf_schedFalse_job158,57.790538691329296,43.04834628952045,1410.985799789415,191.6773260220206,2578306.072866703,89.97395697914656,90.86738858367856,47.279128544727534
chicago_control_concrete_inf_schedFalse_job54,54.07996845309845,40.956249036026996,1410.467990609184,191.71121728086942,2565515.0151732382,89.97395697914656,90.87983972326194,48.59914481689762
chicago_control_concrete_inf_schedFalse_job23,51.88462442755615,39.68886223537305,1410.2127001401846,191.8156083753389,2579057.2109390534,89.97395697914656,90.89019822333908,51.156785557957775
chicago_control_concrete_inf_schedFalse_job119,64.74942315976465,46.81717845728536,1411.5893887294974,192.04522847052672,2628818.692932354,89.97395697914656,90.8492592099715,45.53727258246317
chicago_control_concrete_inf_schedFalse_job115,57.13380273876467,42.77066764720672,1410.4787447305364,193.4701133795511,2562521.5600256664,89.97395697914656,90.85845936853262,47.462604352229064
chicago_control_concrete_inf_schedFalse_job144,54.70651307528831,41.328828830759605,1410.457580355608,192.0183218736269,2573913.5054746238,89.97395697914656,90.8884941508709,48.67383661218477
chicago_control_concrete_inf_schedFalse_job124,59.497394052272575,44.07115495226913,1410.7955729856653,193.2628662410792,2577478.598222495,89.97395697914656,90.86131573434771,47.37995584205966
chicago_control_concrete_inf_schedFalse_job79,82.37826422919552,55.75928035161335,1412.0098841026315,196.58339786245045,2526786.599109346,89.97395697914656,90.83096704324157,
chicago_control_concrete_inf_schedFalse_job151,55.30419897456743,41.69790899606028,1410.5381576013465,192.63150007787868,2598285.226179951,89.97395697914656,90.87432114989024,49.25367272496328
chicago_control_concrete_inf_schedFalse_job57,63.755171125514096,46.35540339237058,1411.3042033273043,193.09151437897305,2533553.1369353374,89.97395697914656,90.85322215701177,45.41129426927798
chicago_control_concrete_inf_schedFalse_job140,69.28725025282807,49.22597596564199,1411.4033586852195,193.3004588121072,2546539.5337939477,89.97395697914656,90.85268538378918,44.23032032315758
chicago_control_concrete_inf_schedFalse_job71,69.9603172426652,49.64653382202785,1411.6136627677506,194.54622469034214,2545158.4527377905,89.97395697914656,90.83489151269838,44.37078603806708
chicago_control_concrete_inf_schedFalse_job159,91.12425819989934,59.863615490058,1412.2147367750879,199.1038843330766,2494065.2692891397,89.97395697914656,90.82125145612878,56.703746788707754
chicago_control_concrete_inf_schedFalse_job120,75.98899554851587,52.58656086574775,1412.1650494508615,194.23764120928848,2546918.595159868,89.97395697914656,90.8312783764798,42.44832101451889
chicago_control_concrete_inf_schedFalse_job200,73.46122978778979,51.43941235765744,1411.6950360925775,195.3370862934716,2608912.2529187924,89.97395697914656,90.8142029108701,43.23870377925955
chicago_control_concrete_inf_schedFalse_job147,77.64570996284931,53.49140527882845,1411.748017112302,195.80051992097873,2569620.8058046694,89.97395697914656,90.806909207878,57.87085148078919
chicago_control_concrete_inf_schedFalse_job75,74.51733928804998,51.87398326054788,1412.1828030852002,194.18730653194163,2619723.275440233,89.97395697914656,90.82215045052443,43.29434022711083
chicago_control_concrete_inf_schedFalse_job108,71.76371493676737,50.5321586545779,1411.819303357777,194.3085608346334,2575006.910193786,89.97395697914656,90.82130968734495,43.63325248063997
chicago_control_concrete_inf_schedFalse_job86,62.39029097734943,45.60919554953571,1410.9739610820513,192.7325208208556,2556815.4091334813,89.97395697914656,90.86636423788109,45.28685568293104
chicago_control_concrete_inf_schedFalse_job63,56.05769249380419,42.11985804105563,1410.5174827255262,192.5281439409657,2607406.1740453993,89.97395697914656,90.8750987915128,49.1561048047602
chicago_control_concrete_inf_schedFalse_job13,53.15365008149436,40.43046741932569,1410.3821627323111,191.88660226247544,2531990.6087987544,89.97395697914656,90.88275461926538,49.262157187618776
chicago_control_concrete_inf_schedFalse_job36,57.439919178531746,42.8847133190622,1410.7786197151277,192.3073699595433,2580734.434447834,89.97395697914656,90.86832749445604,48.17181383396692
chicago_control_concrete_inf_schedFalse_job156,63.360241970243784,46.18555065874328,1410.91221608844,193.78853280792734,2581749.2128771334,89.97395697914656,90.86583222116172,46.357740174153115
chicago_control_concrete_inf_schedFalse_job196,84.83417333895737,56.82717865921308,1412.1262275166685,196.02619404848386,2530635.271867392,89.97395697914656,90.83539523515495,
chicago_control_concrete_inf_schedFalse_job32,72.90724924680174,51.11704308273111,1411.7464605520538,194.6075328831746,2543202.2567002582,89.97395697914656,90.83360007997757,43.632608622545945
chicago_control_concrete_inf_schedFalse_job183,77.40472281933916,53.296923681761555,1412.192792002312,194.71989501984123,2566711.1633309824,89.97395697914656,90.80864816666215,57.74218546323643
chicago_control_concrete_inf_schedFalse_job178,59.51645895556818,44.032873573175294,1410.8181283079057,192.3290782674678,2595948.6919521224,89.97395697914656,90.87492098200701,47.54688825979335
chicago_control_concrete_inf_schedFalse_job194,55.136802376216316,41.568828164137116,1410.4655314190295,191.909282068509,2620576.5504714227,89.97395697914656,90.88541001039837,48.80626820649276
chicago_control_concrete_inf_schedFalse_job138,73.52729115486612,51.486356393162794,1411.6135763058478,195.5485390562999,2561111.3106231266,89.97395697914656,90.81570706574739,
chicago_control_concrete_inf_schedFalse_job145,64.25809462086103,46.61209621953015,1411.1486873338406,192.94685209599606,2570190.5005153683,89.97395697914656,90.86029163890619,45.23215210774568
chicago_control_concrete_inf_schedFalse_job22,76.9239235711425,53.16512581867892,1411.1910892194007,196.04597313015665,2517431.57716193,89.97395697914656,90.87016817659858,43.868849787096785
chicago_control_concrete_inf_schedFalse_job176,70.61090651966401,49.97214868350239,1411.5536580035016,194.53022415098027,2612077.0338125792,89.97395697914656,90.82809552177463,44.10540912091945
chicago_control_concrete_inf_schedFalse_job99,74.87731176490581,52.07787652938354,1412.001918528591,194.60488477057092,2637139.474722359,89.97395697914656,90.81642691252804,43.18169030637524
chicago_control_concrete_inf_schedFalse_job127,80.3962420077315,54.68333796070288,1412.616467258749,194.52197033115917,2600549.361200413,89.97395697914656,90.80411441756651,41.70123986666413
chicago_control_concrete_inf_schedFalse_job143,55.51319649577477,41.76709142326677,1410.6133823849627,191.58379482505936,2590540.440886881,89.97395697914656,90.87639112628683,48.03977083865902
chicago_control_concrete_inf_schedFalse_job102,60.341709812851754,44.53674557979521,1410.9078981936973,193.33679763238902,2598853.8189760903,89.97395697914656,90.856822338696,47.204677439257885
chicago_control_concrete_inf_schedFalse_job96,64.85276943066795,46.98297650668255,1411.0241579042581,193.94661934778762,2549862.8035598537,89.97395697914656,90.8675684805864,45.33548925689264
chicago_control_concrete_inf_schedFalse_job60,77.93613931301012,53.61017882062226,1411.9697475669918,195.5444903306297,2590811.3543123947,89.97395697914656,90.82419979397484,42.67755772387583
chicago_control_concrete_inf_schedFalse_job73,91.09389551103632,59.764847017130485,1412.2766257292096,198.15779179737498,2498062.503058318,89.97395697914656,90.84116211899311,
chicago_control_concrete_inf_schedFalse_job184,75.03123755686269,52.17517518622519,1411.6813655776086,194.9300425667876,2623600.7100732997,89.97395697914656,90.82657868568646,43.640393333436016
chicago_control_concrete_inf_schedFalse_job56,61.33328516179152,45.1428620236471,1410.4085671208386,194.6085152450965,2568161.6501213117,89.97395697914656,90.85494437198997,46.2355978957631
chicago_control_concrete_inf_schedFalse_job106,82.15041704730137,55.66429773707823,1412.0360387771298,196.70145810287056,2522529.3697179323,89.97395697914656,90.8310358985613,
chicago_control_concrete_inf_schedFalse_job197,60.157379623368655,44.40994372096163,1410.8744928281478,192.84042064628483,2597539.473395058,89.97395697914656,90.86589120801929,48.0328260970849
chicago_control_concrete_inf_schedFalse_job179,91.84750406761816,60.11970259347791,1412.7284354640467,198.4906812671833,2508349.3490126673,89.97395697914656,90.80367949580298,55.06001057078729
chicago_control_concrete_inf_schedFalse_job14,60.34399039804627,44.48970795528852,1410.8923183734191,192.43059359034999,2572500.947943663,89.97395697914656,90.86984476721075,46.47336069882142
chicago_control_concrete_inf_schedFalse_job39,62.03624491481796,45.447921221861876,1411.026754402919,193.24067302479,2592733.3774850494,89.97395697914656,90.85073880241364,46.85649448620525
chicago_control_concrete_inf_schedFalse_job6,64.66811202406053,46.81701541253593,1411.2303614632,192.76803677472242,2579005.7190123736,89.97395697914656,90.8576141964676,45.187772067907105
chicago_control_concrete_inf_schedFalse_job58,55.93415718749154,42.04518957003456,1410.4211571951316,192.42750716724962,2621401.523058013,89.97395697914656,90.87520631666912,49.57521105001813
chicago_control_concrete_inf_schedFalse_job139,61.608385636989006,45.19107958448789,1410.6901810461627,192.75876943599792,2584197.4186468325,89.97395697914656,90.87829769305392,46.81763249425122
chicago_control_concrete_inf_schedFalse_job5,54.684530384123015,41.319896334286014,1410.5553697695887,192.09461171883441,2620954.5666534025,89.97395697914656,90.87359474197422,49.29898587244305
chicago_control_concrete_inf_schedFalse_job9,69.74720438508795,49.545723511554996,1410.810769597535,194.66341265394558,2534650.7655049968,89.97395697914656,90.88168063671324,44.90938364799709
chicago_control_concrete_inf_schedFalse_job45,58.46312302687596,43.44537619888156,1410.8019353375391,192.16752472442482,2610065.2230192698,89.97395697914656,90.86750690076872,47.725885055399
chicago_control_concrete_inf_schedFalse_job10,57.1984096813301,42.740285109328546,1410.751660814408,192.11246542238862,2636687.6756487205,89.97395697914656,90.87015796622504,48.906008773537
chicago_control_concrete_inf_schedFalse_job12,57.89988146623585,43.15093342200677,1410.6039748381954,192.5164615309972,2558708.2447662572,89.97395697914656,90.87934333688298,47.44394202952237
chicago_control_concrete_inf_schedFalse_job189,59.85487068957632,44.313087983175734,1410.5130638755254,194.15001411756225,2577902.6182665545,89.97395697914656,90.86437058243752,47.417515196037705
chicago_control_concrete_inf_schedFalse_job190,65.22950167562419,47.221858480815634,1410.7595548121294,194.65443439997856,2540445.5347138653,89.97395697914656,90.86160732812776,45.43703303249386
chicago_control_concrete_inf_schedFalse_job153,60.855093563335764,44.836010635660095,1410.7978908959906,193.71571342712988,2643843.778653419,89.97395697914656,90.85065051882948,47.46196861632722
chicago_control_concrete_inf_schedFalse_job122,69.69300258228442,49.373273379508504,1411.8758904394253,192.42046295423717,2591922.7152037816,89.97395697914656,90.84098023336742,44.52536440589916
chicago_control_concrete_inf_schedFalse_job90,64.90233690894759,46.94273647695417,1411.3533516340462,192.8177428628169,2600056.70808017,89.97395697914656,90.85596245401831,45.46989358996586
chicago_control_concrete_inf_schedFalse_job136,55.71711493261286,41.93915737004076,1410.4275948948566,192.7802358189783,2579332.4363100305,89.97395697914656,90.87477806976686,48.682707156105465
chicago_control_concrete_inf_schedFalse_job134,64.82228391009404,46.97206404360634,1411.226251868467,194.02961520082505,2561380.827879749,89.97395697914656,90.83698066452942,45.32161947327673
chicago_control_concrete_inf_schedFalse_job64,54.44784614966995,41.177574054268,1410.5572774944474,191.9413645380207,2606471.775051821,89.97395697914656,90.87692382425341,49.31827301261047
chicago_control_concrete_inf_schedFalse_job67,67.18552896823465,48.18797568614516,1411.4801878068456,193.8198136321833,2603559.120362618,89.97395697914656,90.83502877112915,45.15423826129528
chicago_control_concrete_inf_schedFalse_job72,55.30415982367842,41.6715796917017,1410.3138704161738,192.07550484072576,2540255.4073160635,89.97395697914656,90.88823511619681,47.880450267954934
chicago_control_concrete_inf_schedFalse_job40,71.08245979441979,50.12438957453927,1411.633354355346,193.2815261005404,2595946.4891254273,89.97395697914656,90.83941416567932,44.72097986960941
chicago_control_concrete_inf_schedFalse_job27,69.05809316476902,49.302270470753584,1410.7091210414746,196.3241760744448,2519135.1898884377,89.97395697914656,90.85416752151691,57.6795967904381
chicago_control_concrete_inf_schedFalse_job62,52.812989413676526,40.22084243186037,1410.3612087512702,191.60915331720085,2616393.0765327746,89.97395697914656,90.8864354355429,51.01427729462843
chicago_control_concrete_inf_schedFalse_job92,66.55451636239437,47.91380228897036,1410.8342457441101,194.67615183110118,2548653.3209161116,89.97395697914656,90.86724822966322,45.46191292760353
chicago_control_concrete_inf_schedFalse_job177,85.28807593166297,57.06834954268355,1412.4165961012257,196.4685609365193,2559709.924058708,89.97395697914656,90.81902195676588,
chicago_control_concrete_inf_schedFalse_job199,60.107731603656475,44.36275154470051,1410.8143438555921,192.46211183631817,2594510.869616249,89.97395697914656,90.87009620704929,47.41479652861958
chicago_control_concrete_inf_schedFalse_job100,65.27595147234346,47.18343138925328,1410.909277698304,193.59060114383274,2553410.5481190532,89.97395697914656,90.87374029491342,45.44517586659439
chicago_control_concrete_inf_schedFalse_job118,71.28659783803444,50.342236689377884,1411.4853568948859,195.0199625140136,2614500.9098652494,89.97395697914656,90.81868238018757,43.61470728595583
chicago_control_concrete_inf_schedFalse_job111,72.27368621062237,50.751613014460006,1411.9593599501306,193.8256018728994,2589961.7618514644,89.97395697914656,90.82885185136104,43.57356422801586
chicago_control_concrete_inf_schedFalse_job182,60.46838325455828,44.61380141365325,1410.8255040199142,193.49037926380973,2536458.4369654404,89.97395697914656,90.85145805773912,46.2702783769572
chicago_control_concrete_inf_schedFalse_job129,84.85366002643259,56.828129634359186,1412.742814283478,195.92166708723943,2560318.51970573,89.97395697914656,90.79529749663642,55.22528446649887
chicago_control_concrete_inf_schedFalse_job70,54.82195341736101,41.3885548572318,1410.4871854888947,191.88605161951747,2610746.3325116285,89.97395697914656,90.88870037535028,49.76396194979751
chicago_control_concrete_inf_schedFalse_job37,87.6304717575767,58.15796269023454,1412.132336948105,197.0503328487089,2506791.4071636293,89.97395697914656,90.83631967289708,
chicago_control_concrete_inf_schedFalse_job35,69.09016731766658,49.15845705617848,1411.432213194179,193.79695025294285,2581715.888286074,89.97395697914656,90.83376507930423,44.94171980347736
chicago_control_concrete_inf_schedFalse_job87,86.52787784579806,57.788957646122036,1411.623814157202,198.45321800536212,2484288.675805437,89.97395697914656,90.83806340772851,81.28615413523251
chicago_control_concrete_inf_schedFalse_job47,57.35072404917802,42.847503903808054,1410.609702331412,192.5632985457413,2557460.2280922164,89.97395697914656,90.8792051523022,47.90500239226339
chicago_control_concrete_inf_schedFalse_job85,54.74672589544546,41.336286232446234,1410.5083203379197,191.68385997818828,2593252.0031897286,89.97395697914656,90.88004462348526,48.718343777596445
chicago_control_concrete_inf_schedFalse_job109,81.07514452879398,55.134429202139,1411.6264454630414,196.2767092085806,2529452.832002448,89.97395697914656,90.86019435049354,
chicago_control_concrete_inf_schedFalse_job141,55.29210386506697,41.70517512891637,1410.278866518103,192.93864130604985,2603274.677640708,89.97395697914656,90.8655466206103,48.66869375132513
chicago_control_concrete_inf_schedFalse_job180,71.33539929256287,50.35126555551569,1411.3947151294876,194.79244294066365,2575652.361601498,89.97395697914656,90.83305593448928,44.563677446713754
chicago_control_concrete_inf_schedFalse_job135,62.302873621999495,45.551676806021,1411.1150316205756,192.5370632021208,2571928.1162866945,89.97395697914656,90.86246517163949,45.872414081940114
chicago_control_concrete_inf_schedFalse_job130,63.82649093881657,46.331341368478114,1411.5389675932322,192.0218987135306,2599004.3575737095,89.97395697914656,90.85018133573416,45.61617145532557
chicago_control_concrete_inf_schedFalse_job181,56.343678079773206,42.26330651841588,1410.641570472791,192.157306082591,2562577.865615584,89.97395697914656,90.87846408958033,47.92588798462339
chicago_control_concrete_inf_schedFalse_job157,81.52892538971383,55.18701531721206,1412.649003755802,194.29816204745288,2600894.827104799,89.97395697914656,90.81236221165229,
chicago_control_concrete_inf_schedFalse_job161,80.79247776513917,54.97896568089509,1412.2104821685914,195.95261162309964,2594888.286998732,89.97395697914656,90.80973436781767,
chicago_control_concrete_inf_schedFalse_job128,74.5701318006283,51.88956115621223,1411.9761331807276,194.051288926407,2592460.822704104,89.97395697914656,90.83790964576993,42.53529310721536
chicago_control_concrete_inf_schedFalse_job171,63.6197105960064,46.228449236739785,1411.222694306622,192.1341535843855,2617065.3929778957,89.97395697914656,90.86123367328557,46.31185612021928
chicago_control_concrete_inf_schedFalse_job166,67.19922766485652,48.25322234486431,1410.9790256692406,194.77407924257042,2523127.0638319044,89.97395697914656,90.86193226415413,44.59843619089736
chicago_control_concrete_inf_schedFalse_job154,69.82603824345298,49.582701389963916,1410.7308473857354,194.62194553537546,2532270.8366996762,89.97395697914656,90.88336551173745,45.034575800219145
chicago_control_concrete_inf_schedFalse_job174,83.56350369010559,56.298208821696804,1411.94858186055,196.5653505225016,2528475.555764104,89.97395697914656,90.83598568964646,
chicago_control_concrete_inf_schedFalse_job149,72.78508527950095,50.95979673370826,1412.1429015316958,193.1960204108409,2611178.0228091674,89.97395697914656,90.82726865276557,43.5206344406584
chicago_control_concrete_inf_schedFalse_job7,78.11381470910628,53.87933929267725,1410.729429212517,198.0470964959121,2514356.3257742934,89.97395697914656,90.85597531100338,43.457225983519045
chicago_control_concrete_inf_schedFalse_job105,69.48706104558728,49.2966755202641,1411.9530236135865,192.82921104033383,2594917.802663649,89.97395697914656,90.83334297236587,44.02758710982909
chicago_control_concrete_inf_schedFalse_job165,70.8052299267768,50.03761852493743,1411.5809294648363,194.05087235853202,2562016.686216115,89.97395697914656,90.85345894711021,43.60232149210685
