fname,hlc_mat,hlc_tot,hlc_se,hlc_si,c_tot,hlc_inf_standard,hlc_inf_current,hlc_tot_pred,c_tot_pred,estimates,probt,names,loglik,err
chicago_control_concrete_inf_schedTrue_job8,58.246896058517635,43.403340579052056,1410.640626390041,193.70435066741945,2531543.3238876304,89.97395697914656,90.92540769522905,121.681198120426,0.9160127001284779,"[ 17.15989045   3.38360936   0.9160127  -25.34700576  -1.51160739
   8.21819653]",[0.         0.         0.         0.62852101 0.         0.        ],['Ti0' 'Aw' 'Ci' 'e11' 'p11' 'Ria'],4856.909616602679,1.3742468934450045
chicago_control_concrete_inf_schedTrue_job115,57.13380273876467,42.78906940095981,1410.556678086656,193.84573908277318,2562521.5600256664,89.97395697914656,90.92234283517368,121.60869415941002,0.8965351789344179,"[ 17.1809947    3.28682053   0.89653518 -25.30557945  -1.49068177
   8.22309628]",[0.         0.         0.         0.44149688 0.         0.        ],['Ti0' 'Aw' 'Ci' 'e11' 'p11' 'Ria'],4800.806452749721,1.475114605684979
chicago_control_concrete_inf_schedTrue_job44,65.77537789765917,47.432762527492955,1411.5501613544125,193.39457049538657,2602896.055709727,89.97395697914656,90.90998949867611,126.027370616322,0.886723709132341,"[ 16.98565421   3.17151804   0.88672371 -24.95053954  -1.50036104
   7.93478429]",[0.         0.         0.         0.90000673 0.         0.        ],['Ti0' 'Aw' 'Ci' 'e11' 'p11' 'Ria'],4844.71526107254,1.5556723337960108
chicago_control_concrete_inf_schedTrue_job6,64.66811202406053,46.856330762694625,1411.3731611468115,193.43364145607308,2579005.7190123736,89.97395697914656,90.95569160173933,124.76354508325001,0.9464221709959699,"[ 16.95050818   3.29697665   0.94642217 -25.18796694  -1.43204758
   8.0151618 ]",[0.         0.         0.         0.92419472 0.         0.        ],['Ti0' 'Aw' 'Ci' 'e11' 'p11' 'Ria'],4592.706342507589,1.7689571100759878
chicago_control_concrete_inf_schedTrue_job86,62.39029097734943,45.635586624797924,1411.058662423422,193.20307588948174,2556815.4091334813,89.97395697914656,90.92723890690112,123.57680782416,0.9170927781562529,"[ 17.00849293   3.2805786    0.91709278 -25.32705847  -1.49038781
   8.09213329]",[0.         0.         0.         0.13691417 0.         0.        ],['Ti0' 'Aw' 'Ci' 'e11' 'p11' 'Ria'],4811.19119281914,1.924400269795001
chicago_control_concrete_inf_schedTrue_job69,60.884527125898025,44.84937692021813,1411.1613958764408,193.66020783363888,2578043.4250418902,89.97395697914656,90.97173700682825,121.43594693184299,1.0219976636192,"[ 17.3824926    3.51557798   1.02199766 -24.99447312  -1.32651422
   8.23479394]",[0.         0.         0.         0.00029885 0.         0.        ],['Ti0' 'Aw' 'Ci' 'e11' 'p11' 'Ria'],4189.66639218287,2.2322207238800047
chicago_control_concrete_inf_schedTrue_job14,60.34399039804627,44.536034675687,1411.0667804540378,193.29701450800061,2572500.947943663,89.97395697914656,90.99544565550065,119.80915479437799,1.01218600145066,"[ 17.48557058   3.35891833   1.012186   -24.91482983  -1.29464819
   8.34660758]",[0.         0.         0.         0.14304401 0.         0.        ],['Ti0' 'Aw' 'Ci' 'e11' 'p11' 'Ria'],4070.2827735876203,3.4815072611780096
chicago_control_concrete_inf_schedTrue_job143,55.51319649577477,41.799607081102124,1410.7274625054004,192.26772606451738,2590540.440886881,89.97395697914656,90.96080162403908,116.684077008792,0.9146333353581222,"[ 17.25553216   3.15513386   0.91463334 -24.88398882  -1.30179526
   8.57014964]",[0.         0.         0.         0.92202029 0.         0.        ],['Ti0' 'Aw' 'Ci' 'e11' 'p11' 'Ria'],4111.91285396505,1.8279859248380035
chicago_control_concrete_inf_schedTrue_job194,55.136802376216316,41.600215207083195,1410.5816557274084,192.57791952727652,2620576.5504714227,89.97395697914656,90.9764297594956,117.772948023235,1.01387175653249,"[ 17.52859383   3.43335022   1.01387176 -25.048644    -1.37313989
   8.49091423]",[0.         0.         0.         0.78994943 0.         0.        ],['Ti0' 'Aw' 'Ci' 'e11' 'p11' 'Ria'],4329.39313737373,2.11029295398599
chicago_control_concrete_inf_schedTrue_job130,63.82649093881657,46.353962082776874,1411.6189834659738,192.40956947880298,2599004.3575737095,89.97395697914656,90.90387542305855,124.06532888916,0.8561656833702479,"[ 17.03340776   3.06548638   0.85616568 -25.37819381  -1.5317334
   8.06026961]",[0.        0.        0.        0.9365478 0.        0.       ],['Ti0' 'Aw' 'Ci' 'e11' 'p11' 'Ria'],4933.76936024093,1.4474658546500052
chicago_control_concrete_inf_schedTrue_job119,64.74942315976465,46.863938123122345,1411.7657838171426,192.83118891952046,2628818.692932354,89.97395697914656,90.96651264205283,123.004079817586,1.08120008518277,"[ 17.87361653   3.55555967   1.08120009 -24.8919732   -1.28813538
   8.12981164]",[0.         0.         0.         0.42254746 0.         0.        ],['Ti0' 'Aw' 'Ci' 'e11' 'p11' 'Ria'],4029.4835607120294,2.333017001453001
chicago_control_concrete_inf_schedTrue_job179,91.84750406761816,60.17581153120821,1412.8916193556686,199.10037273533155,2508349.3490126673,89.97395697914656,90.88945092275061,138.680583453137,0.947613727625318,"[ 16.79701613   3.28762541   0.94761373 -25.01093664  -1.35975653
   7.21081477]",[0.         0.         0.         0.50190378 0.         0.        ],['Ti0' 'Aw' 'Ci' 'e11' 'p11' 'Ria'],4324.084698366761,1.9427319044790181
chicago_control_concrete_inf_schedTrue_job180,71.33539929256287,50.40273802765633,1411.5821264056854,195.5614794941922,2575652.361601498,89.97395697914656,90.95411176272576,125.419129339639,0.9708636232826691,"[ 17.22863671   3.35603462   0.97086362 -24.40203679  -1.27443547
   7.97326536]",[0.         0.         0.         0.88069547 0.         0.        ],['Ti0' 'Aw' 'Ci' 'e11' 'p11' 'Ria'],3982.08500319736,2.0334482440340054
chicago_control_concrete_inf_schedTrue_job199,60.107731603656475,44.40471850430959,1410.9732932296472,193.25151202220425,2594510.869616249,89.97395697914656,90.98870096949132,119.651181569914,0.968541015226323,"[ 17.49316174   3.35311704   0.96854102 -24.96050783  -1.32568974
   8.35762745]",[0.         0.         0.         0.67709964 0.         0.        ],['Ti0' 'Aw' 'Ci' 'e11' 'p11' 'Ria'],4142.05810023152,2.0914032207080027
chicago_control_concrete_inf_schedTrue_job134,64.82228391009404,47.007663090134265,1411.3456389718458,194.6362175219064,2561380.827879749,89.97395697914656,90.9220950164732,126.972061677243,0.9624939370077591,"[ 17.18917044   3.4548946    0.96249394 -25.25596509  -1.46139946
   7.87574831]",[0.         0.         0.         0.91093699 0.         0.        ],['Ti0' 'Aw' 'Ci' 'e11' 'p11' 'Ria'],4698.688601647779,3.0312186628059976
chicago_control_concrete_inf_schedTrue_job146,56.81299559355434,42.53271266671056,1410.8294418520707,192.27421650209118,2627950.9882056336,89.97395697914656,90.97567212732937,115.666489808155,0.9368221333903142,"[ 17.81696243   3.15787752   0.93682213 -24.89797583  -1.28709176
   8.64554636]",[0.         0.         0.         0.93707376 0.         0.        ],['Ti0' 'Aw' 'Ci' 'e11' 'p11' 'Ria'],4012.5623550948403,1.9336025262199996
chicago_control_concrete_inf_schedTrue_job13,53.15365008149436,40.46243009977876,1410.5299376084865,192.6059560752301,2531990.6087987544,89.97395697914656,91.00238816827182,115.726967347194,0.990297460240306,"[ 17.44334947   3.50944905   0.99029746 -24.94354787  -1.30754828
   8.6410283 ]",[0.         0.         0.         0.15352787 0.         0.        ],['Ti0' 'Aw' 'Ci' 'e11' 'p11' 'Ria'],4127.67745270194,2.0969947478640023
chicago_control_concrete_inf_schedTrue_job141,55.29210386506697,41.74639339251914,1410.4338263089726,193.82104938249952,2603274.677640708,89.97395697914656,90.98962727321586,118.278657483152,1.1444499514373898,"[ 17.37583173   3.76912714   1.14444995 -24.93779872  -1.31635179
   8.45461067]",[0.         0.         0.         0.93761311 0.         0.        ],['Ti0' 'Aw' 'Ci' 'e11' 'p11' 'Ria'],4193.888181113761,2.5016647932080076
chicago_control_concrete_inf_schedTrue_job61,57.114149505653685,42.70237811340582,1410.8427656409067,192.29633267864762,2610249.0140007734,89.97395697914656,90.92000043946676,120.15888942690701,0.90987916947905,"[ 17.43944279   3.22960077   0.90987917 -25.42563727  -1.53550988
   8.32231394]",[0.         0.         0.         0.41186579 0.         0.        ],['Ti0' 'Aw' 'Ci' 'e11' 'p11' 'Ria'],4960.52002378721,1.6261969591020033
chicago_control_concrete_inf_schedTrue_job32,72.90724924680174,51.14383322121186,1411.8469495899665,194.99448387411275,2543202.2567002582,89.97395697914656,90.89628392665439,131.396050870655,0.9108787613909571,"[ 16.94534958   3.23985304   0.91087876 -25.44044104  -1.55236034
   7.61057881]",[0.         0.         0.         0.56393303 0.         0.        ],['Ti0' 'Aw' 'Ci' 'e11' 'p11' 'Ria'],5034.215264289211,1.5316490915540157
chicago_control_concrete_inf_schedTrue_job100,65.27595147234346,47.23467296727264,1411.0464354755725,194.45351776791512,2553410.5481190532,89.97395697914656,90.96769449917153,120.949624364139,0.9588574131819301,"[ 17.42012223   3.18113055   0.95885741 -24.96305932  -1.32462166
   8.26790497]","[0.00000000e+00 0.00000000e+00 0.00000000e+00 9.83588778e-05
 0.00000000e+00 0.00000000e+00]",['Ti0' 'Aw' 'Ci' 'e11' 'p11' 'Ria'],4149.79284518696,2.662539017046001
chicago_control_concrete_inf_schedTrue_job33,73.89627659568609,51.66051894633232,1411.9472355947028,195.4492128429127,2621448.327414606,89.97395697914656,90.90176765551159,130.391976341177,1.0213157024622699,"[ 17.57133946   3.39372793   1.0213157  -25.18942086  -1.44671171
   7.66918355]",[0.        0.        0.        0.3821477 0.        0.       ],['Ti0' 'Aw' 'Ci' 'e11' 'p11' 'Ria'],4620.64976661068,1.9572698160469884
chicago_control_concrete_inf_schedTrue_job91,57.62889342709804,43.05690243111536,1410.6473446500308,193.6566314708675,2591427.1646053963,89.97395697914656,90.92779346272715,120.831970277707,0.913611741028949,"[ 17.17012156   3.29087024   0.91361174 -25.28021151  -1.48330617
   8.27595543]",[0.         0.         0.         0.08106985 0.         0.        ],['Ti0' 'Aw' 'Ci' 'e11' 'p11' 'Ria'],4796.80665077324,1.6264742147020002
chicago_control_concrete_inf_schedTrue_job187,87.4603078524386,58.16812234910417,1412.6496151488045,198.0237562471788,2495994.089443441,89.97395697914656,90.93028314284868,135.31583916474702,1.0493354790292801,"[ 17.07213378   3.45055839   1.04933548 -24.98771425  -1.33934217
   7.39011786]",[0.         0.         0.         0.79550604 0.         0.        ],['Ti0' 'Aw' 'Ci' 'e11' 'p11' 'Ria'],4274.01476161404,2.0591239714109975
chicago_control_concrete_inf_schedTrue_job193,72.48334390661735,50.96855954298308,1411.6446463020636,195.49303101341062,2526192.0383603815,89.97395697914656,90.96785100710619,125.337379326562,1.02835193867496,"[ 17.82827267   3.45395877   1.02835194 -24.88311258  -1.27504901
   7.97846584]",[0.         0.         0.         0.86428182 0.         0.        ],['Ti0' 'Aw' 'Ci' 'e11' 'p11' 'Ria'],4002.1727316192205,2.2592819622859963
chicago_control_concrete_inf_schedTrue_job31,51.01645375432617,39.19303035864273,1410.5534204001801,192.14955023860838,2634950.22582816,89.97395697914656,91.02574048720139,114.240254792577,1.0264093934406702,"[ 17.30801777   3.46792635   1.02640939 -24.85552191  -1.26139297
   8.75348188]",[0.         0.         0.         0.63139486 0.         0.        ],['Ti0' 'Aw' 'Ci' 'e11' 'p11' 'Ria'],3936.3896653845795,2.329182342004998
chicago_control_concrete_inf_schedTrue_job145,64.25809462086103,46.65794399863407,1411.2919569518995,193.732176275432,2570190.5005153683,89.97395697914656,90.95924473430657,123.47785106703199,0.907868396117922,"[ 16.8509466    3.2286895    0.9078684  -23.57031992  -1.3570607
   8.09861843]",[0.         0.         0.         0.80172842 0.         0.        ],['Ti0' 'Aw' 'Ci' 'e11' 'p11' 'Ria'],4264.285831371079,1.7313431988260106
chicago_control_concrete_inf_schedTrue_job34,73.15896941098755,51.23226616818845,1412.2982066756877,194.4761207897017,2579977.0810101097,89.97395697914656,90.9438232228581,127.869350066378,1.08468957568661,"[ 17.20590574   3.44161359   1.08468958 -24.87909413  -1.27057054
   7.82048239]",[0.         0.         0.         0.65760566 0.         0.        ],['Ti0' 'Aw' 'Ci' 'e11' 'p11' 'Ria'],3976.8003917807796,2.401692712116997
chicago_control_concrete_inf_schedTrue_job18,65.33364347894315,47.234749496348186,1411.3579287816585,193.9387532210248,2623214.0694151004,89.97395697914656,90.91574143838969,126.93110206059299,0.967386278501195,"[ 17.03866213   3.36223282   0.96738628 -24.52886342  -1.55777028
   7.87828975]",[0.         0.         0.         0.89521347 0.         0.        ],['Ti0' 'Aw' 'Ci' 'e11' 'p11' 'Ria'],5056.70761694117,1.5776918422249935
chicago_control_concrete_inf_schedTrue_job11,73.2616424257807,51.36612660322441,1411.8799497775813,195.6909044768644,2527340.8031802457,89.97395697914656,90.94999239866932,128.06493352065002,1.03579386357021,"[ 17.49262694   3.47269766   1.03579386 -24.98780067  -1.33362154
   7.80853878]",[0.         0.         0.         0.00039575 0.         0.        ],['Ti0' 'Aw' 'Ci' 'e11' 'p11' 'Ria'],4220.47117649089,2.1155155903649927
chicago_control_concrete_inf_schedTrue_job65,61.21752254168983,45.082525691336414,1410.8517684310175,194.64494923358782,2595231.7186778397,89.97395697914656,90.97538440700389,124.99587596023198,1.10890787748549,"[ 17.83310261   3.76482408   1.10890788 -25.1472783   -1.40720773
   8.00026395]",[0.         0.         0.         0.41257192 0.         0.        ],['Ti0' 'Aw' 'Ci' 'e11' 'p11' 'Ria'],4454.89856190743,2.1018820956600024
chicago_control_concrete_inf_schedTrue_job57,63.755171125514096,46.391175307927554,1411.4343324018023,193.71126302277102,2533553.1369353374,89.97395697914656,90.94398460746547,122.976512325119,0.9349392914889499,"[ 17.35114786   3.33654013   0.93493929 -25.10658088  -1.39581174
   8.13163409]",[0.         0.         0.         0.32724015 0.         0.        ],['Ti0' 'Aw' 'Ci' 'e11' 'p11' 'Ria'],4432.5430977718,1.9671233404219919
chicago_control_concrete_inf_schedTrue_job158,57.790538691329296,43.076264319336296,1411.1064075532965,192.22982422402725,2578306.072866703,89.97395697914656,90.95199082231248,119.37532279009599,0.973301211693451,"[ 17.57939431   3.28663261   0.97330121 -24.93085071  -1.3142488
   8.3769407 ]",[0.         0.         0.         0.95664939 0.         0.        ],['Ti0' 'Aw' 'Ci' 'e11' 'p11' 'Ria'],4140.70341498271,2.0580307688410073
chicago_control_concrete_inf_schedTrue_job196,84.83417333895737,56.86589692050489,1412.2908284831283,196.48449234266118,2530635.271867392,89.97395697914656,90.92949977427364,134.505621851845,0.9360460571434441,"[ 16.83523868   3.2087784    0.93604606 -25.2392759   -1.46869988
   7.43463348]",[0.         0.         0.         0.35791023 0.         0.        ],['Ti0' 'Aw' 'Ci' 'e11' 'p11' 'Ria'],4705.19749592498,1.7676191480530008
chicago_control_concrete_inf_schedTrue_job198,62.44469611407029,45.7351665677865,1410.7262554186068,194.47732364231652,2554001.9743869165,89.97395697914656,90.97052209003928,121.87733798048299,0.9472022823799521,"[ 17.11574147   3.32517135   0.94720228 -25.05716858  -1.36111409
   8.20497081]",[0.         0.         0.         0.93783893 0.         0.        ],['Ti0' 'Aw' 'Ci' 'e11' 'p11' 'Ria'],4311.83694891665,1.9432114392340196
chicago_control_concrete_inf_schedTrue_job183,77.40472281933916,53.35138855244668,1412.3842052465884,195.4452031934871,2566711.1633309824,89.97395697914656,90.9228957912874,132.245426315983,1.0886536183769,"[ 17.16543469   3.65090201   1.08865362 -24.94993874  -1.31539907
   7.56169818]",[0.         0.         0.         0.91008904 0.         0.        ],['Ti0' 'Aw' 'Ci' 'e11' 'p11' 'Ria'],4144.124236606111,2.1509678127780205
chicago_control_concrete_inf_schedTrue_job200,73.46122978778979,51.458020577420136,1411.7965862320739,195.60374664274445,2608912.2529187924,89.97395697914656,90.88010488015053,131.876767473703,0.918930847659693,"[ 16.9015643    3.31773023   0.91893085 -25.39462373  -1.54334065
   7.58283676]",[0.        0.        0.        0.7148464 0.        0.       ],['Ti0' 'Aw' 'Ci' 'e11' 'p11' 'Ria'],4981.415238711429,1.5966326379789848
chicago_control_concrete_inf_schedTrue_job7,78.11381470910628,53.90361486120742,1410.8153752777969,198.3737839729574,2514356.3257742934,89.97395697914656,90.9117623678739,132.051731324325,0.937889219293364,"[ 16.9373637    3.31787204   0.93788922 -25.53325197  -1.60175308
   7.57278977]",[0.         0.         0.         0.19977978 0.         0.        ],['Ti0' 'Aw' 'Ci' 'e11' 'p11' 'Ria'],5217.62880895758,1.4793762097029912
chicago_control_concrete_inf_schedTrue_job58,55.93415718749154,42.090380056307204,1410.5814444841108,193.37470849376228,2621401.523058013,89.97395697914656,91.00310387129508,117.081829131499,1.07358976284426,"[ 17.52957403   3.51160898   1.07358976 -24.83782892  -1.27303717
   8.541035  ]",[0.         0.         0.         0.01359067 0.         0.        ],['Ti0' 'Aw' 'Ci' 'e11' 'p11' 'Ria'],4002.79629681076,2.505832835168988
chicago_control_concrete_inf_schedTrue_job181,56.343678079773206,42.29273160777582,1410.7635118651194,192.7648165097154,2562577.865615584,89.97395697914656,90.97313241997509,116.857608635198,0.905345566921701,"[ 17.52769152   3.20352285   0.90534557 -25.01019185  -1.34109693
   8.5574231 ]",[0.        0.        0.        0.7767235 0.        0.       ],['Ti0' 'Aw' 'Ci' 'e11' 'p11' 'Ria'],4236.92129126722,1.700652985686986
chicago_control_concrete_inf_schedTrue_job82,63.58551400676207,46.33782731100571,1410.8234403831962,194.36413059751962,2553995.6813968443,89.97395697914656,90.95125937511652,122.321734714577,0.95291910586061,"[ 17.69353781   3.31588945   0.95291911 -25.05493757  -1.40037847
   8.17516202]",[0.         0.         0.         0.36470559 0.         0.        ],['Ti0' 'Aw' 'Ci' 'e11' 'p11' 'Ria'],4444.77338241248,1.880107488690001
chicago_control_concrete_inf_schedTrue_job96,64.85276943066795,47.01053994608065,1411.1143130044031,194.41546736032697,2549862.8035598537,89.97395697914656,90.9327692159297,125.03306091065001,0.890877917131374,"[ 16.99073209   3.25546733   0.89087792 -25.39440109  -1.530757
   7.99788466]",[0.         0.         0.         0.45925155 0.         0.        ],['Ti0' 'Aw' 'Ci' 'e11' 'p11' 'Ria'],4965.9190749372,1.5097996272599943
chicago_control_concrete_inf_schedTrue_job118,71.28659783803444,50.38455909745014,1411.6564302110226,195.6533453202507,2614500.9098652494,89.97395697914656,90.92869942990964,127.272557575613,1.05147817508442,"[ 17.77455719   3.47416685   1.05147818 -24.83584689  -1.26402336
   7.85715333]",[0.        0.        0.        0.7324751 0.        0.       ],['Ti0' 'Aw' 'Ci' 'e11' 'p11' 'Ria'],3950.55109002099,3.265859251644997
chicago_control_concrete_inf_schedTrue_job161,80.79247776513917,55.017981900698054,1412.3821274412974,196.44582020785757,2594888.286998732,89.97395697914656,90.91048141104648,133.843400714973,0.988323596936533,"[ 17.2304052    3.33011407   0.9883236  -25.08037214  -1.40424792
   7.47141805]",[0.         0.         0.         0.57828472 0.         0.        ],['Ti0' 'Aw' 'Ci' 'e11' 'p11' 'Ria'],4490.49934380466,1.9698436938789996
chicago_control_concrete_inf_schedTrue_job170,73.34529016100946,51.34330076594355,1412.1064123915226,194.7633921047959,2583302.180818829,89.97395697914656,90.91494044605301,127.336894192157,0.9704884295742859,"[ 17.0999374    3.32698176   0.97048843 -24.93468389  -1.31558059
   7.85318353]",[0.         0.         0.         0.93700843 0.         0.        ],['Ti0' 'Aw' 'Ci' 'e11' 'p11' 'Ria'],4174.72769979375,1.9955792561799939
chicago_control_concrete_inf_schedTrue_job30,67.57417024157847,48.476103218268506,1411.0928378845285,195.25543584860554,2566983.3965714434,89.97395697914656,90.90203591485043,128.775012589858,0.908101343462567,"[ 16.93000092   3.36218904   0.90810134 -25.42597826  -1.54575226
   7.76548167]",[0.         0.         0.         0.90620732 0.         0.        ],['Ti0' 'Aw' 'Ci' 'e11' 'p11' 'Ria'],5019.627486996121,1.5269463967910042
chicago_control_concrete_inf_schedTrue_job76,67.45269286585481,48.36738078023586,1411.1865457321494,194.50475531380212,2562961.6485762615,89.97395697914656,90.99329260058398,122.5458711182,1.0186410424430998,"[ 17.32976158   3.38849755   1.01864104 -24.88892215  -1.28567584
   8.16020965]",[0.         0.         0.         0.69263923 0.         0.        ],['Ti0' 'Aw' 'Ci' 'e11' 'p11' 'Ria'],4009.7887958509796,2.183029053436016
chicago_control_concrete_inf_schedTrue_job90,64.90233690894759,46.99269325268465,1411.5604155898748,193.65949383867468,2600056.70808017,89.97395697914656,90.99806085651636,123.001868773705,1.10557646825612,"[ 17.85647681   3.49835719   1.10557647 -24.90694153  -1.29132149
   8.12995778]",[0.         0.         0.         0.65746026 0.         0.        ],['Ti0' 'Aw' 'Ci' 'e11' 'p11' 'Ria'],4062.55583464046,2.420049161004002
chicago_control_concrete_inf_schedTrue_job188,85.00554886018836,57.0504621457987,1412.058253420976,197.77629082904812,2563740.7052267804,89.97395697914656,90.89634460610974,135.95167431795798,1.02033367548347,"[ 17.07513005   3.52266626   1.02033368 -25.14997066  -1.42873113
   7.35555487]",[0.         0.         0.         0.41013211 0.         0.        ],['Ti0' 'Aw' 'Ci' 'e11' 'p11' 'Ria'],4586.32712380515,1.9554453910350276
chicago_control_concrete_inf_schedTrue_job42,61.89461038584588,45.36421427284307,1411.2001239863473,193.09883913048512,2552370.3696660916,89.97395697914656,90.93966791230925,122.93662449112401,0.985078647825176,"[ 17.13242234   3.53754906   0.98507865 -24.99232998  -1.33658153
   8.13427247]",[0.        0.        0.        0.9436754 0.        0.       ],['Ti0' 'Aw' 'Ci' 'e11' 'p11' 'Ria'],4199.927163857321,1.8779988821449933
chicago_control_concrete_inf_schedTrue_job70,54.82195341736101,41.40938854632581,1410.5709515548624,192.33312395285301,2610746.3325116285,89.97395697914656,90.9574288719506,118.498781146674,0.927106351370475,"[ 17.19798649   3.19961122   0.92710635 -25.31361823  -1.49419549
   8.43890537]",[0.         0.         0.         0.85503622 0.         0.        ],['Ti0' 'Aw' 'Ci' 'e11' 'p11' 'Ria'],4632.78740213358,1.6638539079109904
chicago_control_concrete_inf_schedTrue_job139,61.608385636989006,45.233254466112015,1410.8188281567386,193.52601442022566,2584197.4186468325,89.97395697914656,90.96924994180206,120.532850504401,1.0226827757336,"[ 17.33119015   3.38992573   1.02268278 -24.93102144  -1.32287255
   8.29649341]",[0.         0.         0.         0.94049176 0.         0.        ],['Ti0' 'Aw' 'Ci' 'e11' 'p11' 'Ria'],4177.99172078159,2.134061499524009
chicago_control_concrete_inf_schedTrue_job153,60.855093563335764,44.86601467461315,1410.9062113265336,194.27499383288352,2643843.778653419,89.97395697914656,90.92863168465281,123.774503381849,1.01947784976417,"[ 17.315503     3.52498862   1.01947785 -25.20234112  -1.44541724
   8.07920834]",[0.        0.        0.        0.8734154 0.        0.       ],['Ti0' 'Aw' 'Ci' 'e11' 'p11' 'Ria'],4617.89948424694,1.8510866570459967
chicago_control_concrete_inf_schedTrue_job3,80.0447795699707,54.7321443281555,1411.7336752709216,197.26033612653697,2514692.4985719044,89.97395697914656,90.95104177504706,132.123923305317,1.0369705158931601,"[ 17.04945461   3.52326698   1.03697052 -25.09871888  -1.39684645
   7.56865203]",[0.         0.         0.         0.92994882 0.         0.        ],['Ti0' 'Aw' 'Ci' 'e11' 'p11' 'Ria'],4459.555797594529,2.0204903943329953
chicago_control_concrete_inf_schedTrue_job37,87.6304717575767,58.211237830199174,1412.3062012576581,197.65985798362564,2506791.4071636293,89.97395697914656,90.93119269527489,134.159589006864,0.9031885485198209,"[ 16.8659991    3.10973564   0.90318855 -25.13923458  -1.41445528
   7.45380936]",[0.         0.         0.         0.68196061 0.         0.        ],['Ti0' 'Aw' 'Ci' 'e11' 'p11' 'Ria'],4537.13105600981,1.5350021006630072
chicago_control_concrete_inf_schedTrue_job111,72.27368621062237,50.807867036607206,1412.1508522415506,194.64503050037013,2589961.7618514644,89.97395697914656,90.94527616366942,128.373408949508,1.07557672116674,"[ 17.43309985   3.49997499   1.07557672 -25.25293448  -1.37922125
   7.78977522]",[0.         0.         0.         0.92867926 0.         0.        ],['Ti0' 'Aw' 'Ci' 'e11' 'p11' 'Ria'],4418.80272244708,2.1341015458420145
chicago_control_concrete_inf_schedTrue_job106,82.15041704730137,55.709951543566206,1412.174930393598,197.2700183859468,2522529.3697179323,89.97395697914656,90.9125914816913,133.227561795257,0.9095957827071149,"[ 16.83497418   3.15093625   0.90959578 -25.1249501   -1.40848608
   7.50595437]",[0.         0.         0.         0.93025616 0.         0.        ],['Ti0' 'Aw' 'Ci' 'e11' 'p11' 'Ria'],4518.12926518711,1.621299148205992
chicago_control_concrete_inf_schedTrue_job89,76.57589912169394,52.89375849985533,1412.3969923909751,194.59542247399432,2545743.421624439,89.97395697914656,90.88393769788311,132.122167036003,0.897172089392115,"[ 16.8474757    3.14027966   0.89717209 -25.39587965  -1.53940848
   7.56875264]",[0.         0.         0.         0.02095663 0.         0.        ],['Ti0' 'Aw' 'Ci' 'e11' 'p11' 'Ria'],5005.784261565171,1.466920412624006
chicago_control_concrete_inf_schedTrue_job167,74.36459930285736,51.82450071848007,1411.8410635403436,194.53970075783923,2532332.070928897,89.97395697914656,90.88918874780033,130.353570925052,0.8638700910359491,"[ 16.79834001   3.0972004    0.86387009 -25.50711033  -1.58611047
   7.67144308]",[0.         0.         0.         0.51568837 0.         0.        ],['Ti0' 'Aw' 'Ci' 'e11' 'p11' 'Ria'],5181.80589389678,1.3834410849970027
chicago_control_concrete_inf_schedTrue_job156,63.360241970243784,46.211252398657926,1411.0005977734222,194.24015129550307,2581749.2128771334,89.97395697914656,90.93035124578381,125.02732251866101,0.9381875446854498,"[ 17.16371036   3.26529438   0.93818754 -25.54354528  -1.60456714
   7.99825174]",[0.         0.         0.         0.54372474 0.         0.        ],['Ti0' 'Aw' 'Ci' 'e11' 'p11' 'Ria'],5237.9145952565605,1.5937996399139962
chicago_control_concrete_inf_schedTrue_job176,70.61090651966401,50.006793007883395,1411.677118929052,195.05391086515988,2612077.0338125792,89.97395697914656,90.9070445560013,128.726017702381,0.9460859514423829,"[ 17.47010533   3.36110759   0.94608595 -25.11977383  -1.42178312
   7.76843732]",[0.         0.         0.         0.37084179 0.         0.        ],['Ti0' 'Aw' 'Ci' 'e11' 'p11' 'Ria'],4527.52814294523,1.7898933124129996
chicago_control_concrete_inf_schedTrue_job67,67.18552896823465,48.21319243544315,1411.571494127247,194.2266820990457,2603559.120362618,89.97395697914656,90.89797820852202,128.092721222514,0.927408719821941,"[ 16.94574643   3.27932669   0.92740872 -25.43193124  -1.55487286
   7.80684484]",[0.         0.         0.         0.94756035 0.         0.        ],['Ti0' 'Aw' 'Ci' 'e11' 'p11' 'Ria'],5027.775062872321,1.557420049078985
chicago_control_concrete_inf_schedTrue_job191,70.8156582405373,50.17593782593992,1411.188435397866,196.0754201767912,2521172.2736736895,89.97395697914656,90.96239947468906,124.83246262743499,0.930838013808495,"[ 17.24474065   3.28952892   0.93083801 -24.97218582  -1.33626539
   8.01073678]",[0.         0.         0.         0.91748828 0.         0.        ],['Ti0' 'Aw' 'Ci' 'e11' 'p11' 'Ria'],4226.42502790704,1.8707997072710043
chicago_control_concrete_inf_schedTrue_job101,76.91705528648936,53.210631572972666,1411.8144587630534,196.6989702222176,2539124.9576308136,89.97395697914656,90.8857735274414,134.252320024686,0.9027645183823392,"[ 17.01383314   3.27906999   0.90276452 -25.44836489  -1.55788972
   7.44866085]",[0.         0.         0.         0.03034673 0.         0.        ],['Ti0' 'Aw' 'Ci' 'e11' 'p11' 'Ria'],5059.082250909601,1.5385762174640263
chicago_control_concrete_inf_schedTrue_job142,60.500679959086625,44.72884273651038,1410.3899533714364,195.34396924092312,2591252.8443129305,89.97395697914656,90.98958700625673,121.103960323768,1.01924899428957,"[ 17.45366786   3.55546774   1.01924899 -24.90396239  -1.30997543
   8.25736828]",[0.        0.        0.        0.7414179 0.        0.       ],['Ti0' 'Aw' 'Ci' 'e11' 'p11' 'Ria'],4136.31469449569,2.2799933301229913
chicago_control_concrete_inf_schedTrue_job66,85.44690640420076,57.388513386677594,1411.538739706465,199.4626777403404,2487390.4762330125,89.97395697914656,90.92197358048129,133.634561975439,0.859052480677366,"[ 16.95903154   3.17546666   0.85905248 -25.14600259  -1.42109367
   7.48309408]",[0.         0.         0.         0.35164663 0.         0.        ],['Ti0' 'Aw' 'Ci' 'e11' 'p11' 'Ria'],4536.55464566606,1.5724280013249938
chicago_control_concrete_inf_schedTrue_job154,69.82603824345298,49.63824172696721,1410.8910529054106,195.47740315595038,2532270.8366996762,89.97395697914656,90.99120730152272,122.94774625824499,0.9790571998219051,"[ 17.42876653   3.36269185   0.9790572  -24.88644276  -1.29522317
   8.13353665]",[0.         0.         0.         0.84273248 0.         0.        ],['Ti0' 'Aw' 'Ci' 'e11' 'p11' 'Ria'],4081.4018918199604,2.229895445083997
chicago_control_concrete_inf_schedTrue_job168,64.99757772772661,47.08084896629124,1411.3610641614935,194.3130722012637,2573890.9810464843,89.97395697914656,90.96660634056303,122.54322267296601,0.942054384121008,"[ 17.20097345   3.20256184   0.94205438 -25.02490369  -1.35421561
   8.16038601]",[0.         0.         0.         0.93150653 0.         0.        ],['Ti0' 'Aw' 'Ci' 'e11' 'p11' 'Ria'],4306.20627489975,1.8684096302770001
chicago_control_concrete_inf_schedTrue_job132,55.33386880849611,41.72179423665806,1410.9044364902381,192.77446664327343,2548798.1632038034,89.97395697914656,90.9713289343199,115.80164998011401,0.9648509628400309,"[ 17.85191416   3.35052884   0.96485096 -24.8615138   -1.27322465
   8.63545554]",[0.         0.         0.         0.33236368 0.         0.        ],['Ti0' 'Aw' 'Ci' 'e11' 'p11' 'Ria'],3981.15429289666,2.061651129932983
chicago_control_concrete_inf_schedTrue_job190,65.22950167562419,47.26292303540733,1410.8856512145544,195.35168196169215,2540445.5347138653,89.97395697914656,90.95121717400188,125.05804856196998,0.9535731607168171,"[ 17.37640652   3.43961033   0.95357316 -24.96311691  -1.41584894
   7.99628662]",[0.         0.         0.         0.89112394 0.         0.        ],['Ti0' 'Aw' 'Ci' 'e11' 'p11' 'Ria'],4523.552448005371,1.695564917553014
chicago_control_concrete_inf_schedTrue_job116,62.62471883962232,45.77878172608496,1411.1876963748864,193.52007283987976,2579649.0730634495,89.97395697914656,90.97511741181457,121.031766439471,1.02678244498528,"[ 17.35500323   3.40529639   1.02678244 -24.90654591  -1.28593381
   8.26229369]",[0.         0.         0.         0.13882118 0.         0.        ],['Ti0' 'Aw' 'Ci' 'e11' 'p11' 'Ria'],4066.7733714024203,2.304530861690992
chicago_control_concrete_inf_schedTrue_job184,75.03123755686269,52.213728915630966,1411.8014407270725,195.46697186447463,2623600.7100732997,89.97395697914656,90.90098447536026,130.83125367383698,1.04761845423058,"[ 17.36113297   3.47714634   1.04761845 -25.12868155  -1.41311438
   7.6434336 ]",[0.         0.         0.         0.02367996 0.         0.        ],['Ti0' 'Aw' 'Ci' 'e11' 'p11' 'Ria'],4487.17105507472,2.1238848220030206
chicago_control_concrete_inf_schedTrue_job74,55.981489765118745,42.09780487464941,1410.6096684962472,192.9664856704328,2596641.44842878,89.97395697914656,90.97497696614268,116.822729000478,0.9245486433637521,"[ 17.86222501   3.22134764   0.92454864 -25.14247127  -1.39094082
   8.55997808]",[0.         0.         0.         0.02069547 0.         0.        ],['Ti0' 'Aw' 'Ci' 'e11' 'p11' 'Ria'],4440.166158473,1.8323548822189792
chicago_control_concrete_inf_schedTrue_job169,58.80531954443881,43.69320859322869,1411.0175560756186,193.3159334304644,2634185.6595059307,89.97395697914656,90.9923187329501,117.355854811214,0.9709820299636109,"[ 17.43185421   3.23766896   0.97098203 -24.8509461   -1.27737972
   8.5210917 ]",[0.         0.         0.         0.00272125 0.         0.        ],['Ti0' 'Aw' 'Ci' 'e11' 'p11' 'Ria'],3960.96378142889,2.1167384405439975
chicago_control_concrete_inf_schedTrue_job92,66.55451636239437,47.97065147450856,1411.0003627943704,195.61486929610217,2548653.3209161116,89.97395697914656,90.97992639860227,122.555935241258,1.1033255859208202,"[ 17.60836479   3.59284252   1.10332559 -24.94904269  -1.335255
   8.15953954]",[0.         0.         0.         0.94375628 0.         0.        ],['Ti0' 'Aw' 'Ci' 'e11' 'p11' 'Ria'],4221.9249268726,2.309187996502999
chicago_control_concrete_inf_schedTrue_job163,87.08840823452275,58.00861425182157,1412.0937009660938,198.09565710314283,2529170.430627834,89.97395697914656,90.88566190443589,137.923095275703,0.975385356769865,"[ 17.12579706   3.29474628   0.97538536 -25.37147563  -1.53665794
   7.25041733]",[0.        0.        0.        0.7369705 0.        0.       ],['Ti0' 'Aw' 'Ci' 'e11' 'p11' 'Ria'],4994.92394394559,1.5934055212200064
chicago_control_concrete_inf_schedTrue_job138,73.52729115486612,51.52003285036769,1411.7647808038073,196.0323070109272,2561111.3106231266,89.97395697914656,90.91508505552375,131.258070439432,0.9621723749349991,"[ 16.89216725   3.40177746   0.96217237 -25.13116379  -1.40583883
   7.61857916]",[0.         0.         0.         0.64739808 0.         0.        ],['Ti0' 'Aw' 'Ci' 'e11' 'p11' 'Ria'],4490.83808754795,1.909937732023991
chicago_control_concrete_inf_schedTrue_job105,69.48706104558728,49.334707372336766,1412.0957255427868,193.40975648102227,2594917.802663649,89.97395697914656,90.92510944998199,126.64996905441002,0.891114575902402,"[ 17.11193207   3.19742691   0.89111458 -25.22313914  -1.44689162
   7.89577769]",[0.         0.         0.         0.85827379 0.         0.        ],['Ti0' 'Aw' 'Ci' 'e11' 'p11' 'Ria'],4662.70849010213,1.574701834954979
chicago_control_concrete_inf_schedTrue_job20,64.50317855237307,46.753554126840676,1411.6868589590792,193.15221696211697,2601441.3898418616,89.97395697914656,90.92833541961299,124.547837207958,0.9144824782070621,"[ 17.06616834   3.26735248   0.91448248 -25.26207654  -1.48075769
   8.02904348]",[0.         0.         0.         0.94044696 0.         0.        ],['Ti0' 'Aw' 'Ci' 'e11' 'p11' 'Ria'],4792.68244667539,1.6677477642590048
chicago_control_concrete_inf_schedTrue_job123,52.28860083958738,39.928682553536795,1410.4579859263738,191.90041293163242,2564273.183482834,89.97395697914656,90.94136188313381,116.336388351887,0.869478198927083,"[ 17.08268317   3.19011361   0.8694782  -25.37136136  -1.52013349
   8.59576281]",[0.         0.         0.         0.92678991 0.         0.        ],['Ti0' 'Aw' 'Ci' 'e11' 'p11' 'Ria'],4904.09608757785,1.4240570603140128
chicago_control_concrete_inf_schedTrue_job21,78.03376914309425,53.820485798020506,1411.2111924883661,197.75704934381068,2511841.179127334,89.97395697914656,90.96515171332165,129.67282453725701,1.01451730745885,"[ 17.01528655   3.31086029   1.01451731 -24.14450774  -1.3461273
   7.71171603]",[0.         0.         0.         0.87316699 0.         0.        ],['Ti0' 'Aw' 'Ci' 'e11' 'p11' 'Ria'],4301.3785589586,2.0358925482599943
chicago_control_concrete_inf_schedTrue_job72,55.30415982367842,41.68876643617157,1410.3877211133706,192.43981274608814,2540255.4073160635,89.97395697914656,90.94832434616568,118.716100388337,0.8844254108988442,"[ 17.11017101   3.25891689   0.88442541 -25.36757992  -1.51358853
   8.42345728]",[0.         0.         0.         0.45613231 0.         0.        ],['Ti0' 'Aw' 'Ci' 'e11' 'p11' 'Ria'],4883.7485969889,1.4998342587360014
chicago_control_concrete_inf_schedTrue_job164,70.16463591932809,49.7579019480231,1411.549964285015,194.67845113563286,2559731.6593829836,89.97395697914656,90.96998244021131,125.964093995433,0.973503314732669,"[ 17.19218501   3.39453221   0.97350331 -24.99252113  -1.32694644
   7.93877023]",[0.         0.         0.         0.76417081 0.         0.        ],['Ti0' 'Aw' 'Ci' 'e11' 'p11' 'Ria'],4188.547448715371,2.0404233804749907
chicago_control_concrete_inf_schedTrue_job186,76.34432480858142,52.86366655291716,1411.855501315574,195.70444979516424,2575547.755628296,89.97395697914656,90.91939327772536,130.218363556768,0.886720069862422,"[ 17.16158966   3.30616413   0.88672007 -24.91297396  -1.31082978
   7.67940844]",[0.         0.         0.         0.20556763 0.         0.        ],['Ti0' 'Aw' 'Ci' 'e11' 'p11' 'Ria'],4147.34146712174,1.887376136963013
chicago_control_concrete_inf_schedTrue_job120,75.98899554851587,52.64455115450416,1412.3681103956742,195.02730080769828,2546918.595159868,89.97395697914656,90.95152824268924,130.043098168268,1.00142799297858,"[ 17.09527363   3.34848857   1.00142799 -25.02342485  -1.36696863
   7.68975835]",[0.         0.         0.         0.91263876 0.         0.        ],['Ti0' 'Aw' 'Ci' 'e11' 'p11' 'Ria'],4359.12367591864,2.0801178546799974
chicago_control_concrete_inf_schedTrue_job52,64.3676556120379,46.75795772214862,1411.2584094947886,194.46197800745853,2578457.4034618153,89.97395697914656,90.93586714103391,124.20562227354799,0.951012578591884,"[ 17.71283897   3.35483367   0.95101258 -25.15092598  -1.41217223
   8.05116533]",[0.         0.         0.         0.48359143 0.         0.        ],['Ti0' 'Aw' 'Ci' 'e11' 'p11' 'Ria'],4505.69042047517,1.76833204487302
chicago_control_concrete_inf_schedTrue_job127,80.3962420077315,54.73988324771275,1412.8195434785653,195.23551198934197,2600549.361200413,89.97395697914656,90.91962061940875,133.10682366643,1.02595975674452,"[ 17.05189391   3.35502373   1.02595976 -25.0909452   -1.37743435
   7.51276285]",[0.         0.         0.         0.90214649 0.         0.        ],['Ti0' 'Aw' 'Ci' 'e11' 'p11' 'Ria'],4394.491904429171,2.0686852804400075
chicago_control_concrete_inf_schedTrue_job63,56.05769249380419,42.14961042857246,1410.6432724586655,193.14899387340122,2607406.1740453993,89.97395697914656,90.97765433683996,119.18926989144899,1.0237760016995998,"[ 17.15692591   3.51228481   1.023776   -25.06056455  -1.36688095
   8.39001699]",[0.         0.         0.         0.86413147 0.         0.        ],['Ti0' 'Aw' 'Ci' 'e11' 'p11' 'Ria'],4335.36725467993,2.071895739664015
chicago_control_concrete_inf_schedTrue_job38,52.42414125859128,40.04128822839589,1410.6282545016488,192.67317272958354,2561266.3961253646,89.97395697914656,91.00225428757373,114.970390161663,1.01848771473226,"[ 17.4553134    3.50088385   1.01848771 -24.90516341  -1.29668113
   8.69789168]",[0.         0.         0.         0.42111962 0.         0.        ],['Ti0' 'Aw' 'Ci' 'e11' 'p11' 'Ria'],4036.22995353546,2.196469679517989
chicago_control_concrete_inf_schedTrue_job24,63.87858731159141,46.49020164072245,1411.1885096478147,194.30348061022246,2565817.451220548,89.97395697914656,90.94894850916747,123.570375768911,0.9985325558296759,"[ 17.85767393   3.4886817    0.99853256 -24.99620118  -1.34409178
   8.0925545 ]",[0.         0.         0.         0.00684137 0.         0.        ],['Ti0' 'Aw' 'Ci' 'e11' 'p11' 'Ria'],4251.23439811492,2.0824751390039893
chicago_control_concrete_inf_schedTrue_job162,85.97019731259432,57.3875459022821,1412.752691981981,196.6333358420255,2530036.4083500896,89.97395697914656,90.87204586499303,136.784054923484,0.8621936351585029,"[ 17.32838195   3.01479282   0.86219364 -25.49195899  -1.590077
   7.31079365]",[0.         0.         0.         0.88143893 0.         0.        ],['Ti0' 'Aw' 'Ci' 'e11' 'p11' 'Ria'],5189.16993794008,1.357647162788993
chicago_control_concrete_inf_schedTrue_job192,81.89510775384716,55.60479087804146,1411.6513849425312,197.43609198016185,2490221.62678818,89.97395697914656,90.90175456512905,134.13023899491998,0.860471704182207,"[ 16.91145253   3.07564024   0.8604717  -25.52394701  -1.60523652
   7.45544038]",[0.         0.         0.         0.90367787 0.         0.        ],['Ti0' 'Aw' 'Ci' 'e11' 'p11' 'Ria'],5235.1312361817,1.3096121040040316
chicago_control_concrete_inf_schedTrue_job128,74.5701318006283,51.91772278515397,1412.089076214045,194.44358368660798,2592460.822704104,89.97395697914656,90.90588242581305,130.622453081712,0.90159004010765,"[ 16.89790591   3.08698038   0.90159004 -25.35379664  -1.53546162
   7.65565166]",[0.         0.         0.         0.92742359 0.         0.        ],['Ti0' 'Aw' 'Ci' 'e11' 'p11' 'Ria'],4995.22519309007,1.512684192338014
chicago_control_concrete_inf_schedTrue_job125,66.78340282795884,47.98461687265818,1411.6152586404671,193.8802257949293,2607629.9539618734,89.97395697914656,90.94819864440836,126.58785731491999,1.02192210871788,"[ 17.09294847   3.44164571   1.02192211 -25.15429637  -1.42610849
   7.89965184]",[0.         0.         0.         0.10018282 0.         0.        ],['Ti0' 'Aw' 'Ci' 'e11' 'p11' 'Ria'],4563.68888921522,1.9678713700650263
chicago_control_concrete_inf_schedTrue_job171,63.6197105960064,46.26073936949091,1411.347381078002,192.69083816014918,2617065.3929778957,89.97395697914656,90.94663493721468,121.80375741754,0.9220019538305971,"[ 17.13190493   3.14360466   0.92200195 -25.24346181  -1.45013003
   8.20992736]",[0.         0.         0.         0.24049732 0.         0.        ],['Ti0' 'Aw' 'Ci' 'e11' 'p11' 'Ria'],4644.26114541361,1.7427335494339928
chicago_control_concrete_inf_schedTrue_job62,52.812989413676526,40.26134277814888,1410.490726733754,192.52939218806145,2616393.0765327746,89.97395697914656,90.98983612303536,115.905604211033,0.984438887767955,"[ 17.58394841   3.37882144   0.98443889 -25.07130193  -1.37281865
   8.62771051]",[0.         0.         0.         0.63352041 0.         0.        ],['Ti0' 'Aw' 'Ci' 'e11' 'p11' 'Ria'],4343.0603202685,1.8981575888430058
chicago_control_concrete_inf_schedTrue_job185,59.08468816493759,43.804449961585014,1411.1947078545763,192.48341750562085,2613557.631348228,89.97395697914656,90.97298767913459,118.53799865534201,0.9660786578983471,"[ 17.76541398   3.37144341   0.96607866 -24.87691475  -1.27575956
   8.43611341]",[0.        0.        0.        0.7279359 0.        0.       ],['Ti0' 'Aw' 'Ci' 'e11' 'p11' 'Ria'],4016.16036482206,2.2739285543059964
chicago_control_concrete_inf_schedTrue_job22,76.9239235711425,53.2181617273521,1411.3847168716723,196.76530870505448,2517431.57716193,89.97395697914656,90.99354308289689,126.67656854778299,1.0890518988873599,"[ 17.18248534   3.42902044   1.0890519  -24.84832609  -1.27127916
   7.89411974]",[0.         0.         0.         0.34490489 0.         0.        ],['Ti0' 'Aw' 'Ci' 'e11' 'p11' 'Ria'],3954.5226976300396,2.3280909730910224
chicago_control_concrete_inf_schedTrue_job68,53.93124714131498,40.91168791569431,1410.5923089578882,192.6097814418483,2610459.208260022,89.97395697914656,90.98110597161008,114.705205804692,0.921923491761692,"[ 17.37017445   3.14486803   0.92192349 -25.04260354  -1.36663926
   8.71800014]",[0.        0.        0.        0.7704397 0.        0.       ],['Ti0' 'Aw' 'Ci' 'e11' 'p11' 'Ria'],4358.45582077721,1.8947684712859996
chicago_control_concrete_inf_schedTrue_job137,66.34216975606938,47.72689960231619,1411.7967933111997,193.3914805774113,2635317.654652835,89.97395697914656,90.95836803209929,123.846114414774,0.9975770727939459,"[ 17.79414142   3.30702787   0.99757707 -24.9276972   -1.2984776
   8.07453673]",[0.         0.         0.         0.73805615 0.         0.        ],['Ti0' 'Aw' 'Ci' 'e11' 'p11' 'Ria'],4057.8409237877004,2.1680869469860085
chicago_control_concrete_inf_schedTrue_job23,51.88462442755615,39.71682436673586,1410.3102055089569,192.46869260006105,2579057.2109390534,89.97395697914656,90.96969805468433,115.201704978199,0.907074311269038,"[ 17.4231866    3.30735472   0.90707431 -25.05681129  -1.37131214
   8.68042708]",[0.         0.         0.         0.94661718 0.         0.        ],['Ti0' 'Aw' 'Ci' 'e11' 'p11' 'Ria'],4320.018450531479,1.6942466471829931
chicago_control_concrete_inf_schedTrue_job71,69.9603172426652,49.68855279562584,1411.7568602684294,195.1903127881161,2545158.4527377905,89.97395697914656,90.92884476693942,127.229101645384,1.01945107271329,"[ 17.29011487   3.52445408   1.01945107 -24.95836926  -1.33796121
   7.859837  ]",[0.         0.         0.         0.80086289 0.         0.        ],['Ti0' 'Aw' 'Ci' 'e11' 'p11' 'Ria'],4238.50588174977,2.097807963942998
chicago_control_concrete_inf_schedTrue_job151,55.30419897456743,41.73003921800167,1410.6410184782885,193.31719492310452,2598285.226179951,89.97395697914656,90.9533777968795,119.467715313898,1.0398427894702,"[ 17.31444797   3.4796648    1.03984279 -25.01936172  -1.37085279
   8.37046224]",[0.         0.         0.         0.26267396 0.         0.        ],['Ti0' 'Aw' 'Ci' 'e11' 'p11' 'Ria'],4351.9565536871205,2.038285779730998
chicago_control_concrete_inf_schedTrue_job182,60.46838325455828,44.636935944294976,1410.901324937193,193.92485307861102,2536458.4369654404,89.97395697914656,90.90827038931454,122.34801936156099,0.836883966836915,"[ 16.91607654   3.16423671   0.83688397 -25.21946564  -1.44452445
   8.17340571]",[0.         0.         0.         0.94918487 0.         0.        ],['Ti0' 'Aw' 'Ci' 'e11' 'p11' 'Ria'],4646.623868944629,1.5227626406460075
chicago_control_concrete_inf_schedTrue_job197,60.157379623368655,44.42980837890811,1410.944769567344,193.21421953689202,2597539.473395058,89.97395697914656,90.91812101425015,121.751732381753,0.912050269670702,"[ 17.10954561   3.19906052   0.91205027 -25.41747688  -1.53543492
   8.21343549]",[0.         0.         0.         0.08192856 0.         0.        ],['Ti0' 'Aw' 'Ci' 'e11' 'p11' 'Ria'],4976.24970727007,1.5843637100669952
chicago_control_concrete_inf_schedTrue_job36,57.439919178531746,42.919324945359655,1410.89763513964,193.0031047517918,2580734.434447834,89.97395697914656,90.955423754632,117.35484110435301,0.934881200518654,"[ 17.60746824   3.21505524   0.9348812  -24.8581222   -1.31559748
   8.5211653 ]",[0.         0.         0.         0.00048939 0.         0.        ],['Ti0' 'Aw' 'Ci' 'e11' 'p11' 'Ria'],4117.53833555256,1.963768879717989
chicago_control_concrete_inf_schedTrue_job148,73.67060092896384,51.584005850554874,1411.5682236547345,195.94448789765815,2580848.5559886275,89.97395697914656,90.90101556356562,130.087775235843,0.9311192873440841,"[ 16.88655028   3.40263463   0.93111929 -25.08723919  -1.38176214
   7.6871174 ]",[0.         0.         0.         0.89002731 0.         0.        ],['Ti0' 'Aw' 'Ci' 'e11' 'p11' 'Ria'],4386.44531997935,1.8537547621189958
chicago_control_concrete_inf_schedTrue_job75,74.51733928804998,51.917150599917925,1412.3350434997974,194.7907141531306,2619723.275440233,89.97395697914656,90.91616900929907,129.381985520207,0.957699646256089,"[ 17.80716917   3.2026971    0.95769965 -25.1094436   -1.39317247
   7.72905127]",[0.         0.         0.         0.11847991 0.         0.        ],['Ti0' 'Aw' 'Ci' 'e11' 'p11' 'Ria'],4426.01425243564,1.868516015385012
chicago_control_concrete_inf_schedTrue_job150,59.65450337062112,44.120770016898675,1411.1736630158493,192.55807386033547,2575657.516397197,89.97395697914656,90.97545372195893,118.817556552755,0.990685312410038,"[ 17.80240058   3.35942397   0.99068531 -24.94228102  -1.30295305
   8.41626464]",[0.         0.         0.         0.69214721 0.         0.        ],['Ti0' 'Aw' 'Ci' 'e11' 'p11' 'Ria'],4118.2766624080605,1.978885119939008
chicago_control_concrete_inf_schedTrue_job166,67.19922766485652,48.30062505785208,1411.0959553042194,195.54649206144745,2523127.0638319044,89.97395697914656,90.94186143768535,125.956383770144,0.979596863966288,"[ 17.20183087   3.46850891   0.97959686 -24.94784464  -1.38874456
   7.93925619]",[0.         0.         0.         0.88561494 0.         0.        ],['Ti0' 'Aw' 'Ci' 'e11' 'p11' 'Ria'],4398.74161877117,1.8068218172769974
chicago_control_concrete_inf_schedTrue_job59,65.20972852332228,47.24385588897654,1410.8250550946002,195.204477494177,2505345.9029670306,89.97395697914656,90.99320643759481,121.755797824319,1.09791772695481,"[ 17.35345584   3.53782985   1.09791773 -24.97429848  -1.31773431
   8.21316124]",[0.         0.         0.         0.57582922 0.         0.        ],['Ti0' 'Aw' 'Ci' 'e11' 'p11' 'Ria'],4148.86132863238,2.297167317168004
chicago_control_concrete_inf_schedTrue_job102,60.341709812851754,44.557794260494155,1410.995985030344,193.7324229272056,2598853.8189760903,89.97395697914656,90.92410339096185,124.581216462389,0.9651460603615649,"[ 17.42000845   3.43289877   0.96514606 -25.43904275  -1.55890236
   8.02689224]",[0.         0.         0.         0.94364237 0.         0.        ],['Ti0' 'Aw' 'Ci' 'e11' 'p11' 'Ria'],5052.49317131091,1.5212400838050115
chicago_control_concrete_inf_schedTrue_job165,70.8052299267768,50.07823125489018,1411.7118117585949,194.66061525570962,2562016.686216115,89.97395697914656,90.93517697720121,126.139974912721,0.9266806269864921,"[ 17.63607155   3.16654488   0.92668063 -25.1084997   -1.39867084
   7.92770096]",[0.         0.         0.         0.91922371 0.         0.        ],['Ti0' 'Aw' 'Ci' 'e11' 'p11' 'Ria'],4442.53121146335,1.7926607512509918
chicago_control_concrete_inf_schedTrue_job129,84.85366002643259,56.87580320007758,1412.9146143943658,196.4861613562481,2560318.51970573,89.97395697914656,90.890042092205,137.055205038846,1.0177815911485502,"[ 17.01830345   3.46446335   1.01778159 -25.09782106  -1.39430049
   7.29632997]",[0.         0.         0.         0.96807341 0.         0.        ],['Ti0' 'Aw' 'Ci' 'e11' 'p11' 'Ria'],4474.11324537647,2.0554314791900197
chicago_control_concrete_inf_schedTrue_job103,76.7421740863022,53.04610095263284,1412.0268582728072,195.59211864795088,2597623.514262208,89.97395697914656,90.875852979537,132.933257587244,0.9244626840123391,"[ 16.80657007   3.25789291   0.92446268 -25.37984031  -1.53256103
   7.52257199]",[0.         0.         0.         0.93153865 0.         0.        ],['Ti0' 'Aw' 'Ci' 'e11' 'p11' 'Ria'],4942.404846229761,1.532767405004023
chicago_control_concrete_inf_schedTrue_job144,54.70651307528831,41.36331566194896,1410.605987337689,192.76226678864623,2573913.5054746238,89.97395697914656,91.00816809001611,116.92004184290701,1.03361774710233,"[ 17.3977706    3.47244705   1.03361775 -25.02212811  -1.3455057
   8.55285359]",[0.         0.         0.         0.83242121 0.         0.        ],['Ti0' 'Aw' 'Ci' 'e11' 'p11' 'Ria'],4250.87154298043,2.1209826622779815
chicago_control_concrete_inf_schedTrue_job87,86.52787784579806,57.81747987138327,1411.715279335087,198.7881732123226,2484288.675805437,89.97395697914656,90.89280486389963,135.307862518641,0.832764607386286,"[ 16.82679865   3.07552533   0.83276461 -25.45500408  -1.57595305
   7.39055352]",[0.         0.         0.         0.97351149 0.         0.        ],['Ti0' 'Aw' 'Ci' 'e11' 'p11' 'Ria'],5140.90960880648,1.3641151117220147
chicago_control_concrete_inf_schedTrue_job149,72.78508527950095,51.00223590694066,1412.3323994308234,193.80384194902493,2611178.0228091674,89.97395697914656,90.94079653174578,127.69807604058799,0.946199459399192,"[ 17.78954417   3.23358021   0.94619946 -25.07104017  -1.38019965
   7.83097155]",[0.         0.         0.         0.90155504 0.         0.        ],['Ti0' 'Aw' 'Ci' 'e11' 'p11' 'Ria'],4395.19145970144,1.895226984416027
chicago_control_concrete_inf_schedTrue_job136,55.71711493261286,41.981425090000336,1410.5879489516958,193.67355000592354,2579332.4363100305,89.97395697914656,91.00182715798825,117.527013906848,1.06144278613776,"[ 17.52473323   3.51394547   1.06144279 -24.8734683   -1.26407282
   8.5086821 ]",[0.         0.         0.         0.87738252 0.         0.        ],['Ti0' 'Aw' 'Ci' 'e11' 'p11' 'Ria'],3978.8740507252705,2.336790208762011
chicago_control_concrete_inf_schedTrue_job5,54.684530384123015,41.361929904638814,1410.7068412785266,193.00362591647823,2620954.5666534025,89.97395697914656,90.99186382135262,116.02296415658002,0.9993139962609481,"[ 17.35118746   3.42942215   0.999314   -24.91330405  -1.28870304
   8.61898338]",[0.         0.         0.         0.46068513 0.         0.        ],['Ti0' 'Aw' 'Ci' 'e11' 'p11' 'Ria'],4033.36661841624,2.145667075296984
chicago_control_concrete_inf_schedTrue_job40,71.08245979441979,50.16623176447249,1411.7600472132142,193.9027752668846,2595946.4891254273,89.97395697914656,90.920102141888,126.307719177234,0.929438438674461,"[ 17.02308333   3.21080015   0.92943844 -25.08600899  -1.38808918
   7.91717249]",[0.         0.         0.         0.26147679 0.         0.        ],['Ti0' 'Aw' 'Ci' 'e11' 'p11' 'Ria'],4417.05370662915,1.7818290793660054
chicago_control_concrete_inf_schedTrue_job131,60.104146239465585,44.485437773986675,1410.6262370131244,194.83401651066936,2552243.794255691,89.97395697914656,90.97047941265956,122.21080443553998,0.989658243321957,"[ 17.53021108   3.47055418   0.98965824 -25.02619022  -1.3401975
   8.18258258]",[0.         0.         0.         0.93721737 0.         0.        ],['Ti0' 'Aw' 'Ci' 'e11' 'p11' 'Ria'],4205.73427239995,2.0153369200340165
chicago_control_concrete_inf_schedTrue_job135,62.302873621999495,45.585950702297,1411.2543675439651,193.14827025303802,2571928.1162866945,89.97395697914656,90.9633796819176,120.982588019041,0.94980896177103,"[ 17.41358556   3.2449671    0.94980896 -24.99667318  -1.34858231
   8.26565224]",[0.         0.         0.         0.94160662 0.         0.        ],['Ti0' 'Aw' 'Ci' 'e11' 'p11' 'Ria'],4280.67032631849,1.8738844310619953
chicago_control_concrete_inf_schedTrue_job189,59.85487068957632,44.352527831516525,1410.6667243206393,194.9064531721418,2577902.6182665545,89.97395697914656,90.98562436392035,122.382085306325,1.02353919838495,"[ 17.1677106    3.64181063   1.0235392  -25.03184164  -1.3662861
   8.17113058]",[0.         0.         0.         0.04837298 0.         0.        ],['Ti0' 'Aw' 'Ci' 'e11' 'p11' 'Ria'],4330.10354918709,2.0831401551580058
chicago_control_concrete_inf_schedTrue_job121,56.665820682234646,42.46742234179899,1410.8201291187802,192.62879663721455,2603280.6587064075,89.97395697914656,90.9862225496181,117.775121493443,1.0542705763804001,"[ 17.51783894   3.51355013   1.05427058 -25.21935896  -1.31017068
   8.49075753]",[0.         0.         0.         0.78623259 0.         0.        ],['Ti0' 'Aw' 'Ci' 'e11' 'p11' 'Ria'],4144.39301649596,2.2520731880970004
chicago_control_concrete_inf_schedTrue_job195,63.956311240238044,46.479852281054875,1411.437945724935,193.40386379851714,2588393.194682978,89.97395697914656,90.97944713629788,121.275734795762,1.00565050334672,"[ 17.59597896   3.39489882   1.0056505  -24.46958759  -1.25906742
   8.24567257]",[0.         0.         0.         0.88724654 0.         0.        ],['Ti0' 'Aw' 'Ci' 'e11' 'p11' 'Ria'],3948.5585521086,2.2386367749779907
chicago_control_concrete_inf_schedTrue_job51,76.3553912621211,52.767561955018365,1412.6287112824714,194.3074000893265,2616536.031489216,89.97395697914656,90.92695103581235,132.521630643587,1.04181751570941,"[ 17.10849794   3.48972514   1.04181752 -25.1677972   -1.44184518
   7.54593794]",[0.         0.         0.         0.73085372 0.         0.        ],['Ti0' 'Aw' 'Ci' 'e11' 'p11' 'Ria'],4648.94258195801,2.062595138614995
chicago_control_concrete_inf_schedTrue_job55,67.1991124600534,48.22896259278917,1411.558772683799,194.36937606537262,2562297.737754357,89.97395697914656,90.88754044981954,128.377411759476,0.8989282200745841,"[ 16.90538654   3.25827629   0.89892822 -25.34002969  -1.51448719
   7.78953234]",[0.         0.         0.         0.85039217 0.         0.        ],['Ti0' 'Aw' 'Ci' 'e11' 'p11' 'Ria'],4918.96060844836,1.5212327653320301
chicago_control_concrete_inf_schedTrue_job98,60.30212438470948,44.49271675408754,1411.3045207809064,192.9064197055322,2533915.8517902503,89.97395697914656,90.9833163526709,119.079372024686,1.0032015410545798,"[ 17.34351615   3.4591185    1.00320154 -24.87745849  -1.27628507
   8.39776011]",[0.         0.         0.         0.90626562 0.         0.        ],['Ti0' 'Aw' 'Ci' 'e11' 'p11' 'Ria'],4000.16745821849,2.1551729595650073
chicago_control_concrete_inf_schedTrue_job112,70.79844134990525,50.05133899467919,1412.0415075732144,194.29977878468716,2623603.221828503,89.97395697914656,90.91929616431439,128.415561661694,0.979518354812052,"[ 17.00429042   3.28939146   0.97951835 -25.16911395  -1.42933003
   7.78721821]",[0.         0.         0.         0.00064573 0.         0.        ],['Ti0' 'Aw' 'Ci' 'e11' 'p11' 'Ria'],4559.025993623421,1.9259222347309901
chicago_control_concrete_inf_schedTrue_job99,74.87731176490581,52.122534572384055,1412.1631553970153,195.2268618565306,2637139.474722359,89.97395697914656,90.91499193395886,131.959417888726,1.09010281446369,"[ 17.21979261   3.66956714   1.09010281 -25.06109977  -1.37337214
   7.57808738]",[0.         0.         0.         0.91291264 0.         0.        ],['Ti0' 'Aw' 'Ci' 'e11' 'p11' 'Ria'],4356.52489711572,2.1468155354220073
chicago_control_concrete_inf_schedTrue_job39,62.03624491481796,45.46934127358763,1411.0989519648278,193.627156326608,2592733.3774850494,89.97395697914656,90.90254828560218,123.61902394430099,0.9034869082618392,"[ 17.33452916   3.2568319    0.90348691 -25.4216856   -1.53951838
   8.08936981]",[0.         0.         0.         0.26220417 0.         0.        ],['Ti0' 'Aw' 'Ci' 'e11' 'p11' 'Ria'],4999.721136613711,1.5374182933760068
chicago_control_concrete_inf_schedTrue_job147,77.64570996284931,53.52744909472576,1411.8951766615005,196.2814797359881,2569620.8058046694,89.97395697914656,90.89990020768295,132.62237137543502,0.9044232580798499,"[ 16.80377869   3.34543592   0.90442326 -25.20519924  -1.44789476
   7.540206  ]",[0.         0.         0.         0.93599375 0.         0.        ],['Ti0' 'Aw' 'Ci' 'e11' 'p11' 'Ria'],4666.21837853475,1.6949353232859892
chicago_control_concrete_inf_schedTrue_job56,61.33328516179152,45.18565490703539,1410.5617086246343,195.4033544496787,2568161.6501213117,89.97395697914656,90.96774041433936,123.252019252728,1.04747352813603,"[ 17.24105169   3.69771329   1.04747353 -24.96699605  -1.31648173
   8.11345734]",[0.         0.         0.         0.00950914 0.         0.        ],['Ti0' 'Aw' 'Ci' 'e11' 'p11' 'Ria'],4155.0753908044,2.089753014905
chicago_control_concrete_inf_schedTrue_job109,81.07514452879398,55.18756849572537,1411.8396036598263,196.94767968639619,2529452.832002448,89.97395697914656,90.98995835592414,129.636114317242,0.972282701625986,"[ 17.12825134   3.24082757   0.9722827  -24.99706586  -1.33948594
   7.71389983]",[0.         0.         0.         0.47325782 0.         0.        ],['Ti0' 'Aw' 'Ci' 'e11' 'p11' 'Ria'],4269.164685420471,1.9485656957739934
chicago_control_concrete_inf_schedTrue_job46,74.33968544962619,51.89282328119784,1411.9776559451418,195.67573589478408,2580231.1152603207,89.97395697914656,90.92396697841166,129.683575900653,0.9435073403566259,"[ 17.77047382   3.24741255   0.94350734 -25.24722042  -1.46410507
   7.7110767 ]",[0.         0.         0.         0.93498647 0.         0.        ],['Ti0' 'Aw' 'Ci' 'e11' 'p11' 'Ria'],4683.40756592745,1.5214862162029874
chicago_control_concrete_inf_schedTrue_job45,58.46312302687596,43.465773775689826,1410.893826261402,192.565527434324,2610065.2230192698,89.97395697914656,90.93749605179657,120.08415024273,0.870089099135153,"[ 17.26951867   3.16262919   0.8700891  -25.24275596  -1.46215982
   8.32749366]",[0.         0.         0.         0.41343678 0.         0.        ],['Ti0' 'Aw' 'Ci' 'e11' 'p11' 'Ria'],4698.5276175136205,1.5306917394590016
chicago_control_concrete_inf_schedTrue_job81,70.33159825773478,49.823442321963036,1412.0222736408966,194.3895681715498,2565340.4683280373,89.97395697914656,90.94484366173195,127.770419641548,0.9609178231535681,"[ 16.96066028   3.36479044   0.96091782 -24.98763658  -1.34655717
   7.82653765]",[0.         0.         0.         0.93700544 0.         0.        ],['Ti0' 'Aw' 'Ci' 'e11' 'p11' 'Ria'],4276.66481398624,1.9617564481309984
chicago_control_concrete_inf_schedTrue_job12,57.89988146623585,43.18340162805697,1410.7346302661026,193.16196885592618,2558708.2447662572,89.97395697914656,90.98380899047442,119.228771962323,0.9308454673459108,"[ 17.24309697   3.25579282   0.93084547 -25.055756    -1.37721576
   8.38723727]",[0.         0.         0.         0.96798306 0.         0.        ],['Ti0' 'Aw' 'Ci' 'e11' 'p11' 'Ria'],4333.46277589661,1.795472081658005
chicago_control_concrete_inf_schedTrue_job41,69.58144273620906,49.50067436181545,1411.729138197803,195.24592425369408,2542971.3115902618,89.97395697914656,90.93315802404555,129.063293543296,0.9883677277706779,"[ 16.99548645   3.50602122   0.98836773 -24.89984211  -1.33226731
   7.74813638]",[0.         0.         0.         0.85218588 0.         0.        ],['Ti0' 'Aw' 'Ci' 'e11' 'p11' 'Ria'],4217.3077539808,2.1154058882609945
chicago_control_concrete_inf_schedTrue_job172,70.6207974306717,50.01411143836446,1411.6231123373827,195.09081304140526,2546395.609341374,89.97395697914656,90.93036461257364,129.86331767824498,1.07526096124185,"[ 17.12880443   3.63379096   1.07526096 -24.98915024  -1.33666498
   7.70040392]",[0.         0.         0.         0.01509407 0.         0.        ],['Ti0' 'Aw' 'Ci' 'e11' 'p11' 'Ria'],4257.63066211679,2.4125002242680296
chicago_control_concrete_inf_schedTrue_job85,54.74672589544546,41.37589247711539,1410.661803338558,192.53564986581486,2593252.0031897286,89.97395697914656,90.99665593952456,115.799935119764,0.994284279376225,"[ 17.46564728   3.39900717   0.99428428 -24.62541604  -1.26150639
   8.63558342]",[0.         0.         0.         0.90921578 0.         0.        ],['Ti0' 'Aw' 'Ci' 'e11' 'p11' 'Ria'],3956.3684877071796,2.277406322458006
chicago_control_concrete_inf_schedTrue_job117,62.3060932856948,45.6585401948275,1411.25637522242,194.42677249935556,2575654.1983984793,89.97395697914656,90.9724182031029,122.747130981366,1.1018136281742201,"[ 17.36224325   3.5820537    1.10181363 -24.90461111  -1.29167119
   8.14682993]",[0.         0.         0.         0.76756734 0.         0.        ],['Ti0' 'Aw' 'Ci' 'e11' 'p11' 'Ria'],4072.0737258039503,2.349972620502001
chicago_control_concrete_inf_schedTrue_job113,67.06513149121793,48.130803345225104,1411.3743930558637,193.89960730472518,2582055.847536604,89.97395697914656,90.95758315388085,123.84543944960899,0.882714896547793,"[ 17.04205622   3.14816712   0.8827149  -25.10422413  -1.39297467
   8.07458074]",[0.         0.         0.         0.10008634 0.         0.        ],['Ti0' 'Aw' 'Ci' 'e11' 'p11' 'Ria'],4411.793166685539,1.6795346944850138
chicago_control_concrete_inf_schedTrue_job94,55.35499832236077,41.768792284289695,1410.5885890880234,193.5291751326191,2617287.7706010104,89.97395697914656,90.98552558663292,118.16131428068998,1.0294714930531899,"[ 17.37962731   3.51618111   1.02947149 -24.86195205  -1.27282397
   8.46300675]",[0.         0.         0.         0.14147076 0.         0.        ],['Ti0' 'Aw' 'Ci' 'e11' 'p11' 'Ria'],3986.22885835582,2.2469499973450127
chicago_control_concrete_inf_schedTrue_job73,91.09389551103632,59.81359935269215,1412.4170946531603,198.69197823333204,2498062.503058318,89.97395697914656,90.91766891736559,135.941043274288,0.968301256804578,"[ 17.03608974   3.15050334   0.96830126 -25.17402963  -1.43579112
   7.3561301 ]",[0.         0.         0.         0.27035969 0.         0.        ],['Ti0' 'Aw' 'Ci' 'e11' 'p11' 'Ria'],4570.92205841539,1.78466706959901
chicago_control_concrete_inf_schedTrue_job104,59.471630372908926,44.06888499199124,1411.0151127769586,193.48730784345864,2559436.3877416584,89.97395697914656,90.96918853658462,120.37869433588999,1.01254063106988,"[ 17.79017089   3.50429798   1.01254063 -24.9043764   -1.28871971
   8.30711785]",[0.         0.         0.         0.82919454 0.         0.        ],['Ti0' 'Aw' 'Ci' 'e11' 'p11' 'Ria'],4013.70465336785,2.1715187317870175
chicago_control_concrete_inf_schedTrue_job126,55.45517708568315,41.81532319599265,1410.5447607622314,193.30578956882226,2609219.3522845698,89.97395697914656,90.95977318786377,118.75863502077401,0.9576220932256571,"[ 17.78607766   3.42357254   0.95762209 -25.04930533  -1.34816137
   8.42044033]",[0.        0.        0.        0.9422595 0.        0.       ],['Ti0' 'Aw' 'Ci' 'e11' 'p11' 'Ria'],4222.68517809666,1.9278167750429844
chicago_control_concrete_inf_schedTrue_job10,57.1984096813301,42.77174860641443,1410.8803381568362,192.74739016915436,2636687.6756487205,89.97395697914656,90.97118100344463,119.836020329351,0.965384620756606,"[ 17.55933352   3.36498903   0.96538462 -25.17781561  -1.41779844
   8.34473639]",[0.         0.         0.         0.08106831 0.         0.        ],['Ti0' 'Aw' 'Ci' 'e11' 'p11' 'Ria'],4501.864214471,1.8756537337969945
chicago_control_concrete_inf_schedTrue_job173,62.8120742122354,45.863267987955886,1411.1688412705726,193.24407591364246,2575950.3685615063,89.97395697914656,90.91592218571802,123.19112540088601,0.8854996610758281,"[ 16.91762295   3.20588205   0.88549966 -25.40659218  -1.53304955
   8.11746785]",[0.         0.         0.         0.10240873 0.         0.        ],['Ti0' 'Aw' 'Ci' 'e11' 'p11' 'Ria'],4962.71277957492,1.5466661887109865
chicago_control_concrete_inf_schedTrue_job155,73.00063527527956,51.37908556463725,1411.1379743196842,197.78428029566186,2543727.714501265,89.97395697914656,90.95246506211376,129.787097259004,1.1006240464728,"[ 17.10139802   3.7672014    1.10062405 -25.48431567  -1.35071416
   7.70492615]",[0.         0.         0.         0.87499681 0.         0.        ],['Ti0' 'Aw' 'Ci' 'e11' 'p11' 'Ria'],4282.52861010339,2.21769555958997
chicago_control_concrete_inf_schedTrue_job27,69.05809316476902,49.34137446233762,1410.8383827803355,196.94318861475082,2519135.1898884377,89.97395697914656,90.94491785102323,128.188237068014,0.9723028288521091,"[ 17.20742103   3.50084504   0.97230283 -25.21117873  -1.46304544
   7.80102779]",[0.         0.         0.         0.68284204 0.         0.        ],['Ti0' 'Aw' 'Ci' 'e11' 'p11' 'Ria'],4714.16121708656,1.809738197108004
chicago_control_concrete_inf_schedTrue_job152,68.56455826586281,48.94805356265307,1411.6390997020112,194.68014741363567,2554720.6315504597,89.97395697914656,90.90594385384523,127.463759476793,0.911411317617653,"[ 17.01114135   3.21721587   0.91141132 -25.41176218  -1.53605548
   7.84536722]",[0.         0.         0.         0.31317473 0.         0.        ],['Ti0' 'Aw' 'Ci' 'e11' 'p11' 'Ria'],4971.55204326377,1.547836064275998
chicago_control_concrete_inf_schedTrue_job79,82.37826422919552,55.82007926979959,1412.2092860250666,197.33730056763633,2526786.599109346,89.97395697914656,90.94511520399651,134.754006866824,1.10677047728579,"[ 17.15706903   3.65215996   1.10677048 -25.05399858  -1.36872326
   7.42092961]",[0.        0.        0.        0.9158493 0.        0.       ],['Ti0' 'Aw' 'Ci' 'e11' 'p11' 'Ria'],4334.23068472521,2.2740052941180124
chicago_control_concrete_inf_schedTrue_job124,59.497394052272575,44.09320581040148,1410.8752667079737,193.68613018278225,2577478.598222495,89.97395697914656,90.92144820650903,122.31232095683201,0.8946154092998392,"[ 17.1403803    3.27023101   0.89461541 -25.3371629   -1.50632249
   8.17579122]",[0.         0.         0.         0.56956382 0.         0.        ],['Ti0' 'Aw' 'Ci' 'e11' 'p11' 'Ria'],4875.40094122538,1.5011153977909828
chicago_control_concrete_inf_schedTrue_job108,71.76371493676737,50.570650922959025,1411.975648431745,194.87596187269918,2575006.910193786,89.97395697914656,90.92172871971529,128.848490975688,1.06779227527902,"[ 17.79290657   3.53790162   1.06779228 -24.99719623  -1.34280869
   7.76105325]",[0.         0.         0.         0.91385786 0.         0.        ],['Ti0' 'Aw' 'Ci' 'e11' 'p11' 'Ria'],4263.39589251151,2.2691433699589822
chicago_control_concrete_inf_schedTrue_job157,81.52892538971383,55.230107741569455,1412.8159575016946,194.8301916624396,2600894.827104799,89.97395697914656,90.90573757347916,133.170898576956,0.889498787089615,"[ 16.70538179   3.06448258   0.88949879 -25.16907028  -1.47690132
   7.5091481 ]",[0.         0.         0.         0.00912664 0.         0.        ],['Ti0' 'Aw' 'Ci' 'e11' 'p11' 'Ria'],4742.78426009461,1.58007652064299
chicago_control_concrete_inf_schedTrue_job83,74.1974098241822,51.70309620528807,1412.0591441963336,193.9692475795731,2564781.4202515106,89.97395697914656,90.8951524118687,128.206637750009,0.83271612900245,"[ 16.91908914   2.95737331   0.83271613 -25.18699183  -1.53821323
   7.79990816]",[0.         0.         0.         0.90227566 0.         0.        ],['Ti0' 'Aw' 'Ci' 'e11' 'p11' 'Ria'],4979.461118271211,1.4072235026089857
chicago_control_concrete_inf_schedTrue_job160,81.17775731077829,55.275514355276485,1411.7533639462995,197.46421636297475,2529024.6449131635,89.97395697914656,90.92327420886609,131.79280254328302,0.890418140989601,"[ 16.95929252   3.13985672   0.89041814 -25.30185271  -1.49101454
   7.58766777]",[0.         0.         0.         0.53328866 0.         0.        ],['Ti0' 'Aw' 'Ci' 'e11' 'p11' 'Ria'],4835.5382424995005,1.5673325038239625
chicago_control_concrete_inf_schedTrue_job60,77.93613931301012,53.65953188487672,1412.1328235844192,196.19956115215282,2590811.3543123947,89.97395697914656,90.92118837730767,132.487191473134,1.0550252653944001,"[ 16.94624593   3.53784561   1.05502527 -25.13069162  -1.41368419
   7.54789945]",[0.         0.         0.         0.95187714 0.         0.        ],['Ti0' 'Aw' 'Ci' 'e11' 'p11' 'Ria'],4535.68270328836,2.475660772500987
chicago_control_concrete_inf_schedTrue_job64,54.44784614966995,41.19696296166708,1410.6289159989756,192.36203800743712,2606471.775051821,89.97395697914656,90.9336773708676,119.31311406107599,0.9665541645960429,"[ 17.33606637   3.33370708   0.96655416 -25.32033034  -1.50010903
   8.38130836]",[0.         0.         0.         0.01830416 0.         0.        ],['Ti0' 'Aw' 'Ci' 'e11' 'p11' 'Ria'],4833.88914069081,1.7085815745030004
chicago_control_concrete_inf_schedTrue_job107,64.64994102281776,46.80529620756559,1411.5363705232128,192.72511188792697,2602660.168912279,89.97395697914656,90.94256842834369,123.133774182124,0.9639928461254859,"[ 17.11479044   3.32112588   0.96399285 -24.89188833  -1.37105763
   8.12124867]",[0.         0.         0.         0.86336343 0.         0.        ],['Ti0' 'Aw' 'Ci' 'e11' 'p11' 'Ria'],4352.42781890294,1.9426194276980056
chicago_control_concrete_inf_schedTrue_job54,54.07996845309845,40.97614374379493,1410.5553164336889,192.14628296314254,2565515.0151732382,89.97395697914656,90.95094769572381,117.306511439519,0.8771997801389749,"[ 17.31755791   3.2081348    0.87719978 -25.23630593  -1.44761567
   8.52467598]",[0.         0.         0.         0.77051069 0.         0.        ],['Ti0' 'Aw' 'Ci' 'e11' 'p11' 'Ria'],4642.60321578217,1.6341863188369956
chicago_control_concrete_inf_schedTrue_job9,69.74720438508795,49.60240919267417,1410.9624088074136,195.5384856995076,2534650.7655049968,89.97395697914656,90.98262894277,123.09501759708901,1.04087817111818,"[ 17.65691372   3.36007528   1.04087817 -24.94063405  -1.30808163
   8.12380565]",[0.         0.         0.         0.94500984 0.         0.        ],['Ti0' 'Aw' 'Ci' 'e11' 'p11' 'Ria'],4108.71106017357,2.0727126058589818
chicago_control_concrete_inf_schedTrue_job174,83.56350369010559,56.36179799729363,1412.1421608958206,197.3389469522047,2528475.555764104,89.97395697914656,90.94762267652008,132.58882823117202,0.988619174905895,"[ 16.95407735   3.31450428   0.98861917 -25.01342541  -1.35542214
   7.54211357]",[0.         0.         0.         0.94461914 0.         0.        ],['Ti0' 'Aw' 'Ci' 'e11' 'p11' 'Ria'],4313.4414244770005,1.9624752710529947
chicago_control_concrete_inf_schedTrue_job175,65.74826483626407,47.44839872420443,1411.0767563948666,193.89910834215203,2549452.775586227,89.97395697914656,90.96586021251204,121.63933194115,0.9495067750672191,"[ 17.14437339   3.36784627   0.94950678 -24.69121116  -1.30190726
   8.22102509]",[0.         0.         0.         0.86921206 0.         0.        ],['Ti0' 'Aw' 'Ci' 'e11' 'p11' 'Ria'],4117.88808374968,1.8794908617710036
chicago_control_concrete_inf_schedTrue_job110,59.22569622046479,43.982462230982335,1410.7998229705217,194.4407708553086,2560265.5926420395,89.97395697914656,90.9730793068949,122.08226812660101,1.0805694885025798,"[ 17.41611572   3.6744905    1.08056949 -24.89130736  -1.28955434
   8.19119775]",[0.         0.         0.         0.63793454 0.         0.        ],['Ti0' 'Aw' 'Ci' 'e11' 'p11' 'Ria'],4044.73937873779,2.38154834739899
chicago_control_concrete_inf_schedTrue_job114,75.07428148770953,52.17875173459614,1412.1428428581414,194.6811238776766,2602228.312301653,89.97395697914656,90.94508735552176,129.164929484303,1.03518136298775,"[ 16.94813784   3.47726672   1.03518136 -25.03531319  -1.35776869
   7.74203961]",[0.         0.         0.         0.93314864 0.         0.        ],['Ti0' 'Aw' 'Ci' 'e11' 'p11' 'Ria'],4316.11913721821,2.1557915234149903
chicago_control_concrete_inf_schedTrue_job133,66.57087065486567,47.93466193519303,1411.2173741113538,194.8733746289208,2636043.2602171977,89.97395697914656,90.93647459948508,124.24656258455099,0.98291329015958,"[ 17.21711776   3.36819558   0.98291329 -24.90793633  -1.30761106
   8.0485124 ]",[0.         0.         0.         0.93809395 0.         0.        ],['Ti0' 'Aw' 'Ci' 'e11' 'p11' 'Ria'],4088.9745302140705,2.0456337304820096
chicago_control_concrete_inf_schedTrue_job122,69.69300258228442,49.427677285925846,1412.0616701172626,193.24595034998603,2591922.7152037816,89.97395697914656,90.95911423290782,124.162615580359,1.01094135287371,"[ 17.22697707   3.26538886   1.01094135 -24.98532523  -1.33163958
   8.05395405]",[0.         0.         0.         0.94595516 0.         0.        ],['Ti0' 'Aw' 'Ci' 'e11' 'p11' 'Ria'],4214.8804859143,2.166688467975007
chicago_control_concrete_inf_schedTrue_job140,69.28725025282807,49.25464924794033,1411.4747707467718,193.7420029175629,2546539.5337939477,89.97395697914656,90.89846810023303,126.652987680552,0.8583425261167141,"[ 17.03968901   3.09016863   0.85834253 -25.34173546  -1.52546491
   7.8955895 ]",[0.         0.         0.         0.96732271 0.         0.        ],['Ti0' 'Aw' 'Ci' 'e11' 'p11' 'Ria'],4947.25173264744,1.18702770278
chicago_control_concrete_inf_schedTrue_job16,75.39692680711396,52.42742021686639,1411.985029145089,195.97754361135426,2567814.668896182,89.97395697914656,90.92566778403132,129.485167311884,0.875384700136549,"[ 16.90878474   3.18101106   0.8753847  -24.23026435  -1.36960297
   7.72289229]",[0.         0.         0.         0.88558609 0.         0.        ],['Ti0' 'Aw' 'Ci' 'e11' 'p11' 'Ria'],4383.17193795836,1.7930451766130204
chicago_control_concrete_inf_schedTrue_job159,91.12425819989934,59.88358778775068,1412.323764126379,199.3228176351997,2494065.2692891397,89.97395697914656,90.8821261109393,138.804892242153,0.8764157017514859,"[ 16.85880589   3.15930014   0.8764157  -25.32307131  -1.55037816
   7.20435702]",[0.         0.         0.         0.19794007 0.         0.        ],['Ti0' 'Aw' 'Ci' 'e11' 'p11' 'Ria'],5051.1542993722205,1.438664847766006
chicago_control_concrete_inf_schedTrue_job4,71.267940571131,50.17373050194045,1411.9789672715926,192.64229844286956,2657266.4117457354,89.97395697914656,90.89601697136095,127.822824387367,0.8828448790146729,"[ 17.24903764   3.03888905   0.88284488 -25.50781487  -1.59329166
   7.82332893]",[0.         0.         0.         0.48405728 0.         0.        ],['Ti0' 'Aw' 'Ci' 'e11' 'p11' 'Ria'],5181.69749251103,1.4283018770409797
chicago_control_concrete_inf_schedTrue_job43,57.56126694737847,42.96774181944519,1410.9624604148166,192.6135094927761,2638598.8950033826,89.97395697914656,90.98520240192049,118.032769807629,1.01458611915688,"[ 17.50414068   3.38922767   1.01458612 -24.94829824  -1.32336449
   8.47222345]",[0.         0.         0.         0.07927814 0.         0.        ],['Ti0' 'Aw' 'Ci' 'e11' 'p11' 'Ria'],4180.4243727981,2.0885470489370164
chicago_control_concrete_inf_schedTrue_job178,59.51645895556818,44.08089154430057,1410.979660880992,193.24551798276943,2595948.6919521224,89.97395697914656,90.993182052849,120.437143347084,1.07990446433017,"[ 17.23123238   3.56862886   1.07990446 -24.87213437  -1.2690965
   8.30308634]",[0.         0.         0.         0.02130754 0.         0.        ],['Ti0' 'Aw' 'Ci' 'e11' 'p11' 'Ria'],3967.05704821233,2.524688956777993
chicago_control_concrete_inf_schedTrue_job47,57.35072404917802,42.88226871948024,1410.7284302524974,193.26522604857274,2557460.2280922164,89.97395697914656,90.96958581284306,118.49744303235799,0.9800714723177592,"[ 17.12470996   3.39969043   0.98007147 -24.46026651  -1.3080806
   8.43900066]",[0.         0.         0.         0.89301774 0.         0.        ],['Ti0' 'Aw' 'Ci' 'e11' 'p11' 'Ria'],4120.94056503068,2.1201228479680054
chicago_control_concrete_inf_schedTrue_job35,69.09016731766658,49.1859949075399,1411.518065428308,194.22401513914718,2581715.888286074,89.97395697914656,90.89176555070416,127.70919641428101,0.9225474802827869,"[ 17.07118818   3.27246719   0.92254748 -25.41981362  -1.54862178
   7.83028966]",[0.         0.         0.         0.76193777 0.         0.        ],['Ti0' 'Aw' 'Ci' 'e11' 'p11' 'Ria'],5052.89832389435,1.5812568656040042
chicago_control_concrete_inf_schedTrue_job177,85.28807593166297,57.109296946577146,1412.5872220446909,196.9514086069808,2559709.924058708,89.97395697914656,90.91531167312814,136.395758790338,0.976449548326222,"[ 16.89871021   3.32264703   0.97644955 -25.21161991  -1.44307908
   7.33160627]",[0.         0.         0.         0.53765053 0.         0.        ],['Ti0' 'Aw' 'Ci' 'e11' 'p11' 'Ria'],4612.22662095254,1.8214995691729996
