fname,hlc_mat,hlc_tot,hlc_se,hlc_si,c_tot,hlc_inf_standard,hlc_inf_current,hlc_tot_pred,c_tot_pred,estimates,probt,names,loglik,err
chicago_control_wood_schedFalse_job101,76.79016127742993,53.29684118018219,1409.0313105576226,198.78229958602887,244036.25266867637,0.0,0.0,55.843202616787,0.49100443803607596,"[ 16.04857063   3.26570346   0.49100444 -23.66717466  -0.91492659
  17.90728241]",[0.         0.         0.         0.73447274 0.         0.        ],['Ti0' 'Aw' 'Ci' 'e11' 'p11' 'Ria'],1089.2232638902099,2.2368557234500983
chicago_control_wood_schedFalse_job36,57.41716306366375,42.8523126120087,1408.368680750133,191.9560091560862,269201.42871644447,0.0,0.0,41.1355483817425,0.51603999506596,"[ 17.22861335   2.58240688   0.51604    -23.80247023  -0.98859534
  24.30987405]",[0.         0.         0.         0.92201271 0.         0.        ],['Ti0' 'Aw' 'Ci' 'e11' 'p11' 'Ria'],1184.57484171765,2.1996564499175975
chicago_control_wood_schedFalse_job31,50.96927567037729,39.06504586602912,1407.9313758686997,189.81069625862816,311302.98309585993,0.0,0.0,36.6355252863391,0.566752661652559,"[ 17.76854012   2.46013859   0.56675266 -23.90867987  -1.04358987
  27.29590997]",[0.         0.         0.         0.92026608 0.         0.        ],['Ti0' 'Aw' 'Ci' 'e11' 'p11' 'Ria'],1275.9754901712402,2.223769102866598
chicago_control_wood_schedFalse_job94,55.267190605605705,41.64287127077628,1408.0163208789097,191.95415669781602,305710.19753326254,0.0,0.0,40.495783535742,0.559172695089018,"[ 17.43451493   2.63767389   0.5591727  -23.83197208  -1.00512749
  24.69392892]",[0.         0.         0.         0.64385827 0.         0.        ],['Ti0' 'Aw' 'Ci' 'e11' 'p11' 'Ria'],1208.59781390649,2.4295790281239036
chicago_control_wood_schedFalse_job10,57.11614945591919,42.653867598062426,1408.2163244094334,191.34245704866603,323814.1134607914,0.0,0.0,39.759113575997894,0.527635477383644,"[ 17.50253064   2.52439916   0.52763548 -23.87850995  -1.03139309
  25.15146617]",[0.         0.         0.         0.59893766 0.         0.        ],['Ti0' 'Aw' 'Ci' 'e11' 'p11' 'Ria'],1254.5950264709697,2.1146604326912097
chicago_control_wood_schedFalse_job128,74.21993314873397,51.81109910146191,1409.4152263054032,195.39263410383484,287035.725195649,0.0,0.0,50.592962878275,0.45938969574559996,"[ 16.65305113   2.91975745   0.4593897  -23.83395612  -1.00656446
  19.76559472]",[0.         0.         0.         0.26257398 0.         0.        ],['Ti0' 'Aw' 'Ci' 'e11' 'p11' 'Ria'],1256.42347734388,1.7283687792451943
chicago_control_wood_schedFalse_job45,58.59105569709176,43.51088832340279,1408.488498230819,192.11112584084842,243457.6349894525,0.0,0.0,41.7872370550737,0.520193386914895,"[ 17.26644209   2.62036743   0.52019339 -23.85782614  -1.01318479
  23.93075184]",[0.         0.         0.         0.82587719 0.         0.        ],['Ti0' 'Aw' 'Ci' 'e11' 'p11' 'Ria'],1231.39845535363,1.9208562068224992
chicago_control_wood_schedFalse_job5,54.65903911276495,41.26663572899537,1408.0819030659525,191.30591691907293,299944.25680695346,0.0,0.0,39.335153284446996,0.543993138256624,"[ 17.48508372   2.54874754   0.54399314 -23.86247732  -1.01770106
  25.42255251]",[0.         0.         0.         0.59152904 0.         0.        ],['Ti0' 'Aw' 'Ci' 'e11' 'p11' 'Ria'],1230.15479293849,2.285870145159606
chicago_control_wood_schedFalse_job180,71.32435180855833,50.431213662218084,1408.8258835661927,196.12759551022944,259308.24044887058,0.0,0.0,50.1035987367054,0.497029415236347,"[ 16.56820166   2.99891666   0.49702942 -23.75102996  -0.95597311
  19.95864619]",[0.        0.        0.        0.3300755 0.        0.       ],['Ti0' 'Aw' 'Ci' 'e11' 'p11' 'Ria'],1150.18585211562,2.1453352773356045
chicago_control_wood_schedFalse_job71,69.78610606202669,49.650297782570064,1408.945400173813,196.0163404242717,249127.67309421807,0.0,0.0,50.3586172222812,0.49850847460177206,"[ 16.45289277   2.98321929   0.49850847 -23.72226443  -0.94444916
  19.85757463]",[0.        0.        0.        0.7993606 0.        0.       ],['Ti0' 'Aw' 'Ci' 'e11' 'p11' 'Ria'],1116.4902063195,2.0358870205815975
chicago_control_wood_schedFalse_job121,56.62296270503529,42.38915964247215,1408.2563842346124,191.56502424549683,287097.16539416264,0.0,0.0,40.814466105681,0.5583836013260379,"[ 17.31758148   2.66477205   0.5583836  -23.86984483  -1.01661123
  24.50111677]",[0.         0.         0.         0.73567526 0.         0.        ],['Ti0' 'Aw' 'Ci' 'e11' 'p11' 'Ria'],1241.23854230398,2.2723539534475066
chicago_control_wood_schedFalse_job175,65.68361945311939,47.42245772028453,1408.4681663370554,194.0779680830659,258221.6826719609,0.0,0.0,47.46013310976149,0.553887788230289,"[ 16.58760936   2.95870092   0.55388779 -23.75084561  -0.95153924
  21.07031596]",[0.        0.        0.        0.9506524 0.        0.       ],['Ti0' 'Aw' 'Ci' 'e11' 'p11' 'Ria'],1127.99511522953,2.488685600723805
chicago_control_wood_schedFalse_job137,66.3347033882348,47.692466722535066,1409.1711403572438,192.93958867058763,295549.9778596241,0.0,0.0,44.9784812027568,0.451500769907199,"[ 17.12430917   2.59809019   0.45150077 -23.88373164  -1.03074978
  22.23285387]",[0.         0.         0.         0.93738539 0.         0.        ],['Ti0' 'Aw' 'Ci' 'e11' 'p11' 'Ria'],1267.20896602524,1.6259768156194951
chicago_control_wood_schedFalse_job141,55.33318401002408,41.69774141823031,1407.894245458666,192.32634302402224,270037.96017325064,0.0,0.0,41.6202610035365,0.577508631927472,"[ 17.19374305   2.72579977   0.57750863 -23.78697723  -0.98076724
  24.02675946]",[0.         0.         0.         0.80432753 0.         0.        ],['Ti0' 'Aw' 'Ci' 'e11' 'p11' 'Ria'],1163.58083355245,2.243645448161402
chicago_control_wood_schedFalse_job189,59.72897812747824,44.267289218003675,1407.880137408246,194.64857026024535,269721.32825014956,0.0,0.0,46.1673586997885,0.615623766703448,"[ 16.80265099   3.06892393   0.61562377 -23.74473912  -0.95760257
  21.66032513]",[0.         0.         0.         0.31936929 0.         0.        ],['Ti0' 'Aw' 'Ci' 'e11' 'p11' 'Ria'],1135.0332222356099,2.8622857595941014
chicago_control_wood_schedFalse_job104,59.22354009735025,43.90601475137338,1408.283817161165,193.02556616840988,269560.0733205458,0.0,0.0,44.1205125794347,0.555477250397959,"[ 16.81921966   2.81522193   0.55547725 -23.76415017  -0.96484219
  22.66519452]",[0.         0.         0.         0.90225607 0.         0.        ],['Ti0' 'Aw' 'Ci' 'e11' 'p11' 'Ria'],1142.76926613304,2.387265012146095
chicago_control_wood_schedFalse_job171,63.54375548637818,46.19411950572955,1408.7569455291996,192.28018865845507,302105.5946079662,0.0,0.0,43.2870367572255,0.506688708140386,"[ 17.20670273   2.6445886    0.50668871 -23.87962321  -1.0243548
  23.10160443]",[0.         0.         0.         0.76993474 0.         0.        ],['Ti0' 'Aw' 'Ci' 'e11' 'p11' 'Ria'],1251.2408816516802,1.9956396964807084
chicago_control_wood_schedFalse_job177,85.56182087757034,57.38477883804588,1409.7248530225595,198.83048956113603,249616.98018615023,0.0,0.0,57.7586856747482,0.41686468050134995,"[ 16.2608792    3.17440894   0.41686468 -23.78569882  -0.97635702
  17.31341336]",[0.         0.         0.         0.30010656 0.         0.        ],['Ti0' 'Aw' 'Ci' 'e11' 'p11' 'Ria'],1231.3021957865599,1.6775991003965984
chicago_control_wood_schedFalse_job23,51.936548827556976,39.68542166426174,1407.858876130943,191.0727770411993,263886.40670232126,0.0,0.0,38.9821799689725,0.58152687391442,"[ 17.3593244    2.62560056   0.58152687 -23.79861623  -0.98268829
  25.65274699]",[0.         0.         0.         0.92311452 0.         0.        ],['Ti0' 'Aw' 'Ci' 'e11' 'p11' 'Ria'],1165.12451543357,2.557676934385995
chicago_control_wood_schedFalse_job144,54.86127656192868,41.4019789511388,1407.9828715893789,191.73963498228773,228664.31344143918,0.0,0.0,41.3561926253937,0.6026154943011429,"[ 17.16397188   2.79582554   0.60261549 -23.83354605  -0.99726755
  24.1801756 ]",[0.         0.         0.         0.83226872 0.         0.        ],['Ti0' 'Aw' 'Ci' 'e11' 'p11' 'Ria'],1201.4530090522,2.6627251933426948
chicago_control_wood_schedFalse_job33,74.11476692239317,51.836366911913125,1409.2719960110278,196.49062140677339,269101.2849522916,0.0,0.0,51.3651862034993,0.460237791817716,"[ 16.66544189   2.98092781   0.46023779 -23.82231725  -0.99996488
  19.46843911]",[0.         0.         0.         0.90540375 0.         0.        ],['Ti0' 'Aw' 'Ci' 'e11' 'p11' 'Ria'],1245.48639020601,1.709892255355598
chicago_control_wood_schedFalse_job184,74.96318641549783,52.23111175522407,1409.2100679407968,196.22546581452173,300689.9974031915,0.0,0.0,50.4536418015975,0.45597099564794397,"[ 16.78614293   2.92612762   0.455971   -23.83864113  -1.00742823
  19.8201748 ]",[0.         0.         0.         0.92223313 0.         0.        ],['Ti0' 'Aw' 'Ci' 'e11' 'p11' 'Ria'],1258.8478945527002,1.6606996386017059
chicago_control_wood_schedFalse_job176,70.68908846572529,50.076464234672365,1409.0970342118173,195.5672033124766,260433.91008659598,0.0,0.0,49.19148721498421,0.459698486850892,"[ 16.79795732   2.88290076   0.45969849 -23.83302628  -1.0010141
  20.32872061]",[0.        0.        0.        0.5932255 0.        0.       ],['Ti0' 'Aw' 'Ci' 'e11' 'p11' 'Ria'],1242.22157206659,1.866741734705002
chicago_control_wood_schedFalse_job148,73.63007521526028,51.60603943428499,1408.8959811659713,196.60291412950184,265558.44979319215,0.0,0.0,50.9447337543964,0.459105991666226,"[ 16.47523399   2.9944959    0.45910599 -23.74669945  -0.95146012
  19.62911426]",[0.         0.         0.         0.06435198 0.         0.        ],['Ti0' 'Aw' 'Ci' 'e11' 'p11' 'Ria'],1162.7264659425698,2.0168348353127
chicago_control_wood_schedFalse_job75,74.55015985493183,51.97155626287004,1409.5900727285184,195.38574886593148,288995.0816878021,0.0,0.0,50.104884417768496,0.41557203930156894,"[ 16.80932226   2.80496409   0.41557204 -23.8669731   -1.02015166
  19.95813405]",[0.         0.         0.         0.47375912 0.         0.        ],['Ti0' 'Aw' 'Ci' 'e11' 'p11' 'Ria'],1280.05096028249,1.614273082388209
chicago_control_wood_schedFalse_job32,72.94934531460233,51.24859179803719,1409.2394172965887,196.27137656289048,243714.07588356407,0.0,0.0,51.6774853935322,0.46997671840419897,"[ 16.41385632   3.00293068   0.46997672 -23.74741092  -0.95437323
  19.35078676]",[0.         0.         0.         0.92563247 0.         0.        ],['Ti0' 'Aw' 'Ci' 'e11' 'p11' 'Ria'],1147.75588997119,1.9991191638616925
chicago_control_wood_schedFalse_job52,64.32006466125772,46.744749312918756,1408.5649562882002,194.71972367046934,274952.9526754249,0.0,0.0,47.0832218110491,0.5325134785270561,"[ 16.79791703   2.89200674   0.53251348 -23.77731787  -0.97318534
  21.23898836]",[0.         0.         0.         0.95670418 0.         0.        ],['Ti0' 'Aw' 'Ci' 'e11' 'p11' 'Ria'],1156.1147814757599,2.3406033811204026
chicago_control_wood_schedFalse_job192,79.9168009223179,54.74824168530616,1408.8295839237985,198.31022494016116,206809.88978826813,0.0,0.0,55.958977167003404,0.497404072026277,"[ 16.24939779   3.24812689   0.49740407 -23.74489284  -0.94795072
  17.87023371]",[0.         0.         0.         0.59525616 0.         0.        ],['Ti0' 'Aw' 'Ci' 'e11' 'p11' 'Ria'],1145.89135794548,2.1504323488018855
chicago_control_wood_schedFalse_job27,68.14072400647521,48.93294367871486,1407.8148839009878,198.00813473480102,234287.26841408206,0.0,0.0,53.638213739946394,0.613779672130487,"[ 15.99120433   3.43228796   0.61377967 -23.14939093  -0.88364259
  18.64342472]",[0.         0.         0.         0.91439415 0.         0.        ],['Ti0' 'Aw' 'Ci' 'e11' 'p11' 'Ria'],1014.90228912254,3.227806590947104
chicago_control_wood_schedFalse_job83,74.29683109335012,51.818794593140765,1409.4081387344709,194.9707122345449,241888.57421818003,0.0,0.0,49.4724481842156,0.445918410864484,"[ 16.65545341   2.84509041   0.44591841 -23.81469797  -0.99366943
  20.21327096]",[0.         0.         0.         0.29259333 0.         0.        ],['Ti0' 'Aw' 'Ci' 'e11' 'p11' 'Ria'],1227.10511318013,1.7506140307056057
chicago_control_wood_schedFalse_job39,62.09770796452121,45.47319379541336,1408.516467889992,193.1487396711953,237554.65945899882,0.0,0.0,43.79359716992371,0.517415981168193,"[ 17.13630635   2.72500203   0.51741598 -23.8391874   -1.00269399
  22.83438824]",[0.        0.        0.        0.7288216 0.        0.       ],['Ti0' 'Aw' 'Ci' 'e11' 'p11' 'Ria'],1219.5614080154598,2.137887433570498
chicago_control_wood_schedFalse_job98,60.18037798215064,44.38744715879418,1408.6035004853309,192.22425613242427,244260.2398373398,0.0,0.0,42.4412620491031,0.501206915894111,"[ 17.01802337   2.60603533   0.50120692 -23.7760769   -0.97270931
  23.56197605]",[0.         0.         0.         0.94335177 0.         0.        ],['Ti0' 'Aw' 'Ci' 'e11' 'p11' 'Ria'],1160.68831327674,2.055369392311505
chicago_control_wood_schedFalse_job37,86.42648517119675,57.78086129096148,1409.3308073736234,198.93827339130826,223827.3764947324,0.0,0.0,58.018607796645796,0.4350274451091529,"[ 16.12010319   3.2148256    0.43502745 -23.71521599  -0.93404977
  17.23584963]",[0.        0.        0.        0.9395618 0.        0.       ],['Ti0' 'Aw' 'Ci' 'e11' 'p11' 'Ria'],1140.1553342478599,1.7955880014289107
chicago_control_wood_schedFalse_job164,69.75871034607951,49.56886134231966,1408.6863259161303,194.97180203007846,269027.7039109558,0.0,0.0,49.3001259665568,0.515910072055347,"[ 16.44979292   2.9890535    0.51591007 -23.76004307  -0.953901
  20.28392383]",[0.         0.         0.         0.95161323 0.         0.        ],['Ti0' 'Aw' 'Ci' 'e11' 'p11' 'Ria'],1146.02311821282,2.230648121393699
chicago_control_wood_schedFalse_job168,64.33800731843667,46.719786801728894,1408.4648313136333,194.1256729951369,282678.8441375868,0.0,0.0,46.974167562060096,0.54670468044406,"[ 16.7001324    2.94057044   0.54670468 -23.79917208  -0.9824282
  21.28829635]",[0.         0.         0.         0.89569866 0.         0.        ],['Ti0' 'Aw' 'Ci' 'e11' 'p11' 'Ria'],1185.71784805358,2.3560327271688024
chicago_control_wood_schedFalse_job55,67.1637483385954,48.235039293687706,1408.8695335493985,194.81619320007712,253763.5068053687,0.0,0.0,47.809646720882995,0.485453031188712,"[ 16.77006964   2.82942558   0.48545303 -23.77043858  -0.96818435
  20.91628089]",[0.         0.         0.         0.51991131 0.         0.        ],['Ti0' 'Aw' 'Ci' 'e11' 'p11' 'Ria'],1153.90476569453,1.9235221458621083
chicago_control_wood_schedFalse_job62,52.655688091531324,40.08267546524734,1408.0929387755384,190.58678762157828,303714.40385436954,0.0,0.0,38.1876032255055,0.5627664032740071,"[ 17.57768533   2.51656485   0.5627664  -23.86154526  -1.0208715
  26.18650859]",[0.         0.         0.         0.55535433 0.         0.        ],['Ti0' 'Aw' 'Ci' 'e11' 'p11' 'Ria'],1231.03311784229,2.3141249093517047
chicago_control_wood_schedFalse_job44,65.8321316756482,47.46154001023488,1408.9828829694302,193.4307491227691,259378.34493516764,0.0,0.0,45.19784421866079,0.46125883699155895,"[ 17.00521502   2.64190368   0.46125884 -23.83159701  -1.00499619
  22.12494904]",[0.         0.         0.         0.95179346 0.         0.        ],['Ti0' 'Aw' 'Ci' 'e11' 'p11' 'Ria'],1219.06881577672,1.9097677277478127
chicago_control_wood_schedFalse_job195,63.74183632373186,46.328642666058215,1408.8076666886334,192.79652794415424,286513.3533145952,0.0,0.0,43.862064081043606,0.49836683070326204,"[ 17.12007588   2.65943545   0.49836683 -23.85103864  -1.01515706
  22.79874468]",[0.         0.         0.         0.82116826 0.         0.        ],['Ti0' 'Aw' 'Ci' 'e11' 'p11' 'Ria'],1235.0598817172302,1.9543511684109944
chicago_control_wood_schedFalse_job126,55.49419035929297,41.77695429222102,1408.0060685509707,192.0671094491951,264811.93903913966,0.0,0.0,40.6907359645778,0.55308265430118,"[ 17.38682731   2.6543708    0.55308265 -23.81478492  -0.99415017
  24.57561841]",[0.         0.         0.         0.82540315 0.         0.        ],['Ti0' 'Aw' 'Ci' 'e11' 'p11' 'Ria'],1192.84092750221,2.412569786966401
chicago_control_wood_schedFalse_job158,57.74552090541341,43.00594281495659,1408.566502555516,191.37663595135558,270416.6431469606,0.0,0.0,41.033301588646296,0.516612087236307,"[ 17.20744809   2.57367218   0.51661209 -23.86517244  -1.01014068
  24.3704494 ]",[0.         0.         0.         0.96408982 0.         0.        ],['Ti0' 'Aw' 'Ci' 'e11' 'p11' 'Ria'],1226.5997155868902,2.1105248970423034
chicago_control_wood_schedFalse_job160,80.65219523815811,55.138624893117985,1408.6734314795574,198.91390270756602,241365.23623691802,0.0,0.0,56.22148279192571,0.489673320165404,"[ 16.27407636   3.29553613   0.48967332 -23.75361733  -0.95806838
  17.7867952 ]",[0.         0.         0.         0.64319792 0.         0.        ],['Ti0' 'Aw' 'Ci' 'e11' 'p11' 'Ria'],1186.9622668105699,2.108545251853691
chicago_control_wood_schedFalse_job91,57.50048179500153,42.93981645924893,1408.0700272325062,192.78750206747026,280825.50590645603,0.0,0.0,42.371699535493605,0.5583920050731801,"[ 17.26502699   2.73466286   0.55839201 -23.81733296  -0.99495577
  23.60065825]",[0.         0.         0.         0.92697953 0.         0.        ],['Ti0' 'Aw' 'Ci' 'e11' 'p11' 'Ria'],1193.6024280364,2.402330859031892
chicago_control_wood_schedFalse_job116,62.6192858426193,45.76321147541881,1408.6020782117694,193.34249883262657,275208.4415765128,0.0,0.0,45.6436679602633,0.547839353400525,"[ 16.76329673   2.84423302   0.54783935 -23.79144274  -0.97917625
  21.90884398]",[0.         0.         0.         0.88002076 0.         0.        ],['Ti0' 'Aw' 'Ci' 'e11' 'p11' 'Ria'],1167.61174561144,2.359813197704092
chicago_control_wood_schedFalse_job85,54.72261258079405,41.29754317118681,1408.2345493952819,191.1890444814606,281437.7303908725,0.0,0.0,39.7616662904161,0.552130853187231,"[ 17.35052106   2.57846475   0.55213085 -23.83632195  -1.00565089
  25.14985143]",[0.         0.         0.         0.95946933 0.         0.        ],['Ti0' 'Aw' 'Ci' 'e11' 'p11' 'Ria'],1206.86595918156,2.2787886866641003
chicago_control_wood_schedFalse_job162,84.74808899612654,56.95626973322298,1409.6900459944864,198.08735968566242,240386.57136650803,0.0,0.0,56.908577269960496,0.41680752308771507,"[ 16.21602281   3.13653841   0.41680752 -23.78283911  -0.97328313
  17.57204358]",[0.         0.         0.         0.94610404 0.         0.        ],['Ti0' 'Aw' 'Ci' 'e11' 'p11' 'Ria'],1230.2082093082902,1.680347454497607
chicago_control_wood_schedFalse_job133,66.61021890232826,47.921768824674125,1408.6150141315984,194.374242797274,272684.9681967693,0.0,0.0,46.599548053635,0.493675206392089,"[ 16.91509699   2.8108164    0.49367521 -23.82259883  -0.99701499
  21.45943559]",[0.         0.         0.         0.07910715 0.         0.        ],['Ti0' 'Aw' 'Ci' 'e11' 'p11' 'Ria'],1217.8569812397802,2.0341654127246116
chicago_control_wood_schedFalse_job70,54.84799385786098,41.36994032758708,1407.9956822013003,191.2154331123101,275431.6148716593,0.0,0.0,39.6724705423268,0.5810837418849089,"[ 17.45035574   2.67501386   0.58108374 -23.86886333  -1.01862835
  25.20639593]",[0.         0.         0.         0.94849602 0.         0.        ],['Ti0' 'Aw' 'Ci' 'e11' 'p11' 'Ria'],1242.76896179958,2.2450862408595
chicago_control_wood_schedFalse_job13,53.27126397514686,40.47496650019012,1408.039519349386,191.40311221732793,209783.8404398638,0.0,0.0,40.014086369950704,0.572975184022519,"[ 17.26577018   2.64920277   0.57297518 -23.78996848  -0.97616081
  24.99119912]",[0.        0.        0.        0.6188896 0.        0.       ],['Ti0' 'Aw' 'Ci' 'e11' 'p11' 'Ria'],1151.58782752673,2.5487242370122942
chicago_control_wood_schedFalse_job200,73.36130264834961,51.44489929619529,1409.137318341529,196.17635419447532,295084.10934783646,0.0,0.0,50.9309186638211,0.43777907433983704,"[ 16.56334724   2.94003618   0.43777907 -23.81437831  -0.98507076
  19.63443869]",[0.         0.         0.         0.73953392 0.         0.        ],['Ti0' 'Aw' 'Ci' 'e11' 'p11' 'Ria'],1228.9661267394802,1.7498020221476978
chicago_control_wood_schedFalse_job82,63.1636283581123,46.11591075877426,1408.2146614545193,194.45890173480626,259966.13033519237,0.0,0.0,46.603946102849505,0.5743854014612672,"[ 16.82865647   2.97016634   0.5743854  -23.79207134  -0.98195837
  21.45741045]",[0.         0.         0.         0.95004853 0.         0.        ],['Ti0' 'Aw' 'Ci' 'e11' 'p11' 'Ria'],1176.24288321896,2.4936459386412864
chicago_control_wood_schedFalse_job92,67.23991528312587,48.34338256936845,1408.1338911339649,195.96024226867314,222151.9451075325,0.0,0.0,49.754402042190705,0.5620920772865071,"[ 16.5796456    3.14994133   0.56209208 -23.40365101  -0.96338369
  20.09872411]",[0.         0.         0.         0.83479353 0.         0.        ],['Ti0' 'Aw' 'Ci' 'e11' 'p11' 'Ria'],1166.6552969672698,2.4535539257115957
chicago_control_wood_schedFalse_job188,84.7023552427959,57.0459435630258,1409.3359337229545,199.43643187718152,263062.90105452854,0.0,0.0,57.0639111157545,0.44779067656111005,"[ 16.27520109   3.24542525   0.44779068 -23.76567856  -0.96342724
  17.52421067]",[0.         0.         0.         0.65198211 0.         0.        ],['Ti0' 'Aw' 'Ci' 'e11' 'p11' 'Ria'],1210.84622583408,2.0453283969428995
chicago_control_wood_schedFalse_job125,66.61820314989642,47.8997719194035,1409.0202689624384,193.93747920169258,303352.8824678015,0.0,0.0,46.2698947459047,0.47527969726443,"[ 16.95139631   2.7428781    0.4752797  -23.85775439  -1.01366459
  21.61232494]",[0.         0.         0.         0.50217807 0.         0.        ],['Ti0' 'Aw' 'Ci' 'e11' 'p11' 'Ria'],1244.85355070344,1.8647784995222025
chicago_control_wood_schedFalse_job24,63.821986131222125,46.43891949687129,1408.4970725527207,193.98251422074645,254154.0739605687,0.0,0.0,45.262408065236905,0.5104927471925139,"[ 16.94830957   2.79978377   0.51049275 -23.82176359  -0.98259535
  22.09338925]",[0.         0.         0.         0.33867693 0.         0.        ],['Ti0' 'Aw' 'Ci' 'e11' 'p11' 'Ria'],1189.656870755,2.169914736872798
chicago_control_wood_schedFalse_job79,82.22221108032981,55.854534429905975,1409.2890747291256,198.7317761556686,229575.92105907065,0.0,0.0,56.7651998506718,0.447034493161615,"[ 16.17982683   3.19965592   0.44703449 -23.72205105  -0.94319531
  17.61642701]",[0.         0.         0.         0.94692188 0.         0.        ],['Ti0' 'Aw' 'Ci' 'e11' 'p11' 'Ria'],1155.0854068900999,1.9248283517580944
chicago_control_wood_schedFalse_job169,58.83214894294998,43.643243564343734,1408.3813521942045,192.10414329807347,289173.52769668266,0.0,0.0,41.5210115406715,0.5208152228999939,"[ 17.35467118   2.60595345   0.52081522 -23.87518767  -1.02516432
  24.08419166]",[0.        0.        0.        0.9622655 0.        0.       ],['Ti0' 'Aw' 'Ci' 'e11' 'p11' 'Ria'],1251.11094340501,2.118663586512298
chicago_control_wood_schedFalse_job108,71.77153808707865,50.59207780302016,1409.2040261802772,195.18973269849346,258712.23940671288,0.0,0.0,48.8611957315085,0.43116397366219106,"[ 16.7068855    2.80802013   0.43116397 -23.82673586  -0.99203186
  20.46613852]",[0.         0.         0.         0.61314792 0.         0.        ],['Ti0' 'Aw' 'Ci' 'e11' 'p11' 'Ria'],1229.7399089627302,1.7553373062458988
chicago_control_wood_schedFalse_job197,60.254122280919,44.46407156040831,1408.3921519715905,192.91374623686508,255757.26672086318,0.0,0.0,42.8336107812818,0.5387579054899589,"[ 17.23719009   2.74473767   0.53875791 -23.84541956  -1.00744735
  23.34615228]",[0.         0.         0.         0.09239415 0.         0.        ],['Ti0' 'Aw' 'Ci' 'e11' 'p11' 'Ria'],1228.53131967536,2.2646316356045944
chicago_control_wood_schedFalse_job155,73.22386057461391,51.58800973908754,1408.0894109428714,199.30575661511799,243949.4975337509,0.0,0.0,56.162120468785496,0.584614151312714,"[ 15.95321089   3.54328177   0.58461415 -23.65371189  -0.90208573
  17.80559551]",[0.         0.         0.         0.89013616 0.         0.        ],['Ti0' 'Aw' 'Ci' 'e11' 'p11' 'Ria'],1070.9352190227698,2.923017297903108
chicago_control_wood_schedFalse_job146,56.71533697711372,42.406967619289865,1408.308997246848,190.87451299191608,315088.54788432526,0.0,0.0,39.4051797121008,0.534747504636284,"[ 17.50686254   2.53004457   0.5347475  -23.87819741  -1.02791724
  25.37737443]",[0.        0.        0.        0.7804048 0.        0.       ],['Ti0' 'Aw' 'Ci' 'e11' 'p11' 'Ria'],1252.26856775596,2.1695437017245
chicago_control_wood_schedFalse_job113,66.86698167664183,48.0350053509037,1408.7030588154973,194.05364680906482,281686.3709758578,0.0,0.0,46.5190629330022,0.514889754752729,"[ 16.88185894   2.85091905   0.51488975 -23.81935227  -0.99689628
  21.49656371]",[0.         0.         0.         0.93971632 0.         0.        ],['Ti0' 'Aw' 'Ci' 'e11' 'p11' 'Ria'],1215.65234964388,2.1631914419963962
chicago_control_wood_schedFalse_job161,81.05092081738569,55.268687045822645,1409.624095028607,198.1730000542633,251686.92089828505,0.0,0.0,55.4885285650565,0.4281225027425,"[ 16.35516836   3.11014898   0.4281225  -23.78124542  -0.97598637
  18.02174298]",[0.         0.         0.         0.36470603 0.         0.        ],['Ti0' 'Aw' 'Ci' 'e11' 'p11' 'Ria'],1223.4602877411,1.749351366074798
chicago_control_wood_schedFalse_job42,61.71419864007565,45.266793128054424,1408.6211447704693,193.1393661080752,255712.09712897032,0.0,0.0,44.9763255210157,0.538757557731567,"[ 16.8036112    2.78928394   0.53875756 -23.77602837  -0.9722729
  22.23391948]",[0.        0.        0.        0.8240042 0.        0.       ],['Ti0' 'Aw' 'Ci' 'e11' 'p11' 'Ria'],1153.6249160503,2.3443234705163007
chicago_control_wood_schedFalse_job3,80.5409119464164,55.08908781873492,1408.604052481032,198.94786592779198,223173.11725342195,0.0,0.0,56.99938096182299,0.495250845054776,"[ 16.01133127   3.32661498   0.49525085 -23.64685164  -0.89472685
  17.54405018]",[0.         0.         0.         0.15879987 0.         0.        ],['Ti0' 'Aw' 'Ci' 'e11' 'p11' 'Ria'],1057.73135516651,2.1877803520275023
chicago_control_wood_schedFalse_job14,60.323659094396945,44.50200795260816,1408.4739929932578,192.91373191188305,263561.57295470557,0.0,0.0,44.289247118280706,0.55411609168138,"[ 16.89878453   2.79061625   0.55411609 -23.80254734  -0.98554538
  22.57884396]",[0.         0.         0.         0.95782996 0.         0.        ],['Ti0' 'Aw' 'Ci' 'e11' 'p11' 'Ria'],1173.27869320612,2.3737174663289906
chicago_control_wood_schedFalse_job102,60.331442727541635,44.53938514975581,1408.3443682103814,193.54039274824692,280662.0477309779,0.0,0.0,44.18141924080621,0.541265997689337,"[ 17.0880103    2.78493714   0.541266   -23.81498715  -0.99208008
  22.63394923]",[0.         0.         0.         0.93029124 0.         0.        ],['Ti0' 'Aw' 'Ci' 'e11' 'p11' 'Ria'],1192.5212413359,2.3327270116217917
chicago_control_wood_schedFalse_job187,86.1386509300404,57.671588528586256,1409.4209857454027,199.16911016558362,211852.2616234669,0.0,0.0,58.698363801347895,0.43032368098724394,"[ 16.03410185   3.25236741   0.43032368 -23.6983679   -0.92882748
  17.03624999]",[0.         0.         0.         0.76571094 0.         0.        ],['Ti0' 'Aw' 'Ci' 'e11' 'p11' 'Ria'],1136.90447935763,1.7394724598796074
chicago_control_wood_schedFalse_job68,53.98308653363056,40.867875396810945,1408.0968535936527,191.03664334052883,263037.71737628884,0.0,0.0,39.202315385899,0.5588754993203139,"[ 17.51328773   2.57827619   0.5588755  -23.86224063  -1.01616606
  25.50869739]",[0.         0.         0.         0.95529266 0.         0.        ],['Ti0' 'Aw' 'Ci' 'e11' 'p11' 'Ria'],1228.15947887172,2.3597992113678004
chicago_control_wood_schedFalse_job12,57.93666856214458,43.1806398367987,1408.1722495445003,192.7465550817268,249144.51466792164,0.0,0.0,43.4569935364331,0.5729574831065151,"[ 16.87324237   2.84354248   0.57295748 -23.77225651  -0.96833786
  23.01125593]",[0.         0.         0.         0.87634359 0.         0.        ],['Ti0' 'Aw' 'Ci' 'e11' 'p11' 'Ria'],1154.51538412687,2.5864051229519944
chicago_control_wood_schedFalse_job86,62.22949688883725,45.562698775854855,1408.5574805981546,193.48789185741305,263142.02392636193,0.0,0.0,45.6752787552181,0.541277115166285,"[ 16.66121719   2.86141997   0.54127712 -23.7604459   -0.95708411
  21.89368138]",[0.         0.         0.         0.44185657 0.         0.        ],['Ti0' 'Aw' 'Ci' 'e11' 'p11' 'Ria'],1138.85651802705,2.3545814720739955
chicago_control_wood_schedFalse_job129,84.84580193525099,56.996264963259065,1410.0690131231631,198.03010695156732,262153.3931260001,0.0,0.0,56.4563761677608,0.36980832753638593,"[ 16.27803854   3.01051328   0.36980833 -23.74719787  -0.9558283
  17.71279115]",[0.         0.         0.         0.91366956 0.         0.        ],['Ti0' 'Aw' 'Ci' 'e11' 'p11' 'Ria'],1190.4857808604902,1.5388306476348959
chicago_control_wood_schedFalse_job47,57.20513003302461,42.76328170672567,1408.1481887652794,192.55039983984207,260909.55284685094,0.0,0.0,42.762431536052,0.565547980272631,"[ 16.94677189   2.80795965   0.56554798 -23.77656109  -0.96656693
  23.38501259]",[0.         0.         0.         0.61851158 0.         0.        ],['Ti0' 'Aw' 'Ci' 'e11' 'p11' 'Ria'],1152.74829327233,2.524041073905508
chicago_control_wood_schedFalse_job122,69.60429607119251,49.36691236816046,1409.2500737303951,193.0518323406908,290581.3848519407,0.0,0.0,45.746663900045796,0.440096129172963,"[ 16.96064533   2.60954619   0.44009613 -23.84230046  -1.00852338
  21.8595175 ]",[0.         0.         0.         0.21239769 0.         0.        ],['Ti0' 'Aw' 'Ci' 'e11' 'p11' 'Ria'],1228.68383815619,1.7324277742553065
chicago_control_wood_schedFalse_job130,63.873021118284676,46.37172954928547,1409.034937729627,192.34116079972625,267738.659287173,0.0,0.0,43.7922082677068,0.469042193254961,"[ 17.00114516   2.59743563   0.46904219 -23.86229044  -1.00902956
  22.83511244]",[0.         0.         0.         0.28983959 0.         0.        ],['Ti0' 'Aw' 'Ci' 'e11' 'p11' 'Ria'],1231.3349156185302,1.8794543642866017
chicago_control_wood_schedFalse_job118,71.29432556885978,50.38986574106476,1409.0059230503657,195.72618948413933,277291.6085829232,0.0,0.0,49.893585210989706,0.453321756742864,"[ 16.60226869   2.89437218   0.45332176 -23.77257147  -0.97528769
  20.0426567 ]",[0.         0.         0.         0.60724572 0.         0.        ],['Ti0' 'Aw' 'Ci' 'e11' 'p11' 'Ria'],1193.93371457744,1.7731591984906956
chicago_control_wood_schedFalse_job34,73.15877769998612,51.267193586063044,1409.5298689875574,195.0346102589408,263645.3736070549,0.0,0.0,49.6960774336205,0.43119686980800703,"[ 16.67787097   2.80498754   0.43119687 -23.81340775  -0.99815415
  20.1223125 ]",[0.         0.         0.         0.96769772 0.         0.        ],['Ti0' 'Aw' 'Ci' 'e11' 'p11' 'Ria'],1230.50832729357,1.7141768044718901
chicago_control_wood_schedFalse_job134,64.77426231530721,46.96959989260515,1408.5851120037726,194.46915299172184,257623.14165358653,0.0,0.0,46.961825177954594,0.50133666180466,"[ 16.69803369   2.83176917   0.50133666 -23.75755048  -0.95455863
  21.29389129]",[0.         0.         0.         0.78894609 0.         0.        ],['Ti0' 'Aw' 'Ci' 'e11' 'p11' 'Ria'],1133.2086748605802,2.213485710704809
chicago_control_wood_schedFalse_job72,54.919489300226076,41.438213486611915,1407.988407323699,191.8057120815599,250688.04294357554,0.0,0.0,41.276460855519296,0.5904858944476171,"[ 16.99484884   2.77443032   0.59048589 -23.76162075  -0.95269166
  24.2268833 ]",[0.         0.         0.         0.55279974 0.         0.        ],['Ti0' 'Aw' 'Ci' 'e11' 'p11' 'Ria'],1125.05754241352,2.5854776595096
chicago_control_wood_schedFalse_job181,56.42813370396736,42.305657018779115,1408.1994298850839,192.0964743001753,236210.3402426339,0.0,0.0,41.8452847041935,0.556401946506992,"[ 17.00772569   2.72913033   0.55640195 -23.76407895  -0.96493767
  23.89755517]",[0.         0.         0.         0.68321368 0.         0.        ],['Ti0' 'Aw' 'Ci' 'e11' 'p11' 'Ria'],1146.5742844414801,2.396886598084393
chicago_control_wood_schedFalse_job110,59.2866040630704,43.97882155631355,1408.1245669811487,193.76705263931575,221567.72084114203,0.0,0.0,44.6805635471065,0.5596514600823261,"[ 16.89322053   2.85930402   0.55965146 -23.76794538  -0.96198021
  22.3810964 ]",[0.        0.        0.        0.7378551 0.        0.       ],['Ti0' 'Aw' 'Ci' 'e11' 'p11' 'Ria'],1139.2600932267999,2.5311774692301015
chicago_control_wood_schedFalse_job76,67.60934712800837,48.460813290203866,1408.2473676358873,194.7695555007634,266136.5622788975,0.0,0.0,48.7574026382392,0.562177435381766,"[ 16.58112163   3.06207772   0.56217744 -23.77254545  -0.972665
  20.50970613]",[0.         0.         0.         0.18846326 0.         0.        ],['Ti0' 'Aw' 'Ci' 'e11' 'p11' 'Ria'],1175.4877449769301,2.4727974671004063
chicago_control_wood_schedFalse_job107,64.62152320489986,46.761805702124526,1408.8837102700365,192.2902426081241,281416.9676840737,0.0,0.0,43.4413617220049,0.48861190913064206,"[ 17.22098472   2.6016028    0.48861191 -23.86993632  -1.02600677
  23.01953623]",[0.         0.         0.         0.56606347 0.         0.        ],['Ti0' 'Aw' 'Ci' 'e11' 'p11' 'Ria'],1251.4975697666698,1.963629958397803
chicago_control_wood_schedFalse_job66,87.58312769312239,58.64955612237336,1408.3103708853346,203.14334117765816,194079.73083301296,0.0,0.0,63.4906562113052,0.5254388649273479,"[ 15.61600159   3.69671553   0.52543886 -23.53533295  -0.83798307
  15.7503491 ]",[0.         0.         0.         0.46159036 0.         0.        ],['Ti0' 'Aw' 'Ci' 'e11' 'p11' 'Ria'],964.715169557557,2.570243459690012
chicago_control_wood_schedFalse_job185,59.0626276466218,43.72110401410039,1408.5312621311004,191.1640248283958,283535.53830915625,0.0,0.0,40.4668867832283,0.510873349699872,"[ 17.36754519   2.5138868    0.51087335 -23.87467645  -1.02580827
  24.71156245]",[0.         0.         0.         0.71769773 0.         0.        ],['Ti0' 'Aw' 'Ci' 'e11' 'p11' 'Ria'],1250.34984116514,2.032538946168202
chicago_control_wood_schedFalse_job69,60.719857346456166,44.731931582498326,1408.4106209326417,193.18826293309633,267876.8497195413,0.0,0.0,44.1413413082624,0.5543366798325999,"[ 17.03778974   2.82435167   0.55433668 -23.84655283  -1.00653249
  22.65449962]",[0.         0.         0.         0.84837633 0.         0.        ],['Ti0' 'Aw' 'Ci' 'e11' 'p11' 'Ria'],1225.8691370995698,2.395911023640103
chicago_control_wood_schedFalse_job198,62.26019936426223,45.63351050476771,1408.0817363528106,194.48029283125774,249094.6642444252,0.0,0.0,46.462065680429895,0.5869657411563629,"[ 16.84753484   2.99557508   0.58696574 -23.78621545  -0.97987135
  21.52293458]",[0.         0.         0.         0.94406979 0.         0.        ],['Ti0' 'Aw' 'Ci' 'e11' 'p11' 'Ria'],1174.10094963868,2.6362493914632097
chicago_control_wood_schedFalse_job183,77.36326599609977,53.372068313182524,1409.7198208053169,196.03999318682446,269852.692080902,0.0,0.0,51.7997082479815,0.38470650453452104,"[ 16.55069018   2.82771693   0.3847065  -23.78677517  -0.97135634
  19.30512804]",[0.         0.         0.         0.43733341 0.         0.        ],['Ti0' 'Aw' 'Ci' 'e11' 'p11' 'Ria'],1199.11485011916,1.5355246435522005
chicago_control_wood_schedFalse_job63,55.948324762980405,42.02686228763677,1408.121470743463,191.92003842940258,289860.3378293205,0.0,0.0,40.417977241900395,0.552028980073587,"[ 17.52568142   2.62118752   0.55202898 -23.85243611  -1.01634126
  24.74146576]",[0.         0.         0.         0.73051814 0.         0.        ],['Ti0' 'Aw' 'Ci' 'e11' 'p11' 'Ria'],1229.43680845571,2.3738212807630035
chicago_control_wood_schedFalse_job35,69.12591962757139,49.218881422631725,1408.9264336354684,194.50363284153283,250932.86603036924,0.0,0.0,47.17061170379661,0.46485423610348003,"[ 16.86704165   2.77484557   0.46485424 -23.79748212  -0.98496532
  21.19964028]",[0.         0.         0.         0.53639917 0.         0.        ],['Ti0' 'Aw' 'Ci' 'e11' 'p11' 'Ria'],1195.0220106719198,1.9380082487251897
chicago_control_wood_schedFalse_job87,87.51878131039697,58.52175151432343,1408.588608905685,201.95434568425875,196123.91724658586,0.0,0.0,61.9608779102252,0.49632291370515397,"[ 15.72070534   3.55307276   0.49632291 -23.54958448  -0.84778739
  16.13921613]",[0.         0.         0.         0.92802045 0.         0.        ],['Ti0' 'Aw' 'Ci' 'e11' 'p11' 'Ria'],981.528903273848,2.3063090695886004
chicago_control_wood_schedFalse_job38,52.44683933968753,39.982541592474355,1407.9970917323749,191.06716603732303,248810.82265651727,0.0,0.0,39.016642789113,0.567916331887477,"[ 17.3495642    2.60189614   0.56791633 -23.80634179  -0.98110113
  25.6300883 ]",[0.         0.         0.         0.69927196 0.         0.        ],['Ti0' 'Aw' 'Ci' 'e11' 'p11' 'Ria'],1168.77363432409,2.5415406180302966
chicago_control_wood_schedFalse_job89,76.66007547293219,53.0400248016197,1409.6797138856748,196.08974384802784,237288.75168790855,0.0,0.0,52.6767232889394,0.42975589943237297,"[ 16.29121415   2.97328733   0.4297559  -23.75305115  -0.95323208
  18.98371686]",[0.         0.         0.         0.72268622 0.         0.        ],['Ti0' 'Aw' 'Ci' 'e11' 'p11' 'Ria'],1169.03259062694,1.7897364019332045
chicago_control_wood_schedFalse_job142,60.329225427972716,44.600453839638874,1407.846267629328,194.7314449837368,277827.2500299064,0.0,0.0,45.5353397919672,0.6006465013379101,"[ 16.98892159   3.01309232   0.6006465  -23.78198961  -0.97784103
  21.96096492]",[0.         0.         0.         0.80564634 0.         0.        ],['Ti0' 'Aw' 'Ci' 'e11' 'p11' 'Ria'],1178.03878156183,2.708937954165201
chicago_control_wood_schedFalse_job145,64.3298672455342,46.70385949275912,1408.7171584920848,193.920137420742,264138.1346247722,0.0,0.0,46.827109633787295,0.530713563966837,"[ 16.65264359   2.88014273   0.53071356 -23.77423275  -0.96841471
  21.35515106]",[0.         0.         0.         0.90354788 0.         0.        ],['Ti0' 'Aw' 'Ci' 'e11' 'p11' 'Ria'],1154.81859118184,2.3262863818332065
chicago_control_wood_schedFalse_job194,55.20979182666281,41.58827578997226,1408.0738596986566,191.4858060642976,278824.52688325173,0.0,0.0,40.501268440159706,0.575703444135894,"[ 17.33668956   2.71138225   0.57570344 -23.8682725   -1.01365374
  24.69058473]",[0.         0.         0.         0.94784926 0.         0.        ],['Ti0' 'Aw' 'Ci' 'e11' 'p11' 'Ria'],1239.6266276363,2.4481779087429985
chicago_control_wood_schedFalse_job153,60.80759536334421,44.78895926938471,1408.2432072365189,193.36703487920002,318963.31284209975,0.0,0.0,43.940502617607095,0.5319297394720279,"[ 17.16774231   2.75946328   0.53192974 -23.83840515  -1.00608167
  22.75804646]",[0.         0.         0.         0.59173714 0.         0.        ],['Ti0' 'Aw' 'Ci' 'e11' 'p11' 'Ria'],1224.07726242801,2.1868999811490113
chicago_control_wood_schedFalse_job124,59.47696740612953,44.07217735820236,1408.2599842933087,193.5462092370857,265827.2252686622,0.0,0.0,44.2694848806492,0.562627187760787,"[ 17.02922265   2.85860266   0.56262719 -23.81684682  -0.98496911
  22.58892333]",[0.        0.        0.        0.8336558 0.        0.       ],['Ti0' 'Aw' 'Ci' 'e11' 'p11' 'Ria'],1184.5016341212,2.4312511221726893
chicago_control_wood_schedFalse_job139,61.748100125918924,45.29426982998325,1408.1800717347442,193.31586451875157,275899.7984419513,0.0,0.0,44.8377602793175,0.5675202229063411,"[ 16.88087165   2.90636617   0.56752022 -23.81350739  -0.9860785
  22.3026305 ]",[0.         0.         0.         0.72874663 0.         0.        ],['Ti0' 'Aw' 'Ci' 'e11' 'p11' 'Ria'],1194.4542065513199,2.456974267678703
chicago_control_wood_schedFalse_job191,71.18511174891337,50.41393113742763,1408.1468407684342,196.93752326755697,229882.28586473368,0.0,0.0,52.9094242979745,0.553836795249534,"[ 16.18269976   3.25021957   0.5538368  -23.64488655  -0.90272535
  18.90022455]",[0.         0.         0.         0.95780213 0.         0.        ],['Ti0' 'Aw' 'Ci' 'e11' 'p11' 'Ria'],1057.22189051862,2.831899024719597
chicago_control_wood_schedFalse_job172,70.28179505045956,49.88650162867196,1408.9252433104655,195.79793748190113,258834.3977067438,0.0,0.0,49.652491402334,0.485344995655426,"[ 16.51675017   2.94176138   0.485345   -23.73343697  -0.9431716
  20.1399763 ]",[0.       0.       0.       0.939414 0.       0.      ],['Ti0' 'Aw' 'Ci' 'e11' 'p11' 'Ria'],1124.1810221794199,2.1408145734722055
chicago_control_wood_schedFalse_job115,57.12011100157294,42.75034005212424,1407.8796159981446,193.26024170420743,265781.5523813165,0.0,0.0,43.2874668088896,0.558676186670244,"[ 16.87580386   2.80647981   0.55867619 -23.73497351  -0.94352405
  23.10137492]",[0.         0.         0.         0.23091514 0.         0.        ],['Ti0' 'Aw' 'Ci' 'e11' 'p11' 'Ria'],1111.5980180818901,2.566234476003906
chicago_control_wood_schedFalse_job178,59.307882405223275,43.91255726693301,1408.3100387665586,192.2598750348321,285255.0342986356,0.0,0.0,42.143602453282796,0.5489699822552101,"[ 17.20847742   2.72916684   0.54896998 -23.86513634  -1.01183541
  23.72839391]",[0.         0.         0.         0.32181855 0.         0.        ],['Ti0' 'Aw' 'Ci' 'e11' 'p11' 'Ria'],1241.76376829794,2.2937027836034076
chicago_control_wood_schedFalse_job165,71.05796898840597,50.26690706693289,1408.8697207904809,195.65649224594708,253031.77760267124,0.0,0.0,50.539437503736494,0.503120165606225,"[ 16.45293147   3.05957723   0.50312017 -23.80621529  -0.97900226
  19.78652809]",[0.         0.         0.         0.56592671 0.         0.        ],['Ti0' 'Aw' 'Ci' 'e11' 'p11' 'Ria'],1210.86055726813,2.0065777473423054
chicago_control_wood_schedFalse_job151,55.4163809551489,41.744381253676075,1408.0868775961646,192.310263964386,247819.82810394542,0.0,0.0,41.2834728727191,0.579918106862779,"[ 17.36709583   2.73107272   0.57991811 -23.84163521  -1.00447284
  24.22276835]",[0.         0.         0.         0.94320715 0.         0.        ],['Ti0' 'Aw' 'Ci' 'e11' 'p11' 'Ria'],1207.36685176822,2.557067328310893
chicago_control_wood_schedFalse_job8,58.339555864767725,43.45064637099882,1408.062224630196,193.6711074244448,227767.04951446212,0.0,0.0,44.7800687070959,0.594254613232345,"[ 16.71849801   2.94181632   0.59425461 -23.68849313  -0.92358596
  22.33136368]",[0.         0.         0.         0.04539514 0.         0.        ],['Ti0' 'Aw' 'Ci' 'e11' 'p11' 'Ria'],1065.99494300936,2.972825212926395
chicago_control_wood_schedFalse_job174,83.59949305484669,56.49401365208405,1409.2159418057395,198.82371747074157,235832.5570654521,0.0,0.0,56.8001963390108,0.44456468547777206,"[ 16.21048461   3.21719896   0.44456469 -23.73590073  -0.95109222
  17.60557295]",[0.        0.        0.        0.8824253 0.        0.       ],['Ti0' 'Aw' 'Ci' 'e11' 'p11' 'Ria'],1182.85664897784,1.8577996972248982
chicago_control_wood_schedFalse_job41,69.57756731434961,49.52464429227005,1408.9367907539072,195.7037610111934,236965.38144570257,0.0,0.0,49.82679084449929,0.46901970001784205,"[ 16.46115935   2.90594744   0.4690197  -23.70228719  -0.9329655
  20.06952451]",[0.         0.         0.         0.53751713 0.         0.        ],['Ti0' 'Aw' 'Ci' 'e11' 'p11' 'Ria'],1104.62646854476,2.0852820855677052
chicago_control_wood_schedFalse_job159,90.99384717317879,60.08165574816429,1409.0775053145644,202.24176393658314,207950.90661783563,0.0,0.0,63.5287200099488,0.449714678294835,"[ 15.6848266    3.5400134    0.44971468 -23.5821972   -0.86434095
  15.74091214]",[0.         0.         0.         0.94528135 0.         0.        ],['Ti0' 'Aw' 'Ci' 'e11' 'p11' 'Ria'],1031.11760627206,2.1202216291358127
chicago_control_wood_schedFalse_job67,67.10037296115499,48.15745187278398,1408.8329178672766,194.0856632591148,290747.08164013195,0.0,0.0,46.2933286568314,0.47133496227409294,"[ 17.0197619    2.74601813   0.47133496 -23.85891688  -1.01853205
  21.60138467]",[0.         0.         0.         0.45770116 0.         0.        ],['Ti0' 'Aw' 'Ci' 'e11' 'p11' 'Ria'],1259.1586783526,1.8764611338938977
chicago_control_wood_schedFalse_job140,69.32365742297232,49.31848783556103,1408.9535329229627,194.49443700383145,249115.60559456813,0.0,0.0,48.140279137429104,0.49555018053259997,"[ 16.60194742   2.88148875   0.49555018 -23.77058882  -0.96129369
  20.77262571]",[0.         0.         0.         0.08166035 0.         0.        ],['Ti0' 'Aw' 'Ci' 'e11' 'p11' 'Ria'],1155.50941598792,2.1853499537210013
chicago_control_wood_schedFalse_job149,72.7881761425935,51.02936755635969,1409.6161851555505,194.22564385322218,290750.0595709698,0.0,0.0,48.1400282066557,0.39978428552619705,"[ 16.86289887   2.6703409    0.39978429 -23.85074854  -1.0181049
  20.77273399]",[0.         0.         0.         0.22488378 0.         0.        ],['Ti0' 'Aw' 'Ci' 'e11' 'p11' 'Ria'],1272.39041562024,1.5545589740126005
chicago_control_wood_schedFalse_job123,52.35510082268221,39.909353346270095,1408.061362955144,190.6123115582799,222396.16335011288,0.0,0.0,38.3636750392674,0.5618143900393149,"[ 17.42014731   2.52982706   0.56181439 -23.80743287  -0.99455973
  26.06632443]",[0.         0.         0.         0.94495672 0.         0.        ],['Ti0' 'Aw' 'Ci' 'e11' 'p11' 'Ria'],1183.62927301112,2.391167162752602
chicago_control_wood_schedFalse_job58,55.91224031481927,41.99555548859203,1408.0127962150168,191.69384999517447,294835.4499517197,0.0,0.0,39.8590709559455,0.5642780280484959,"[ 17.67208821   2.60269467   0.56427803 -23.90279931  -1.04026606
  25.08839208]",[0.       0.       0.       0.914071 0.       0.      ],['Ti0' 'Aw' 'Ci' 'e11' 'p11' 'Ria'],1267.95646988571,2.3130792059656002
chicago_control_wood_schedFalse_job30,67.765332605015,48.65494895263914,1408.45778596865,196.61471028021796,258806.77428674948,0.0,0.0,50.692992123136605,0.5543379976059389,"[ 16.3342421    3.1745426    0.554338   -23.70954221  -0.92936703
  19.72659254]",[0.         0.         0.         0.85133959 0.         0.        ],['Ti0' 'Aw' 'Ci' 'e11' 'p11' 'Ria'],1101.27740783162,2.8092398242038925
chicago_control_wood_schedFalse_job61,57.021676208281136,42.60681559165805,1408.3991103924634,191.45326504230096,301865.82823340176,0.0,0.0,40.673138406171205,0.527234060708764,"[ 17.29769935   2.58116757   0.52723406 -23.85430541  -1.00842302
  24.58625125]",[0.        0.        0.        0.5489191 0.        0.       ],['Ti0' 'Aw' 'Ci' 'e11' 'p11' 'Ria'],1221.56298452271,2.1313651408833962
chicago_control_wood_schedFalse_job173,62.59798232055181,45.747215769754355,1408.586337992961,193.26037770761238,279298.0198086922,0.0,0.0,44.6013847178736,0.5286641515250949,"[ 16.9716637    2.76158403   0.52866415 -23.8350019   -0.9980405
  22.42082855]",[0.        0.        0.        0.9497505 0.        0.       ],['Ti0' 'Aw' 'Ci' 'e11' 'p11' 'Ria'],1200.33615149998,2.2083229706506913
chicago_control_wood_schedFalse_job106,81.36383240573565,55.468524519324696,1409.1686890172793,198.8810605188543,234904.40861275292,0.0,0.0,56.6511084525419,0.45057196271048605,"[ 16.1754466    3.23213236   0.45057196 -23.71282753  -0.93883229
  17.65190527]",[0.         0.         0.         0.91811994 0.         0.        ],['Ti0' 'Aw' 'Ci' 'e11' 'p11' 'Ria'],1158.14791663916,1.910742758519305
chicago_control_wood_schedFalse_job54,54.012135986242285,40.890895513131106,1408.2252907761347,191.1735058120403,264498.5811150835,0.0,0.0,39.741856825861504,0.5534125475956421,"[ 17.26359222   2.58821235   0.55341255 -23.79951909  -0.98113461
  25.16238746]",[0.         0.         0.         0.92974639 0.         0.        ],['Ti0' 'Aw' 'Ci' 'e11' 'p11' 'Ria'],1167.9311231438198,2.4621236285578973
chicago_control_wood_schedFalse_job193,72.97616811428506,51.26549010832967,1408.7473832014246,196.33461973961784,216469.45659902907,0.0,0.0,52.140812613377506,0.509157357570372,"[ 16.22596046   3.10046952   0.50915736 -23.65004987  -0.91031946
  19.1788342 ]",[0.         0.         0.         0.91864946 0.         0.        ],['Ti0' 'Aw' 'Ci' 'e11' 'p11' 'Ria'],1066.86658003214,2.3280667394128898
chicago_control_wood_schedFalse_job167,74.44454583712344,51.94494972313244,1409.1682858679276,195.74475718079296,225861.60697909354,0.0,0.0,51.2459527470926,0.47588599232030804,"[ 16.36411082   2.98386039   0.47588599 -23.74660604  -0.95384708
  19.51373614]",[0.        0.        0.        0.7097691 0.        0.       ],['Ti0' 'Aw' 'Ci' 'e11' 'p11' 'Ria'],1151.1938412892,1.9933834600961973
chicago_control_wood_schedFalse_job152,68.66437371604083,49.05487316755127,1408.9441711214815,195.61853251049752,240093.3334324857,0.0,0.0,49.7626247095435,0.509192772456459,"[ 16.50609639   2.9999159    0.50919277 -23.76604858  -0.96127658
  20.09540304]",[0.         0.         0.         0.94680198 0.         0.        ],['Ti0' 'Aw' 'Ci' 'e11' 'p11' 'Ria'],1153.1935339895301,2.2429547124402944
chicago_control_wood_schedFalse_job96,64.55197923938913,46.87365249942147,1408.2857744578796,194.83789879663811,259244.68469623796,0.0,0.0,48.29405774137749,0.558076259804634,"[ 16.49675972   3.03954872   0.55807626 -23.73406346  -0.94496891
  20.70648123]",[0.         0.         0.         0.22791069 0.         0.        ],['Ti0' 'Aw' 'Ci' 'e11' 'p11' 'Ria'],1120.02454992593,2.4632090185128988
chicago_control_wood_schedFalse_job6,64.83452524061848,46.95751475182722,1408.8368167787826,193.71737515783292,254519.56944623176,0.0,0.0,46.22868244192221,0.5144374187223011,"[ 16.77375      2.81714446   0.51443742 -23.7917602   -0.98385622
  21.63159206]",[0.         0.         0.         0.38083758 0.         0.        ],['Ti0' 'Aw' 'Ci' 'e11' 'p11' 'Ria'],1184.55992391895,2.126332084160687
chicago_control_wood_schedFalse_job143,55.61675348169826,41.807867892347915,1408.3119428529099,191.2528908052913,245279.28800127603,0.0,0.0,40.0785485110264,0.5323190281939371,"[ 17.25916871   2.5679316    0.53231903 -23.8220733   -0.99330966
  24.9510034 ]",[0.         0.         0.         0.95025669 0.         0.        ],['Ti0' 'Aw' 'Ci' 'e11' 'p11' 'Ria'],1194.53287258738,2.278854344940605
chicago_control_wood_schedFalse_job112,70.7626166017851,50.0278910321629,1409.3238489173154,194.26777438943463,294426.1794196398,0.0,0.0,47.555437657178004,0.42121597702258295,"[ 16.9363415    2.68675771   0.42121598 -23.85561416  -1.01989898
  21.02808952]",[0.         0.         0.         0.88236385 0.         0.        ],['Ti0' 'Aw' 'Ci' 'e11' 'p11' 'Ria'],1267.2235744047198,1.5995239782359931
chicago_control_wood_schedFalse_job57,63.66580767096748,46.3510718629792,1408.760194526049,193.88818341772145,236353.04983408528,0.0,0.0,45.9911014855526,0.508506975939927,"[ 16.77652171   2.79093246   0.50850698 -23.7673262   -0.96713668
  21.7433366 ]",[0.         0.         0.         0.44261243 0.         0.        ],['Ti0' 'Aw' 'Ci' 'e11' 'p11' 'Ria'],1152.07637359773,2.104852427337903
chicago_control_wood_schedFalse_job163,86.46469387242539,57.898652237773085,1409.0188560305576,200.1428509569896,237159.5810688004,0.0,0.0,58.6078886181473,0.46280080955043,"[ 16.17607306   3.33693351   0.46280081 -23.7308919   -0.94968978
  17.06254949]",[0.         0.         0.         0.89001449 0.         0.        ],['Ti0' 'Aw' 'Ci' 'e11' 'p11' 'Ria'],1180.67812463419,1.9719583178861981
chicago_control_wood_schedFalse_job120,76.16520123170419,52.8027400177605,1409.5489074564548,196.09347036639755,242249.83959595807,0.0,0.0,52.62673354654329,0.441449537319699,"[ 16.28854237   3.0048008    0.44144954 -23.74270131  -0.95144449
  19.00174935]",[0.         0.         0.         0.93083916 0.         0.        ],['Ti0' 'Aw' 'Ci' 'e11' 'p11' 'Ria'],1167.23816140058,1.8199285410471049
chicago_control_wood_schedFalse_job199,59.9946569574495,44.30199264905703,1408.4054508374286,192.52338073941416,281717.4728104697,0.0,0.0,42.7261788011434,0.541522458899088,"[ 17.17534475   2.71782925   0.54152246 -23.84175521  -1.0019972
  23.40485454]",[0.         0.         0.         0.59782526 0.         0.        ],['Ti0' 'Aw' 'Ci' 'e11' 'p11' 'Ria'],1214.63244646237,2.3052516184368983
chicago_control_wood_schedFalse_job74,55.99187366368551,42.057527203262325,1408.001027580152,192.0493368452837,283890.3338678676,0.0,0.0,41.1242264728228,0.576066455056369,"[ 17.26362667   2.72910879   0.57606646 -23.81600707  -0.99334836
  24.3165668 ]",[0.         0.         0.         0.64128361 0.         0.        ],['Ti0' 'Aw' 'Ci' 'e11' 'p11' 'Ria'],1194.85016685989,2.415179604004912
chicago_control_wood_schedFalse_job136,55.51640203640771,41.811644874559256,1407.9748644153876,192.5354963033397,282009.6598479644,0.0,0.0,41.4875690951964,0.56973883175268,"[ 17.25692236   2.72544051   0.56973883 -23.78828465  -0.97971238
  24.10360553]",[0.         0.         0.         0.79040511 0.         0.        ],['Ti0' 'Aw' 'Ci' 'e11' 'p11' 'Ria'],1166.3496319773699,2.5241352803223975
chicago_control_wood_schedFalse_job65,61.22770257985639,45.06789194540212,1408.1940473851723,194.32039726836328,258876.27121089987,0.0,0.0,45.8268940558961,0.5752115039689871,"[ 16.96890085   2.93779297   0.5752115  -23.79083612  -0.98389318
  21.82124756]",[0.         0.         0.         0.51260785 0.         0.        ],['Ti0' 'Aw' 'Ci' 'e11' 'p11' 'Ria'],1177.53109041029,2.3083034448996074
chicago_control_wood_schedFalse_job179,91.45750313765095,60.21805155757623,1409.7349276093219,201.49416481892055,218630.35555819835,0.0,0.0,62.6568334375181,0.41219931509814,"[ 15.87550687   3.42085323   0.41219932 -23.70794021  -0.9327147
  15.95995114]",[0.         0.         0.         0.77303399 0.         0.        ],['Ti0' 'Aw' 'Ci' 'e11' 'p11' 'Ria'],1175.1861076377302,1.7535264274740996
chicago_control_wood_schedFalse_job166,67.6516657718647,48.569766070881954,1408.238005477553,196.18495806163415,217325.4138269827,0.0,0.0,51.0564661427379,0.552178819482196,"[ 16.213116     3.18015693   0.55217882 -23.62990781  -0.8959204
  19.58615775]",[0.         0.         0.         0.94566652 0.         0.        ],['Ti0' 'Aw' 'Ci' 'e11' 'p11' 'Ria'],1044.6692375661,2.6019194163285064
chicago_control_wood_schedFalse_job16,75.28600745463056,52.45542311856893,1409.3320704090536,197.1776346467733,271577.1221996301,0.0,0.0,52.8330848622408,0.44861958932886603,"[ 16.37669578   3.02122462   0.44861959 -23.72872157  -0.94594612
  18.92753381]",[0.         0.         0.         0.47356941 0.         0.        ],['Ti0' 'Aw' 'Ci' 'e11' 'p11' 'Ria'],1146.20093405094,1.9044457720617913
chicago_control_wood_schedFalse_job100,64.90808308848389,47.02751768310744,1408.190724627652,194.26479044404667,258404.66270317743,0.0,0.0,47.417765711397706,0.5648804856023969,"[ 16.58144996   3.01071936   0.56488049 -23.7549593   -0.95480437
  21.08914212]",[0.         0.         0.         0.67910345 0.         0.        ],['Ti0' 'Aw' 'Ci' 'e11' 'p11' 'Ria'],1140.0759936730199,2.5140633279132913
chicago_control_wood_schedFalse_job103,76.76578246333105,53.13852828867139,1409.294400328704,196.75259689151366,274239.11249195336,0.0,0.0,51.88871732738621,0.433186757457623,"[ 16.52772497   2.97547148   0.43318676 -23.80891168  -0.98537476
  19.27201233]",[0.         0.         0.         0.37829404 0.         0.        ],['Ti0' 'Aw' 'Ci' 'e11' 'p11' 'Ria'],1234.69158358109,1.773643429580389
chicago_control_wood_schedFalse_job99,74.81957831603907,52.11282362336768,1409.4896596741162,195.53505260560425,303180.06566556887,0.0,0.0,50.1041113471341,0.4162559436062921,"[ 16.85138943   2.80497716   0.41625594 -23.89622065  -1.03145197
  19.95844199]",[0.         0.         0.         0.95182024 0.         0.        ],['Ti0' 'Aw' 'Ci' 'e11' 'p11' 'Ria'],1299.4841524691499,1.5779224218843027
chicago_control_wood_schedFalse_job46,73.68598891117564,51.62478603209169,1409.0764363202295,196.4731268432317,284959.793746525,0.0,0.0,51.5768484084741,0.47839193777103106,"[ 16.5926958    3.02879219   0.47839194 -23.82482019  -0.99482861
  19.3885441 ]",[0.         0.         0.         0.96277023 0.         0.        ],['Ti0' 'Aw' 'Ci' 'e11' 'p11' 'Ria'],1232.88977260026,1.982173758501503
chicago_control_wood_schedFalse_job119,64.77658050880153,46.84107076772365,1409.0677087916727,192.2552340334469,293410.41624123853,0.0,0.0,43.719745895035,0.4659504502408429,"[ 17.1348753    2.56942521   0.46595045 -23.89173746  -1.03440558
  22.87296002]",[0.         0.         0.         0.95144037 0.         0.        ],['Ti0' 'Aw' 'Ci' 'e11' 'p11' 'Ria'],1269.76811531783,1.7601182855802122
chicago_control_wood_schedFalse_job20,64.56925879243322,46.77141984363072,1409.077390114853,192.91433723954862,256454.1505690356,0.0,0.0,44.4306289597289,0.46310041907087396,"[ 17.03340101   2.62136654   0.46310042 -23.8594043   -1.01145055
  22.50699626]",[0.         0.         0.         0.94421773 0.         0.        ],['Ti0' 'Aw' 'Ci' 'e11' 'p11' 'Ria'],1237.10846828543,1.8187151568757045
chicago_control_wood_schedFalse_job154,68.89302076467833,49.168085102832904,1407.9145272847807,195.58496346522384,245866.9164492961,0.0,0.0,50.0806578459585,0.588716302372844,"[ 16.50060448   3.16174749   0.5887163  -23.74911853  -0.95224372
  19.96778882]",[0.         0.         0.         0.89331688 0.         0.        ],['Ti0' 'Aw' 'Ci' 'e11' 'p11' 'Ria'],1133.7708965418499,2.575657550869707
chicago_control_wood_schedFalse_job60,78.05228917158671,53.816349655547235,1409.303915512426,197.61988693398786,277902.5220649961,0.0,0.0,53.823743944070905,0.45797853456404003,"[ 16.3960919    3.09715958   0.45797853 -23.78545823  -0.97673438
  18.57916092]",[0.         0.         0.         0.94901222 0.         0.        ],['Ti0' 'Aw' 'Ci' 'e11' 'p11' 'Ria'],1211.0403071004303,1.9142358362878014
chicago_control_wood_schedFalse_job157,81.45825937983362,55.28507086234546,1410.129714450005,195.9752480576944,292555.3937647274,0.0,0.0,53.358298671597005,0.38144416335526793,"[ 16.54230565   2.86986806   0.38144416 -23.85394631  -1.01001529
  18.74122723]",[0.        0.        0.        0.9344365 0.        0.       ],['Ti0' 'Aw' 'Ci' 'e11' 'p11' 'Ria'],1277.12154226056,1.425524444345399
chicago_control_wood_schedFalse_job170,73.38545761799594,51.40435334539365,1409.4066510436369,195.411394037113,262727.94496292225,0.0,0.0,49.721955851813604,0.421086338537429,"[ 16.66542335   2.79939622   0.42108634 -23.78893923  -0.97747634
  20.11183959]",[0.         0.         0.         0.11596578 0.         0.        ],['Ti0' 'Aw' 'Ci' 'e11' 'p11' 'Ria'],1193.84849144669,1.7123936906533999
chicago_control_wood_schedFalse_job114,75.11073645372775,52.2142517668886,1409.395873460041,194.98272402167908,270254.8115785893,0.0,0.0,48.93973806664471,0.406641754558055,"[ 16.82141766   2.72861325   0.40664175 -23.81472982  -0.9982037
  20.43329285]",[0.         0.         0.         0.07627009 0.         0.        ],['Ti0' 'Aw' 'Ci' 'e11' 'p11' 'Ria'],1234.87691545888,1.5800539216346934
chicago_control_wood_schedFalse_job132,55.38699326512291,41.694802266512404,1408.3037616908496,191.60941026518623,225715.96802019537,0.0,0.0,40.855241416648504,0.5498827764993571,"[ 17.19616398   2.62948313   0.54988278 -23.80487657  -0.98098675
  24.47666359]",[0.         0.         0.         0.94957071 0.         0.        ],['Ti0' 'Aw' 'Ci' 'e11' 'p11' 'Ria'],1161.14235235738,2.413408227293594
chicago_control_wood_schedFalse_job21,77.96136686722178,53.88558740662554,1408.1328099543387,199.17098027723281,226300.33738967014,0.0,0.0,56.21793241562221,0.5455646998396091,"[ 16.16393497   3.42380887   0.5455647  -23.70500711  -0.92241661
  17.7879185 ]",[0.         0.         0.         0.64807779 0.         0.        ],['Ti0' 'Aw' 'Ci' 'e11' 'p11' 'Ria'],1110.80136916348,2.5174178931305846
chicago_control_wood_schedFalse_job190,65.12594741961476,47.24742561939887,1408.0973805467593,196.07331104678227,246958.92178907729,0.0,0.0,49.73637530155621,0.5776913024324749,"[ 16.40086853   3.17965126   0.5776913  -23.7090831   -0.92566318
  20.10600881]",[0.        0.        0.        0.9572812 0.        0.       ],['Ti0' 'Aw' 'Ci' 'e11' 'p11' 'Ria'],1092.2478477407599,2.7370377113354962
chicago_control_wood_schedFalse_job117,62.31801473667723,45.63063643181644,1408.5036348557694,193.85843789588836,248155.48394578916,0.0,0.0,45.32857353397429,0.527614420630684,"[ 16.9833766    2.81008179   0.52761442 -23.81035525  -0.9895127
  22.06113985]",[0.         0.         0.         0.88584792 0.         0.        ],['Ti0' 'Aw' 'Ci' 'e11' 'p11' 'Ria'],1190.01599014478,2.132143770436109
chicago_control_wood_schedFalse_job73,93.00335235540636,60.855847221066874,1409.07515580596,201.19555293619382,205547.12268545278,0.0,0.0,62.616035361737794,0.445480999857659,"[ 15.85762341   3.46161485   0.445481   -23.655111    -0.90508355
  15.97034999]",[0.         0.         0.         0.94524014 0.         0.        ],['Ti0' 'Aw' 'Ci' 'e11' 'p11' 'Ria'],1105.3504666767199,1.9382450154822024
chicago_control_wood_schedFalse_job111,72.25856237676149,50.81999042120525,1409.4072656864173,194.9854565671032,272470.27891531604,0.0,0.0,48.9441761838623,0.428630964900515,"[ 16.80233766   2.77325383   0.42863096 -23.83233387  -1.00422802
  20.43144002]",[0.         0.         0.         0.95091062 0.         0.        ],['Ti0' 'Aw' 'Ci' 'e11' 'p11' 'Ria'],1240.05206343639,1.71551970806631
chicago_control_wood_schedFalse_job109,79.06316076855471,54.294844201067285,1408.5538004719126,197.63270090546047,246742.3266759867,0.0,0.0,54.8944919887185,0.5111004574758279,"[ 16.23976177   3.23892235   0.51110046 -23.72683036  -0.94579874
  18.2167639 ]","[0.00000000e+00 9.91355930e-06 2.31891936e-04 9.75450735e-01
 0.00000000e+00 0.00000000e+00]",['Ti0' 'Aw' 'Ci' 'e11' 'p11' 'Ria'],1147.7827920136199,8.12210403452
chicago_control_wood_schedFalse_job43,57.70606519013247,42.99678332345248,1408.361534314552,191.63300190043572,274652.8760955609,0.0,0.0,41.4063197102564,0.567597847907856,"[ 17.37105874   2.67249543   0.56759785 -23.89054857  -1.03667203
  24.15090274]",[0.         0.         0.         0.32403305 0.         0.        ],['Ti0' 'Aw' 'Ci' 'e11' 'p11' 'Ria'],1264.2399286236,2.2250279177876067
chicago_control_wood_schedFalse_job18,65.31813718203675,47.22532267744712,1408.7802757373956,193.96523683555347,289128.1454251739,0.0,0.0,45.6462757800127,0.49022537160371005,"[ 17.12870718   2.74303389   0.49022537 -23.8577331   -1.01562258
  21.9075923 ]",[0.         0.         0.         0.55037457 0.         0.        ],['Ti0' 'Aw' 'Ci' 'e11' 'p11' 'Ria'],1241.55380327841,1.9646231046259999
chicago_control_wood_schedFalse_job4,71.34979293718469,50.2293422278916,1409.4788096235068,192.9108269758691,277578.6892276338,0.0,0.0,45.8875305330247,0.42281772039312293,"[ 17.07621855   2.60240605   0.42281772 -23.91419323  -1.04465916
  21.79241263]",[0.         0.         0.         0.74415396 0.         0.        ],['Ti0' 'Aw' 'Ci' 'e11' 'p11' 'Ria'],1311.6082452566802,1.5601149873110032
chicago_control_wood_schedFalse_job59,64.69412740190066,46.95595730369348,1407.9129082471566,194.97253452688253,215470.32958605187,0.0,0.0,48.5540483588034,0.5784556660526371,"[ 16.41438231   3.11499048   0.57845567 -23.69115677  -0.9160911
  20.59560498]",[0.         0.         0.         0.88560713 0.         0.        ],['Ti0' 'Aw' 'Ci' 'e11' 'p11' 'Ria'],1077.7531986905499,2.7941132977962013
chicago_control_wood_schedFalse_job147,77.49823806094503,53.51756150967034,1409.2976212196588,197.1467834156266,276512.8672678568,0.0,0.0,52.827316098405895,0.426565716089985,"[ 16.32996858   2.9864353    0.42656572 -23.72313034  -0.93987164
  18.9296007 ]",[0.         0.         0.         0.94583874 0.         0.        ],['Ti0' 'Aw' 'Ci' 'e11' 'p11' 'Ria'],1143.8029410961901,1.6986297143973061
chicago_control_wood_schedFalse_job196,84.91886052090382,57.03768541052325,1409.3622666200806,198.14612646751658,232164.35540691382,0.0,0.0,56.3517190516925,0.43486045624044395,"[ 16.22147408   3.15678961   0.43486046 -23.76366395  -0.96185111
  17.74568756]",[0.        0.        0.        0.9209131 0.        0.       ],['Ti0' 'Aw' 'Ci' 'e11' 'p11' 'Ria'],1201.6178587088,1.8203531566303042
chicago_control_wood_schedFalse_job105,69.4904709180967,49.348277712077966,1409.4086372857867,193.64263409796433,283681.7855025417,0.0,0.0,46.92032993071321,0.42040176866020595,"[ 16.83256476   2.6462892    0.42040177 -23.82403421  -0.99477814
  21.31272311]",[0.        0.        0.        0.5359111 0.        0.       ],['Ti0' 'Aw' 'Ci' 'e11' 'p11' 'Ria'],1218.44908969226,1.596824633132492
chicago_control_wood_schedFalse_job11,73.04439956443106,51.31300259074591,1408.9870157373648,196.53297738536563,228210.25941079395,0.0,0.0,51.8672296882393,0.488287448607337,"[ 16.38235184   3.07610856   0.48828745 -23.76355835  -0.95887977
  19.27999637]",[0.         0.         0.         0.68726624 0.         0.        ],['Ti0' 'Aw' 'Ci' 'e11' 'p11' 'Ria'],1170.6912858194698,2.0541540922775
chicago_control_wood_schedFalse_job150,59.61977483561039,44.04312780138584,1408.5486821050958,191.4935199003121,274127.87409096054,0.0,0.0,41.067605563351606,0.49551175782721796,"[ 17.1400153    2.53691734   0.49551176 -23.81153343  -0.98365213
  24.35009264]",[0.         0.         0.         0.80444277 0.         0.        ],['Ti0' 'Aw' 'Ci' 'e11' 'p11' 'Ria'],1185.39505078036,2.0786605463102887
chicago_control_wood_schedFalse_job182,60.508244205110756,44.656271781080335,1408.2827226630616,193.92950845338197,228248.31177717797,0.0,0.0,45.249056506304505,0.543576725282117,"[ 16.76159098   2.84388307   0.54357673 -23.73067595  -0.93931607
  22.09990831]",[0.         0.         0.         0.83621574 0.         0.        ],['Ti0' 'Aw' 'Ci' 'e11' 'p11' 'Ria'],1099.09318123563,2.2778419318725014
chicago_control_wood_schedFalse_job131,59.86836691788968,44.33606957240938,1408.0877444538435,194.49561582765702,261393.0802738635,0.0,0.0,45.852911524982794,0.576808236964376,"[ 16.71778055   2.94745894   0.57680824 -23.71937306  -0.93525644
  21.80886593]",[0.         0.         0.         0.40124487 0.         0.        ],['Ti0' 'Aw' 'Ci' 'e11' 'p11' 'Ria'],1091.12944754095,2.634510748384905
chicago_control_wood_schedFalse_job90,64.89907360036905,46.97868604060447,1408.8539993041566,193.50176124013473,284200.10673782864,0.0,0.0,45.81662146592,0.505944609633083,"[ 16.90286114   2.78492547   0.50594461 -23.83692403  -1.00390819
  21.82614012]",[0.         0.         0.         0.45425486 0.         0.        ],['Ti0' 'Aw' 'Ci' 'e11' 'p11' 'Ria'],1221.06673914965,2.0870105481671004
chicago_control_wood_schedFalse_job56,61.44640313263915,45.25841779730086,1407.9125681986309,195.66713992590059,259750.06995999807,0.0,0.0,48.109859958334894,0.598057946173671,"[ 16.47347099   3.17673672   0.59805795 -23.70261821  -0.92097844
  20.78575994]",[0.         0.         0.         0.15909424 0.         0.        ],['Ti0' 'Aw' 'Ci' 'e11' 'p11' 'Ria'],1084.73732884218,2.8641752259762114
chicago_control_wood_schedFalse_job51,76.48696283907296,52.88082427752566,1409.902165409926,195.04378388223225,257091.7067627699,0.0,0.0,50.525487444225504,0.394198964985625,"[ 16.74204787   2.75838704   0.39419896 -23.86903914  -1.02075155
  19.79199114]",[0.         0.         0.         0.74708158 0.         0.        ],['Ti0' 'Aw' 'Ci' 'e11' 'p11' 'Ria'],1281.31000059435,1.456828055082994
chicago_control_wood_schedFalse_job64,54.37098805683126,41.09228261250345,1408.1965942908578,191.08840151826703,286863.7257288096,0.0,0.0,38.9808086759015,0.5427414775877051,"[ 17.53700698   2.51631495   0.54274148 -23.86872573  -1.02332819
  25.65364942]",[0.         0.         0.         0.94765007 0.         0.        ],['Ti0' 'Aw' 'Ci' 'e11' 'p11' 'Ria'],1237.20737972131,2.215897939688702
chicago_control_wood_schedFalse_job127,80.37571841134809,54.76455479338779,1410.0617028777694,195.72425927620338,274944.87956010544,0.0,0.0,52.2164751164893,0.361810754139472,"[ 16.71419529   2.77577511   0.36181075 -23.88706376  -1.02625716
  19.15104376]",[0.         0.         0.         0.96639618 0.         0.        ],['Ti0' 'Aw' 'Ci' 'e11' 'p11' 'Ria'],1307.81272054331,1.330170256325502
chicago_control_wood_schedFalse_job138,73.52602875996561,51.594136322241916,1409.05481937093,197.17152958248138,261026.07760330517,0.0,0.0,52.4223450791446,0.46201968318932896,"[ 16.32653068   3.07226958   0.46201968 -23.74978274  -0.94604279
  19.0758349 ]",[0.        0.        0.        0.9535128 0.        0.       ],['Ti0' 'Aw' 'Ci' 'e11' 'p11' 'Ria'],1154.66884352837,2.0361005802996033
chicago_control_wood_schedFalse_job135,62.47985623225848,45.68381976179513,1408.6582148866598,193.2541067226984,242045.17054158635,0.0,0.0,45.2770739144728,0.536395751075935,"[ 16.79282467   2.80218289   0.53639575 -23.7930288   -0.97915955
  22.08623291]",[0.         0.         0.         0.36742021 0.         0.        ],['Ti0' 'Aw' 'Ci' 'e11' 'p11' 'Ria'],1165.3698865608999,2.3632219963474057
chicago_control_wood_schedFalse_job156,62.93588940427698,45.99005427302231,1408.2894552868204,194.3798848770073,283677.70724305866,0.0,0.0,46.0110229581615,0.553340141419135,"[ 16.93647986   2.92769089   0.55334014 -23.81766425  -0.99655234
  21.73392235]",[0.         0.         0.         0.58103567 0.         0.        ],['Ti0' 'Aw' 'Ci' 'e11' 'p11' 'Ria'],1216.3005501564699,2.2638427543652995
chicago_control_wood_schedFalse_job22,76.9252300569283,53.2857826573435,1408.2432101617446,197.7460428054153,227510.39560579223,0.0,0.0,54.449870205547704,0.546692406912307,"[ 16.27858429   3.28731237   0.54669241 -23.7426343   -0.94960933
  18.36551669]",[0.         0.         0.         0.04157673 0.         0.        ],['Ti0' 'Aw' 'Ci' 'e11' 'p11' 'Ria'],1148.61501387407,2.4360846965120047
chicago_control_wood_schedFalse_job9,69.74487619995496,49.616015697144384,1407.9973036204333,195.82566476230255,243009.7152872071,0.0,0.0,50.51368926059651,0.58011817123192,"[ 16.55250447   3.17276628   0.58011817 -23.7786144   -0.97295851
  19.79661384]",[0.         0.         0.         0.92919738 0.         0.        ],['Ti0' 'Aw' 'Ci' 'e11' 'p11' 'Ria'],1177.59124207695,2.4556962411093863
chicago_control_wood_schedFalse_job186,76.24943872643978,52.86007736786717,1409.161066579941,196.3334370221555,283973.6686748302,0.0,0.0,51.1813618090699,0.425157390373533,"[ 16.51600965   2.90000936   0.42515739 -23.74898663  -0.953417
  19.53836249]",[0.         0.         0.         0.62729554 0.         0.        ],['Ti0' 'Aw' 'Ci' 'e11' 'p11' 'Ria'],1161.9749318378801,1.8136011817863036
chicago_control_wood_schedFalse_job81,70.28667397224406,49.81241841882536,1409.2437292403565,194.6181574356472,261893.67001951206,0.0,0.0,48.07010930686071,0.42940651839503297,"[ 16.7414137    2.72311349   0.42940652 -23.7717358   -0.97581242
  20.80294833]",[0.         0.         0.         0.13074629 0.         0.        ],['Ti0' 'Aw' 'Ci' 'e11' 'p11' 'Ria'],1180.33840159997,1.7777389381874897
chicago_control_wood_schedFalse_job7,79.8896078513843,54.93845661731283,1407.7524018126776,201.02275973735905,215741.54247670044,0.0,0.0,58.6923717901375,0.581338373236638,"[ 15.95757428   3.68268326   0.58133837 -23.66812712  -0.91054369
  17.03798926]",[0.         0.         0.         0.92597263 0.         0.        ],['Ti0' 'Aw' 'Ci' 'e11' 'p11' 'Ria'],1105.97000323517,2.724386182562
chicago_control_wood_schedFalse_job40,70.94228145468476,50.10060065329713,1409.2329101594778,194.01395351249252,289665.2993621428,0.0,0.0,46.7063896282623,0.433361165154683,"[ 17.00077395   2.66961555   0.43336117 -23.82641138  -1.00154504
  21.41034681]",[0.         0.         0.         0.27211422 0.         0.        ],['Ti0' 'Aw' 'Ci' 'e11' 'p11' 'Ria'],1227.25267136324,1.7586718219287008
