fname,hlc_mat,hlc_tot,hlc_se,hlc_si,c_tot,hlc_inf_standard,hlc_inf_current,hlc_tot_pred,c_tot_pred,estimates,probt,names,loglik,err
chicago_control_concrete_inf_schedFalse_job151,55.30419897456743,41.69790899606028,1410.5381576013465,192.63150007787868,2598285.226179951,89.97395697914656,90.87432114989024,124.52133706525,0.886116631643788,"[ 16.91900837   3.22103922   0.88611663 -26.18626709  -1.8976544
   8.03075219]",[0.         0.         0.         0.93035098 0.         0.        ],['Ti0' 'Aw' 'Ci' 'e11' 'p11' 'Ria'],6292.209627561371,1.1142513833959953
chicago_control_concrete_inf_schedFalse_job179,91.84750406761816,60.11970259347791,1412.7284354640467,198.4906812671833,2508349.3490126673,89.97395697914656,90.80367949580298,146.150649861162,0.844035175322315,"[ 16.53498703   3.0820174    0.84403518 -26.29542648  -1.95426359
   6.8422549 ]",[0.         0.         0.         0.85419706 0.         0.        ],['Ti0' 'Aw' 'Ci' 'e11' 'p11' 'Ria'],6517.39768742661,0.9565487871089999
chicago_control_concrete_inf_schedFalse_job161,80.79247776513917,54.97896568089509,1412.2104821685914,195.95261162309964,2594888.286998732,89.97395697914656,90.80973436781767,140.64809691300698,0.863967496124154,"[ 16.60813544   3.12781363   0.8639675  -26.27888031  -1.94616373
   7.10994334]",[0.         0.         0.         0.04498515 0.         0.        ],['Ti0' 'Aw' 'Ci' 'e11' 'p11' 'Ria'],6482.79475697436,1.0142439070810383
chicago_control_concrete_inf_schedFalse_job119,64.74942315976465,46.81717845728536,1411.5893887294974,192.04522847052672,2628818.692932354,89.97395697914656,90.8492592099715,129.040537596383,0.8378379651066209,"[ 16.76082079   3.02558334   0.83783797 -26.21554344  -1.91181765
   7.74950274]",[0.         0.         0.         0.50108416 0.         0.        ],['Ti0' 'Aw' 'Ci' 'e11' 'p11' 'Ria'],6346.65165839897,0.8743375866719987
chicago_control_concrete_inf_schedFalse_job24,63.87858731159141,46.45233852313238,1411.043357292513,193.6465367623094,2565817.451220548,89.97395697914656,90.84643072787446,129.828264617263,0.8708656389604879,"[ 16.7829043    3.21003207   0.87086564 -26.17559976  -1.89235105
   7.70248299]",[0.         0.         0.         0.93648541 0.         0.        ],['Ti0' 'Aw' 'Ci' 'e11' 'p11' 'Ria'],6276.778602639871,1.044353002148
chicago_control_concrete_inf_schedFalse_job125,66.78340282795884,47.93967305181284,1411.4643460375432,193.15141067331672,2607629.9539618734,89.97395697914656,90.84842097156074,131.143968428098,0.848706378336295,"[ 16.7441905    3.07648252   0.84870638 -26.22726379  -1.91584541
   7.62520772]",[0.         0.         0.         0.14800712 0.         0.        ],['Ti0' 'Aw' 'Ci' 'e11' 'p11' 'Ria'],6367.90388967322,0.9739483777150042
chicago_control_concrete_inf_schedFalse_job176,70.61090651966401,49.97214868350239,1411.5536580035016,194.53022415098027,2612077.0338125792,89.97395697914656,90.82809552177463,134.80954160623,0.879335593187328,"[ 16.70785653   3.17475096   0.87933559 -26.25571313  -1.92610398
   7.41787256]",[0.         0.         0.         0.95632292 0.         0.        ],['Ti0' 'Aw' 'Ci' 'e11' 'p11' 'Ria'],6405.022219007729,1.0209220990589927
chicago_control_concrete_inf_schedFalse_job56,61.33328516179152,45.1428620236471,1410.4085671208386,194.6085152450965,2568161.6501213117,89.97395697914656,90.85494437198997,129.571670199585,0.87453189562721,"[ 16.77045786   3.33091066   0.8745319  -26.16034852  -1.88037696
   7.71773643]",[0.         0.         0.         0.94927985 0.         0.        ],['Ti0' 'Aw' 'Ci' 'e11' 'p11' 'Ria'],6234.4768123721,1.082014145858011
chicago_control_concrete_inf_schedFalse_job74,55.981489765118745,42.06455865200976,1410.4932962762884,192.27208591102837,2596641.44842878,89.97395697914656,90.88294507695035,123.782401640574,0.8643983207381558,"[ 16.91625211   3.15984884   0.86439832 -26.20368644  -1.89198299
   8.07869283]",[0.         0.         0.         0.40168396 0.         0.        ],['Ti0' 'Aw' 'Ci' 'e11' 'p11' 'Ria'],6268.06703130624,0.992965908738995
chicago_control_concrete_inf_schedFalse_job128,74.5701318006283,51.88956115621223,1411.9761331807276,194.051288926407,2592460.822704104,89.97395697914656,90.83790964576993,135.374315201126,0.853182379541754,"[ 16.69218458   3.0365892    0.85318238 -26.2667753   -1.9397674
   7.38692564]",[0.         0.         0.         0.86262112 0.         0.        ],['Ti0' 'Aw' 'Ci' 'e11' 'p11' 'Ria'],6453.990765522889,1.0186791612069896
chicago_control_concrete_inf_schedFalse_job187,87.4603078524386,58.10343067357212,1412.4566144759262,197.27977636519748,2495994.089443441,89.97395697914656,90.82532663591887,141.821880041826,0.829344404433418,"[ 16.6125847    3.02292291   0.8293444  -26.23398512  -1.91998469
   7.05109818]",[0.         0.         0.         0.81626731 0.         0.        ],['Ti0' 'Aw' 'Ci' 'e11' 'p11' 'Ria'],6397.49649068319,0.9433468387350104
chicago_control_concrete_inf_schedFalse_job9,69.74720438508795,49.545723511554996,1410.810769597535,194.66341265394558,2534650.7655049968,89.97395697914656,90.88168063671324,130.524651869932,0.8586081724995941,"[ 16.81104699   3.06542756   0.85860817 -26.22882113  -1.91790667
   7.66138799]",[0.         0.         0.         0.34763727 0.         0.        ],['Ti0' 'Aw' 'Ci' 'e11' 'p11' 'Ria'],6373.7651744697805,0.9963262737919933
chicago_control_concrete_inf_schedFalse_job172,70.6207974306717,49.97188308245741,1411.4770658698264,194.452625440078,2546395.609341374,89.97395697914656,90.83706379847318,133.537777744626,0.8426472794087991,"[ 16.69799599   3.14182224   0.84264728 -26.15889475  -1.8810077
   7.48851761]",[0.         0.         0.         0.49828856 0.         0.        ],['Ti0' 'Aw' 'Ci' 'e11' 'p11' 'Ria'],6248.472101203679,1.0307681617740059
chicago_control_concrete_inf_schedFalse_job8,58.246896058517635,43.37805048927225,1410.5683673757621,193.20300791189288,2531543.3238876304,89.97395697914656,90.87070732642428,125.75510676268601,0.8482887568905569,"[ 16.8533099    3.20964323   0.84828876 -26.12141956  -1.85054177
   7.95196335]",[0.         0.         0.         0.00217754 0.         0.        ],['Ti0' 'Aw' 'Ci' 'e11' 'p11' 'Ria'],6130.93034978114,1.1821924351939828
chicago_control_concrete_inf_schedFalse_job20,64.50317855237307,46.717172527186705,1411.5644136070582,192.53506083631117,2601441.3898418616,89.97395697914656,90.84578819329246,129.64033311601102,0.839629525386919,"[ 16.7523399    3.06106578   0.83962953 -26.18948316  -1.89846504
   7.7136488 ]",[0.         0.         0.         0.93402856 0.         0.        ],['Ti0' 'Aw' 'Ci' 'e11' 'p11' 'Ria'],6299.23981225295,1.0308280040639772
chicago_control_concrete_inf_schedFalse_job167,74.36459930285736,51.79439005283683,1411.7654271502206,194.11751474740652,2532332.070928897,89.97395697914656,90.84339436431866,134.05445731940202,0.821354260015665,"[ 16.68708222   3.02613586   0.82135426 -26.18721165  -1.89645762
   7.45965498]",[0.         0.         0.         0.72287832 0.         0.        ],['Ti0' 'Aw' 'Ci' 'e11' 'p11' 'Ria'],6301.64893739641,0.9707279215769802
chicago_control_concrete_inf_schedFalse_job98,60.30212438470948,44.44867947968108,1411.1395352073116,192.0843802956147,2533915.8517902503,89.97395697914656,90.86300945738573,126.38626505924299,0.819957704619192,"[ 16.78655629   3.07040171   0.8199577  -26.12799894  -1.86642761
   7.91225217]",[0.        0.        0.        0.9150777 0.        0.       ],['Ti0' 'Aw' 'Ci' 'e11' 'p11' 'Ria'],6181.47089092332,1.0558314830060027
chicago_control_concrete_inf_schedFalse_job147,77.64570996284931,53.49140527882845,1411.748017112302,195.80051992097873,2569620.8058046694,89.97395697914656,90.806909207878,138.537779525482,0.840589479807285,"[ 16.60055176   3.18661555   0.84058948 -26.20822543  -1.90806542
   7.21824764]",[0.         0.         0.         0.57458814 0.         0.        ],['Ti0' 'Aw' 'Ci' 'e11' 'p11' 'Ria'],6344.52801790996,1.0351579301729998
chicago_control_concrete_inf_schedFalse_job51,76.3553912621211,52.722942944981845,1412.4456596348587,193.70719880373642,2616536.031489216,89.97395697914656,90.82022358404652,136.665047705898,0.8338383312419351,"[ 16.65225711   2.98362578   0.83383833 -26.25786814  -1.93513403
   7.31715985]",[0.         0.         0.         0.61538429 0.         0.        ],['Ti0' 'Aw' 'Ci' 'e11' 'p11' 'Ria'],6441.63335698843,0.980206526207013
chicago_control_concrete_inf_schedFalse_job72,55.30415982367842,41.6715796917017,1410.3138704161738,192.07550484072576,2540255.4073160635,89.97395697914656,90.88823511619681,122.841552748445,0.8246438712713979,"[ 16.88372732   3.13365879   0.82464387 -26.12291303  -1.85379599
   8.14056789]",[0.         0.         0.         0.64169999 0.         0.        ],['Ti0' 'Aw' 'Ci' 'e11' 'p11' 'Ria'],6134.92272100038,0.9542755792570148
chicago_control_concrete_inf_schedFalse_job81,70.33159825773478,49.779347159735764,1411.8366514058034,193.7235547890644,2565340.4683280373,89.97395697914656,90.82603753603252,133.822447628377,0.8402241396692701,"[ 16.67740465   3.09444541   0.84022414 -26.18471484  -1.89641112
   7.47258788]",[0.         0.         0.         0.96920857 0.         0.        ],['Ti0' 'Aw' 'Ci' 'e11' 'p11' 'Ria'],6299.706437891589,0.9864220606399954
chicago_control_concrete_inf_schedFalse_job155,73.00063527527956,51.32369157337295,1410.973006001513,196.9691405849631,2543727.714501265,89.97395697914656,90.8455011956329,136.024631042175,0.8841510556303219,"[ 16.71061372   3.30031194   0.88415106 -26.2328487   -1.91891196
   7.35160972]",[0.      0.      0.      0.42326 0.      0.     ],['Ti0' 'Aw' 'Ci' 'e11' 'p11' 'Ria'],6379.03986928452,1.0440222933140149
chicago_control_concrete_inf_schedFalse_job41,69.58144273620906,49.4601901184729,1411.5656512046182,194.62070830637327,2542971.3115902618,89.97395697914656,90.82342823607016,134.432326492231,0.842218880531155,"[ 16.65668944   3.18819841   0.84221888 -26.13707145  -1.8773636
   7.438687  ]",[0.         0.         0.         0.26796982 0.         0.        ],['Ti0' 'Aw' 'Ci' 'e11' 'p11' 'Ria'],6234.52336785048,1.088090183237
chicago_control_concrete_inf_schedFalse_job38,52.42414125859128,40.004541806723694,1410.4815728761844,191.82802408621413,2561266.3961253646,89.97395697914656,90.88156387277608,121.92204932725201,0.836057760609083,"[ 16.91536995   3.14210222   0.83605776 -26.13511518  -1.86156652
   8.20196187]",[0.         0.         0.         0.00257877 0.         0.        ],['Ti0' 'Aw' 'Ci' 'e11' 'p11' 'Ria'],6158.8791198421895,1.0551106566699957
chicago_control_concrete_inf_schedFalse_job23,51.88462442755615,39.68886223537305,1410.2127001401846,191.8156083753389,2579057.2109390534,89.97395697914656,90.89019822333908,121.328135116974,0.8434541450336149,"[ 16.94685094   3.15423941   0.84345415 -26.1526074   -1.8715018
   8.24211135]",[0.         0.         0.         0.92177778 0.         0.        ],['Ti0' 'Aw' 'Ci' 'e11' 'p11' 'Ria'],6192.61182927389,1.048666738723
chicago_control_concrete_inf_schedFalse_job150,59.65450337062112,44.07391910932324,1411.0190446148822,191.67171204827264,2575657.516397197,89.97395697914656,90.86509849568525,125.31203262812299,0.813978659202228,"[ 16.81268929   3.04872522   0.81397866 -26.14466183  -1.87223602
   7.98007964]",[0.         0.         0.         0.94108497 0.         0.        ],['Ti0' 'Aw' 'Ci' 'e11' 'p11' 'Ria'],6201.1498465040695,1.0069595692310003
chicago_control_concrete_inf_schedFalse_job192,81.89510775384716,55.57354240271524,1411.5692031106198,197.04429231122845,2490221.62678818,89.97395697914656,90.85327728554374,137.817471270296,0.8349276973117891,"[ 16.68953927   3.02999575   0.8349277  -26.21177685  -1.90773459
   7.25597409]",[0.         0.         0.         0.50149216 0.         0.        ],['Ti0' 'Aw' 'Ci' 'e11' 'p11' 'Ria'],6351.131145568571,1.0273840918029862
chicago_control_concrete_inf_schedFalse_job141,55.29210386506697,41.70517512891637,1410.278866518103,192.93864130604985,2603274.677640708,89.97395697914656,90.8655466206103,125.15224062213801,0.876627861208406,"[ 16.86983374   3.26571621   0.87662786 -26.18145006  -1.88713583
   7.99026845]",[0.        0.        0.        0.6007866 0.        0.       ],['Ti0' 'Aw' 'Ci' 'e11' 'p11' 'Ria'],6251.16456379945,1.2009401472379864
chicago_control_concrete_inf_schedFalse_job47,57.35072404917802,42.847503903808054,1410.609702331412,192.5632985457413,2557460.2280922164,89.97395697914656,90.8792051523022,125.02885803026501,0.843049779123787,"[ 16.8597217    3.15532316   0.84304978 -26.14818391  -1.86971029
   7.99815351]",[0.         0.         0.         0.92262437 0.         0.        ],['Ti0' 'Aw' 'Ci' 'e11' 'p11' 'Ria'],6194.470291239029,1.0532122908249733
chicago_control_concrete_inf_schedFalse_job58,55.93415718749154,42.04518957003456,1410.4211571951316,192.42750716724962,2621401.523058013,89.97395697914656,90.87520631666912,124.247624398456,0.8964503989760101,"[ 16.94262131   3.20619929   0.8964504  -26.23085219  -1.91234043
   8.04844362]",[0.         0.         0.         0.18195775 0.         0.        ],['Ti0' 'Aw' 'Ci' 'e11' 'p11' 'Ria'],6340.07208087777,1.0812300077730015
chicago_control_concrete_inf_schedFalse_job199,60.107731603656475,44.36275154470051,1410.8143438555921,192.46211183631817,2594510.869616249,89.97395697914656,90.87009620704929,126.252013085353,0.8558146488537378,"[ 16.85132103   3.11952181   0.85581465 -26.18116375  -1.89084374
   7.92066578]",[0.         0.         0.         0.93086221 0.         0.        ],['Ti0' 'Aw' 'Ci' 'e11' 'p11' 'Ria'],6268.65620508933,0.9785116139170071
chicago_control_concrete_inf_schedFalse_job39,62.03624491481796,45.447921221861876,1411.026754402919,193.24067302479,2592733.3774850494,89.97395697914656,90.85073880241364,128.551536894659,0.8784247561785491,"[ 16.8092887    3.19658641   0.87842476 -26.19609302  -1.90147458
   7.77898129]",[0.         0.         0.         0.05574312 0.         0.        ],['Ti0' 'Aw' 'Ci' 'e11' 'p11' 'Ria'],6309.60042917729,1.058157631957016
chicago_control_concrete_inf_schedFalse_job16,75.39692680711396,52.38457090699368,1411.8121641507862,195.38344916093612,2567814.668896182,89.97395697914656,90.81814370617673,137.63870165584,0.8498283038418771,"[ 16.62703233   3.15465533   0.8498283  -26.2136182   -1.9094983
   7.26539838]",[0.         0.         0.         0.17424352 0.         0.        ],['Ti0' 'Aw' 'Ci' 'e11' 'p11' 'Ria'],6353.3410381084705,1.0544063547149847
chicago_control_concrete_inf_schedFalse_job122,69.69300258228442,49.373273379508504,1411.8758904394253,192.42046295423717,2591922.7152037816,89.97395697914656,90.84098023336742,131.1011442374,0.8189703192525061,"[ 16.7247046    2.99284135   0.81897032 -26.20549672  -1.90597617
   7.62769849]",[0.         0.         0.         0.21059775 0.         0.        ],['Ti0' 'Aw' 'Ci' 'e11' 'p11' 'Ria'],6331.26764138215,0.9683647404719977
chicago_control_concrete_inf_schedFalse_job146,56.81299559355434,42.49916950329565,1410.6977785301615,191.5930546909233,2627950.9882056336,89.97395697914656,90.87741617495776,123.63954831942499,0.847215049199685,"[ 16.9086899    3.09015101   0.84721505 -26.20302961  -1.89949436
   8.08802696]",[0.         0.         0.         0.20833067 0.         0.        ],['Ti0' 'Aw' 'Ci' 'e11' 'p11' 'Ria'],6296.479582487321,0.982324025094016
chicago_control_concrete_inf_schedFalse_job13,53.15365008149436,40.43046741932569,1410.3821627323111,191.88660226247544,2531990.6087987544,89.97395697914656,90.88275461926538,122.33092092645599,0.8285801155287049,"[ 16.89781391   3.13565768   0.82858012 -26.14138715  -1.86316515
   8.17454812]",[0.         0.         0.         0.93968251 0.         0.        ],['Ti0' 'Aw' 'Ci' 'e11' 'p11' 'Ria'],6167.96548665125,1.0149985523290184
chicago_control_concrete_inf_schedFalse_job14,60.34399039804627,44.48970795528852,1410.8923183734191,192.43059359034999,2572500.947943663,89.97395697914656,90.86984476721075,126.841730035754,0.8398966213119559,"[ 16.79789942   3.10636325   0.83989662 -26.16697618  -1.8868625
   7.88384075]",[0.         0.         0.         0.85542666 0.         0.        ],['Ti0' 'Aw' 'Ci' 'e11' 'p11' 'Ria'],6254.550020970711,1.016845646424997
chicago_control_concrete_inf_schedFalse_job189,59.85487068957632,44.313087983175734,1410.5130638755254,194.15001411756225,2577902.6182665545,89.97395697914656,90.86437058243752,128.115186742281,0.90535719023238,"[ 16.85402019   3.3233332    0.90535719 -26.20711894  -1.899274
   7.80547588]",[0.         0.         0.         0.01952932 0.         0.        ],['Ti0' 'Aw' 'Ci' 'e11' 'p11' 'Ria'],6301.60661948728,0.994418523185999
chicago_control_concrete_inf_schedFalse_job195,63.956311240238044,46.42917294516076,1411.260092350089,192.5327185730692,2588393.194682978,89.97395697914656,90.85760938950477,128.45224107731002,0.8473048832480671,"[ 16.79719527   3.07932512   0.84730488 -26.19869656  -1.90142113
   7.78499458]",[0.         0.         0.         0.75154688 0.         0.        ],['Ti0' 'Aw' 'Ci' 'e11' 'p11' 'Ria'],6310.8659401963505,1.0341899232199978
chicago_control_concrete_inf_schedFalse_job137,66.34216975606938,47.68076218529054,1411.618937395732,192.6394878946555,2635317.654652835,89.97395697914656,90.84235732677605,130.78666928628598,0.848695935912277,"[ 16.75040286   3.03901072   0.84869594 -26.20764249  -1.91372271
   7.6460392 ]",[0.         0.         0.         0.05185614 0.         0.        ],['Ti0' 'Aw' 'Ci' 'e11' 'p11' 'Ria'],6356.626484766489,1.0503107426310123
chicago_control_concrete_inf_schedFalse_job152,68.56455826586281,48.91983910885371,1411.5484826435668,194.23631005815082,2554720.6315504597,89.97395697914656,90.84509490322327,132.772234756406,0.858745787491695,"[ 16.73486545   3.14711208   0.85874579 -26.17861807  -1.89732033
   7.53169518]",[0.         0.         0.         0.63365102 0.         0.        ],['Ti0' 'Aw' 'Ci' 'e11' 'p11' 'Ria'],6303.02577521478,1.0510322180040248
chicago_control_concrete_inf_schedFalse_job11,73.2616424257807,51.30835660017658,1411.7076453505213,194.8583532337646,2527340.8031802457,89.97395697914656,90.84445505365566,134.74671308395799,0.8430468968970509,"[ 16.69694523   3.07489301   0.8430469  -26.21285584  -1.90756746
   7.4213313 ]",[0.         0.         0.         0.80922695 0.         0.        ],['Ti0' 'Aw' 'Ci' 'e11' 'p11' 'Ria'],6344.92242211412,0.9517276698090029
chicago_control_concrete_inf_schedFalse_job42,61.89461038584588,45.33110222617656,1411.0915853806046,192.50232683406017,2552370.3696660916,89.97395697914656,90.86461992749399,127.755761744105,0.8269706849596659,"[ 16.762622     3.08672468   0.82697068 -26.14821397  -1.8775287
   7.82743562]",[0.        0.        0.        0.8561123 0.        0.       ],['Ti0' 'Aw' 'Ci' 'e11' 'p11' 'Ria'],6224.325147169089,1.000990648422004
chicago_control_concrete_inf_schedFalse_job45,58.46312302687596,43.44537619888156,1410.8019353375391,192.16752472442482,2610065.2230192698,89.97395697914656,90.86750690076872,125.922287762758,0.8512479970177859,"[ 16.83982433   3.11082514   0.851248   -26.19805504  -1.89409477
   7.94140591]",[0.         0.         0.         0.94877712 0.         0.        ],['Ti0' 'Aw' 'Ci' 'e11' 'p11' 'Ria'],6279.620120658579,1.0128781553769954
chicago_control_concrete_inf_schedFalse_job177,85.28807593166297,57.06834954268355,1412.4165961012257,196.4685609365193,2559709.924058708,89.97395697914656,90.81902195676588,141.72351946721,0.8410092949173841,"[ 16.59998898   3.01931959   0.84100929 -26.2900796   -1.95216853
   7.05599186]",[0.         0.         0.         0.48338286 0.         0.        ],['Ti0' 'Aw' 'Ci' 'e11' 'p11' 'Ria'],6508.79441006277,0.9649957728150014
chicago_control_concrete_inf_schedFalse_job186,76.34432480858142,52.82300031997868,1411.6870114282724,195.15148460398902,2575547.755628296,89.97395697914656,90.8139629215208,136.944330502612,0.8395854056001679,"[ 16.64388084   3.15508676   0.83958541 -26.20508164  -1.90524301
   7.30223731]",[0.         0.         0.         0.92629466 0.         0.        ],['Ti0' 'Aw' 'Ci' 'e11' 'p11' 'Ria'],6333.54833470651,1.028052567456001
chicago_control_concrete_inf_schedFalse_job121,56.665820682234646,42.42718430460869,1410.6722827569354,191.80641394395255,2603280.6587064075,89.97395697914656,90.87928622255536,124.204769449113,0.855577870285487,"[ 16.88197255   3.11761824   0.85557787 -26.47907041  -1.89821393
   8.05122061]",[0.         0.         0.         0.90130605 0.         0.        ],['Ti0' 'Aw' 'Ci' 'e11' 'p11' 'Ria'],6293.034067639929,1.0635409704320011
chicago_control_concrete_inf_schedFalse_job44,65.77537789765917,47.408242193099134,1411.4498705071308,192.98947027474247,2602896.055709727,89.97395697914656,90.84134433705515,130.596946651987,0.849272902236626,"[ 16.74445169   3.09474442   0.8492729  -26.19301974  -1.90039168
   7.65714686]",[0.         0.         0.         0.86258429 0.         0.        ],['Ti0' 'Aw' 'Ci' 'e11' 'p11' 'Ria'],6308.08637326427,1.0307971450390028
chicago_control_concrete_inf_schedFalse_job113,67.06513149121793,48.089838081811976,1411.2325476540284,193.2391263681814,2582055.847536604,89.97395697914656,90.85972171501683,129.91904699696698,0.843612057093871,"[ 16.78311333   3.06904383   0.84361206 -26.20907294  -1.90857571
   7.6971008 ]",[0.         0.         0.         0.90312541 0.         0.        ],['Ti0' 'Aw' 'Ci' 'e11' 'p11' 'Ria'],6338.17805663973,1.030685440745998
chicago_control_concrete_inf_schedFalse_job21,78.03376914309425,53.76112877132035,1411.04739828298,196.96121266633529,2511841.179127334,89.97395697914656,90.86276658426225,135.519216730131,0.84649336349222,"[ 16.72492814   3.07607727   0.84649336 -26.21025399  -1.91361512
   7.3790273 ]",[0.        0.        0.        0.0085899 0.        0.       ],['Ti0' 'Aw' 'Ci' 'e11' 'p11' 'Ria'],6368.325636721421,0.9992893502309812
chicago_control_concrete_inf_schedFalse_job123,52.28860083958738,39.910130508961,1410.3892896940783,191.47391294225272,2564273.183482834,89.97395697914656,90.88449390855658,121.48436913544501,0.83072439843039,"[ 16.92074457   3.11509201   0.8307244  -26.1567039   -1.87409718
   8.23151165]",[0.         0.         0.         0.92930788 0.         0.        ],['Ti0' 'Aw' 'Ci' 'e11' 'p11' 'Ria'],6202.78965358428,1.0516646347489882
chicago_control_concrete_inf_schedFalse_job114,75.07428148770953,52.13115256592217,1411.9422126738905,194.023945916213,2602228.312301653,89.97395697914656,90.82060964818461,135.297701016237,0.84693789772753,"[ 16.68593937   3.07131215   0.8469379  -26.22804574  -1.91886305
   7.39110859]",[0.         0.         0.         0.26730908 0.         0.        ],['Ti0' 'Aw' 'Ci' 'e11' 'p11' 'Ria'],6381.29499493558,1.0280375264409827
chicago_control_concrete_inf_schedFalse_job67,67.18552896823465,48.18797568614516,1411.4801878068456,193.8198136321833,2603559.120362618,89.97395697914656,90.83502877112915,132.270687082716,0.8829087001178041,"[ 16.74566893   3.17521356   0.8829087  -26.24051182  -1.9245757
   7.56025407]",[0.         0.         0.         0.76304015 0.         0.        ],['Ti0' 'Aw' 'Ci' 'e11' 'p11' 'Ria'],6394.3611646421305,1.0033254283420092
chicago_control_concrete_inf_schedFalse_job5,54.684530384123015,41.319896334286014,1410.5553697695887,192.09461171883441,2620954.5666534025,89.97395697914656,90.87359474197422,123.704106286565,0.8687994161007309,"[ 16.91290984   3.16853481   0.86879942 -26.19224103  -1.8951657
   8.08380603]",[0.         0.         0.         0.90401964 0.         0.        ],['Ti0' 'Aw' 'Ci' 'e11' 'p11' 'Ria'],6279.39491198731,3.006602211705001
chicago_control_concrete_inf_schedFalse_job104,59.471630372908926,44.02626795865978,1410.8786648054459,192.6710058696999,2559436.3877416584,89.97395697914656,90.87236922832687,126.384966076847,0.8354749000422901,"[ 16.81265202   3.12422223   0.8354749  -26.15237018  -1.87285471
   7.91233349]",[0.         0.         0.         0.22314565 0.         0.        ],['Ti0' 'Aw' 'Ci' 'e11' 'p11' 'Ria'],6207.854742304,1.013907252319001
chicago_control_concrete_inf_schedFalse_job145,64.25809462086103,46.61209621953015,1411.1486873338406,192.94685209599606,2570190.5005153683,89.97395697914656,90.86029163890619,129.27289521001998,0.8288844600494691,"[ 16.74548817   3.08312555   0.82888446 -26.16629873  -1.88655873
   7.73557364]",[0.         0.         0.         0.02383354 0.         0.        ],['Ti0' 'Aw' 'Ci' 'e11' 'p11' 'Ria'],6259.44399571846,0.9788537093000116
chicago_control_concrete_inf_schedFalse_job36,57.439919178531746,42.8847133190622,1410.7786197151277,192.3073699595433,2580734.434447834,89.97395697914656,90.86832749445604,125.289595976533,0.8401969533623042,"[ 16.85008241   3.12456797   0.84019695 -26.15638582  -1.87281147
   7.9815087 ]",[0.         0.         0.         0.81491597 0.         0.        ],['Ti0' 'Aw' 'Ci' 'e11' 'p11' 'Ria'],6205.1912668412,1.0404049903320072
chicago_control_concrete_inf_schedFalse_job61,57.114149505653685,42.6819609074135,1410.7776918514032,191.8841965133953,2610249.0140007734,89.97395697914656,90.87345803819633,124.752229628048,0.840736296483859,"[ 16.85573438   3.1050872    0.8407363  -26.18530226  -1.88584446
   8.0158888 ]",[0.         0.         0.         0.08633037 0.         0.        ],['Ti0' 'Aw' 'Ci' 'e11' 'p11' 'Ria'],6246.97133855463,1.2303704612770048
chicago_control_concrete_inf_schedFalse_job190,65.22950167562419,47.221858480815634,1410.7595548121294,194.65443439997856,2540445.5347138653,89.97395697914656,90.86160732812776,130.518940501698,0.858273871801588,"[ 16.76286217   3.20350613   0.85827387 -26.15707014  -1.88236797
   7.66172324]",[0.         0.         0.         0.02231362 0.         0.        ],['Ti0' 'Aw' 'Ci' 'e11' 'p11' 'Ria'],6247.98662802777,0.9815439528409797
chicago_control_concrete_inf_schedFalse_job129,84.85366002643259,56.828129634359186,1412.742814283478,195.92166708723943,2560318.51970573,89.97395697914656,90.79529749663642,142.591392807312,0.8284205279255029,"[ 16.54852834   3.06207856   0.82842053 -26.22104825  -1.91453855
   7.01304602]",[0.         0.         0.         0.38616031 0.         0.        ],['Ti0' 'Aw' 'Ci' 'e11' 'p11' 'Ria'],6379.38180132321,0.9709581347900098
chicago_control_concrete_inf_schedFalse_job149,72.78508527950095,50.95979673370826,1412.1429015316958,193.1960204108409,2611178.0228091674,89.97395697914656,90.82726865276557,134.369167117286,0.830047169496915,"[ 16.67888706   2.99847367   0.83004717 -26.24474945  -1.92652999
   7.44218351]",[0.         0.         0.         0.67531587 0.         0.        ],['Ti0' 'Aw' 'Ci' 'e11' 'p11' 'Ria'],6411.0597755646995,0.9252151935669986
chicago_control_concrete_inf_schedFalse_job27,69.05809316476902,49.302270470753584,1410.7091210414746,196.3241760744448,2519135.1898884377,89.97395697914656,90.85416752151691,133.28386766636,0.867473349964038,"[ 16.7315202    3.29712828   0.86747335 -26.14316102  -1.87406156
   7.50278348]",[0.         0.         0.         0.68038419 0.         0.        ],['Ti0' 'Aw' 'Ci' 'e11' 'p11' 'Ria'],6220.333332426279,1.0681972963959936
chicago_control_concrete_inf_schedFalse_job106,82.15041704730137,55.66429773707823,1412.0360387771298,196.70145810287056,2522529.3697179323,89.97395697914656,90.8310358985613,139.721106941421,0.8289131163338991,"[ 16.61505549   3.04878962   0.82891312 -26.23644158  -1.92100449
   7.15711478]",[0.         0.         0.         0.89805109 0.         0.        ],['Ti0' 'Aw' 'Ci' 'e11' 'p11' 'Ria'],6398.41566674293,0.9277090411839879
chicago_control_concrete_inf_schedFalse_job85,54.74672589544546,41.336286232446234,1410.5083203379197,191.68385997818828,2593252.0031897286,89.97395697914656,90.88004462348526,123.15400654953599,0.839475062459159,"[ 16.88446665   3.11618463   0.83947506 -26.18630089  -1.88279379
   8.11991447]",[0.        0.        0.        0.9288688 0.        0.       ],['Ti0' 'Aw' 'Ci' 'e11' 'p11' 'Ria'],6235.098581792359,1.059343008596997
chicago_control_concrete_inf_schedFalse_job196,84.83417333895737,56.82717865921308,1412.1262275166685,196.02619404848386,2530635.271867392,89.97395697914656,90.83539523515495,139.094541144497,0.821558448212264,"[ 16.64095713   2.96936905   0.82155845 -26.24190237  -1.92957922
   7.18935475]",[0.         0.         0.         0.55833681 0.         0.        ],['Ti0' 'Aw' 'Ci' 'e11' 'p11' 'Ria'],6426.27639243719,0.9477006473490235
chicago_control_concrete_inf_schedFalse_job89,76.57589912169394,52.86929632177528,1412.2989967080462,194.26659205756488,2545743.421624439,89.97395697914656,90.82659122713179,136.72152768425,0.81295621500462,"[ 16.62100821   3.00792369   0.81295622 -26.19290066  -1.90009217
   7.31413711]",[0.         0.         0.         0.94788509 0.         0.        ],['Ti0' 'Aw' 'Ci' 'e11' 'p11' 'Ria'],6318.141095723559,0.9437795321869942
chicago_control_concrete_inf_schedFalse_job33,73.89627659568609,51.622597897875785,1411.8220394108716,194.90991693785264,2621448.327414606,89.97395697914656,90.82593025191149,136.538573741217,0.882817364241862,"[ 16.69401167   3.14951858   0.88281736 -26.28602165  -1.94544633
   7.32393764]",[0.         0.         0.         0.86324012 0.         0.        ],['Ti0' 'Aw' 'Ci' 'e11' 'p11' 'Ria'],6474.5722026636295,1.0628232536680002
chicago_control_concrete_inf_schedFalse_job156,63.360241970243784,46.18555065874328,1410.91221608844,193.78853280792734,2581749.2128771334,89.97395697914656,90.86583222116172,129.28047901098998,0.88317414915848,"[ 16.82083419   3.17978998   0.88317415 -26.2269653   -1.91370874
   7.73511985]",[0.         0.         0.         0.91281168 0.         0.        ],['Ti0' 'Aw' 'Ci' 'e11' 'p11' 'Ria'],6356.714865637671,1.0537224929830415
chicago_control_concrete_inf_schedFalse_job90,64.90233690894759,46.94273647695417,1411.3533516340462,192.8177428628169,2600056.70808017,89.97395697914656,90.85596245401831,129.76334115358,0.846841269441999,"[ 16.76122435   3.08058027   0.84684127 -26.20128526  -1.90547134
   7.70633671]",[0.         0.         0.         0.92877693 0.         0.        ],['Ti0' 'Aw' 'Ci' 'e11' 'p11' 'Ria'],6325.7116934441,0.9990233403389936
chicago_control_concrete_inf_schedFalse_job185,59.08468816493759,43.762437184231466,1411.0485647602945,191.67753930884442,2613557.631348228,89.97395697914656,90.86737176611526,125.099489716749,0.8433105478010591,"[ 16.85689394   3.06162146   0.84331055 -26.16992461  -1.89099316
   7.99363772]",[0.         0.         0.         0.04467144 0.         0.        ],['Ti0' 'Aw' 'Ci' 'e11' 'p11' 'Ria'],6264.57323442713,0.9961054146979791
chicago_control_concrete_inf_schedFalse_job130,63.82649093881657,46.331341368478114,1411.5389675932322,192.0218987135306,2599004.3575737095,89.97395697914656,90.85018133573416,128.61742461451402,0.8219912858050831,"[ 16.74977714   3.02842219   0.82199129 -26.18800202  -1.89316421
   7.7749963 ]",[0.         0.         0.         0.02408275 0.         0.        ],['Ti0' 'Aw' 'Ci' 'e11' 'p11' 'Ria'],6279.38039205975,0.999226753372966
chicago_control_concrete_inf_schedFalse_job116,62.62471883962232,45.72867849464533,1411.0292223298825,192.63083459003016,2579649.0730634495,89.97395697914656,90.86575990343674,128.035637740988,0.83557293478333,"[ 16.77437618   3.09179442   0.83557293 -26.1571527   -1.89035858
   7.81032545]",[0.         0.         0.         0.93240528 0.         0.        ],['Ti0' 'Aw' 'Ci' 'e11' 'p11' 'Ria'],6269.83911989848,0.9603731798790136
chicago_control_concrete_inf_schedFalse_job76,67.45269286585481,48.31183298820866,1411.0137603240153,193.61281289084062,2562961.6485762615,89.97395697914656,90.87433395565344,129.555068752632,0.8453740018960542,"[ 16.79005978   3.05881976   0.845374   -26.22134455  -1.91464705
   7.7187254 ]",[0.         0.         0.         0.81325632 0.         0.        ],['Ti0' 'Aw' 'Ci' 'e11' 'p11' 'Ria'],6361.1763056727395,0.9882542542050032
chicago_control_concrete_inf_schedFalse_job96,64.85276943066795,46.98297650668255,1411.0241579042581,193.94661934778762,2549862.8035598537,89.97395697914656,90.8675684805864,129.566245593108,0.84686327740239,"[ 16.78320355   3.12790289   0.84686328 -26.16484061  -1.88434677
   7.71805956]",[0.         0.         0.         0.87382973 0.         0.        ],['Ti0' 'Aw' 'Ci' 'e11' 'p11' 'Ria'],6253.77587041481,0.9971848134960055
chicago_control_concrete_inf_schedFalse_job46,74.33968544962619,51.85214600877896,1411.8377441224163,195.1012836531604,2580231.1152603207,89.97395697914656,90.83727331206917,136.037010569473,0.87017615680837,"[ 16.70833478   3.11386308   0.87017616 -26.26405453  -1.93519648
   7.35094072]","[0.00000000e+00 0.00000000e+00 0.00000000e+00 2.21894805e-08
 0.00000000e+00 0.00000000e+00]",['Ti0' 'Aw' 'Ci' 'e11' 'p11' 'Ria'],6440.06672608546,1.0458372320609897
chicago_control_concrete_inf_schedFalse_job154,69.82603824345298,49.582701389963916,1410.7308473857354,194.62194553537546,2532270.8366996762,89.97395697914656,90.88336551173745,129.903331518892,0.8377309254652571,"[ 16.80395114   3.04768816   0.83773093 -26.19359527  -1.89775779
   7.69803198]",[0.         0.         0.         0.02538236 0.         0.        ],['Ti0' 'Aw' 'Ci' 'e11' 'p11' 'Ria'],6304.44747723646,1.0177452215539802
chicago_control_concrete_inf_schedFalse_job164,70.16463591932809,49.70282908432805,1411.374883635332,193.8414199308328,2559731.6593829836,89.97395697914656,90.85783350621264,131.512014552987,0.826214066222948,"[ 16.73761732   3.05414747   0.82621407 -25.1536655   -1.888121
   7.60386801]",[0.         0.         0.         0.79333094 0.         0.        ],['Ti0' 'Aw' 'Ci' 'e11' 'p11' 'Ria'],6268.831146239329,1.0218371098699777
chicago_control_concrete_inf_schedFalse_job183,77.40472281933916,53.296923681761555,1412.192792002312,194.71989501984123,2566711.1633309824,89.97395697914656,90.80864816666215,138.252356630303,0.8302386478596351,"[ 16.60409233   3.07446101   0.83023865 -26.20870154  -1.9058463
   7.23314976]",[0.         0.         0.         0.31498053 0.         0.        ],['Ti0' 'Aw' 'Ci' 'e11' 'p11' 'Ria'],6341.874435159089,0.9280587607659925
chicago_control_concrete_inf_schedFalse_job143,55.51319649577477,41.76709142326677,1410.6133823849627,191.58379482505936,2590540.440886881,89.97395697914656,90.87639112628683,123.609063115217,0.8305173034204302,"[ 16.86176994   3.09699165   0.8305173  -26.16298549  -1.87691203
   8.09002168]",[0.         0.         0.         0.90791813 0.         0.        ],['Ti0' 'Aw' 'Ci' 'e11' 'p11' 'Ria'],6214.917896412429,1.0030472171649905
chicago_control_concrete_inf_schedFalse_job182,60.46838325455828,44.61380141365325,1410.8255040199142,193.49037926380973,2536458.4369654404,89.97395697914656,90.85145805773912,128.233634004691,0.8463410529477879,"[ 16.77214685   3.21749223   0.84634105 -26.11903418  -1.85729502
   7.79826609]",[0.         0.         0.         0.77638425 0.         0.        ],['Ti0' 'Aw' 'Ci' 'e11' 'p11' 'Ria'],6154.0768988687,1.0546312756499958
chicago_control_concrete_inf_schedFalse_job140,69.28725025282807,49.22597596564199,1411.4033586852195,193.3004588121072,2546539.5337939477,89.97395697914656,90.85268538378918,131.019471018883,0.81557113037843,"[ 16.72604034   3.03225971   0.81557113 -26.17764751  -1.8863657
   7.63245335]",[0.         0.         0.         0.89962702 0.         0.        ],['Ti0' 'Aw' 'Ci' 'e11' 'p11' 'Ria'],6260.745974049871,0.9940808068749902
chicago_control_concrete_inf_schedFalse_job30,67.57417024157847,48.454570256145345,1411.0052292520327,194.90823153963424,2566983.3965714434,89.97395697914656,90.84061894874792,132.751695423347,0.864775487044072,"[ 16.70926924   3.25598395   0.86477549 -26.17562736  -1.89271344
   7.53286048]",[0.         0.         0.         0.61563859 0.         0.        ],['Ti0' 'Aw' 'Ci' 'e11' 'p11' 'Ria'],6283.80653424018,1.0316801793460115
chicago_control_concrete_inf_schedFalse_job134,64.82228391009404,46.97206404360634,1411.226251868467,194.02961520082505,2561380.827879749,89.97395697914656,90.83698066452942,131.411056279168,0.8538252988751859,"[ 16.71840609   3.21407287   0.8538253  -26.15548255  -1.87933795
   7.60970978]",[0.         0.         0.         0.88849483 0.         0.        ],['Ti0' 'Aw' 'Ci' 'e11' 'p11' 'Ria'],6234.7861007540605,1.040942528843999
chicago_control_concrete_inf_schedFalse_job34,73.15896941098755,51.17723377156944,1412.1141541856366,193.6889744661737,2579977.0810101097,89.97395697914656,90.83077913735856,134.869336586159,0.8355167314492821,"[ 16.67418976   3.0220429    0.83551673 -26.2289344   -1.91828077
   7.41458381]",[0.         0.         0.         0.90746393 0.         0.        ],['Ti0' 'Aw' 'Ci' 'e11' 'p11' 'Ria'],6380.85338657828,0.9442649052309946
chicago_control_concrete_inf_schedFalse_job52,64.3676556120379,46.72203530484167,1411.1316306827728,193.84454209094315,2578457.4034618153,89.97395697914656,90.84689231817264,130.723314624072,0.8701954904421659,"[ 16.75670079   3.20531032   0.87019549 -26.18695927  -1.89587982
   7.64974483]",[0.         0.         0.         0.85940598 0.         0.        ],['Ti0' 'Aw' 'Ci' 'e11' 'p11' 'Ria'],6292.477929763199,1.0431157481089883
chicago_control_concrete_inf_schedFalse_job107,64.64994102281776,46.77044307113078,1411.4074291478535,192.13795009214482,2602660.168912279,89.97395697914656,90.85688292931987,128.268801390613,0.8428117833049509,"[ 16.79860664   3.03751894   0.84281178 -26.20909048  -1.91017809
   7.79612805]",[0.         0.         0.         0.01098135 0.         0.        ],['Ti0' 'Aw' 'Ci' 'e11' 'p11' 'Ria'],6339.41371335178,1.0369706364309934
chicago_control_concrete_inf_schedFalse_job109,81.07514452879398,55.134429202139,1411.6264454630414,196.2767092085806,2529452.832002448,89.97395697914656,90.86019435049354,136.32052052952298,0.83370628613504,"[ 16.70839782   2.99114755   0.83370629 -26.23307258  -1.91969811
   7.33565274]",[0.         0.         0.         0.05988117 0.         0.        ],['Ti0' 'Aw' 'Ci' 'e11' 'p11' 'Ria'],6388.347143500479,0.937918309840029
chicago_control_concrete_inf_schedFalse_job79,82.37826422919552,55.75928035161335,1412.0098841026315,196.58339786245045,2526786.599109346,89.97395697914656,90.83096704324157,139.653543360995,0.839279939398461,"[ 16.63746252   3.05124959   0.83927994 -26.24327999  -1.92011741
   7.16057735]",[0.         0.         0.         0.24458939 0.         0.        ],['Ti0' 'Aw' 'Ci' 'e11' 'p11' 'Ria'],6394.24057061611,0.9916085475329908
chicago_control_concrete_inf_schedFalse_job184,75.03123755686269,52.17517518622519,1411.6813655776086,194.9300425667876,2623600.7100732997,89.97395697914656,90.82657868568646,136.1999919784,0.8876645934013209,"[ 16.71398454   3.15871968   0.88766459 -26.28372525  -1.94897569
   7.34214434]",[0.         0.         0.         0.08709795 0.         0.        ],['Ti0' 'Aw' 'Ci' 'e11' 'p11' 'Ria'],6486.440383500129,1.051168768693998
chicago_control_concrete_inf_schedFalse_job91,57.62889342709804,43.036171033983294,1410.5668713884427,193.23946670153882,2591427.1646053963,89.97395697914656,90.86376343123645,126.565484622146,0.8882156264938,"[ 16.87153585   3.25824994   0.88821563 -26.19048076  -1.89237881
   7.90104824]",[0.         0.         0.         0.91949093 0.         0.        ],['Ti0' 'Aw' 'Ci' 'e11' 'p11' 'Ria'],6273.18667584526,0.9493973050360012
chicago_control_concrete_inf_schedFalse_job171,63.6197105960064,46.228449236739785,1411.222694306622,192.1341535843855,2617065.3929778957,89.97395697914656,90.86123367328557,127.681165626178,0.8449655391237659,"[ 16.81542184   3.05283709   0.84496554 -26.19843517  -1.90417096
   7.8320087 ]",[0.         0.         0.         0.13659506 0.         0.        ],['Ti0' 'Aw' 'Ci' 'e11' 'p11' 'Ria'],6316.58008437685,0.9702073640769981
chicago_control_concrete_inf_schedFalse_job100,65.27595147234346,47.18343138925328,1410.909277698304,193.59060114383274,2553410.5481190532,89.97395697914656,90.87374029491342,128.70036655004802,0.845725263229568,"[ 16.80941641   3.10732051   0.84572526 -26.1865002   -1.88893163
   7.76998564]",[0.         0.         0.         0.02400724 0.         0.        ],['Ti0' 'Aw' 'Ci' 'e11' 'p11' 'Ria'],6267.5377367047995,0.9796078410319922
chicago_control_concrete_inf_schedFalse_job59,65.20972852332228,47.196520474287745,1410.6607543422117,194.4020067270499,2505345.9029670306,89.97395697914656,90.87791467346653,128.81553685844102,0.8484457782949941,"[ 16.81566771   3.14497678   0.84844578 -26.12977974  -1.86224176
   7.76303872]",[0.         0.         0.         0.70337653 0.         0.        ],['Ti0' 'Aw' 'Ci' 'e11' 'p11' 'Ria'],6176.95114392719,1.0639335653109754
chicago_control_concrete_inf_schedFalse_job22,76.9239235711425,53.16512581867892,1411.1910892194007,196.04597313015665,2517431.57716193,89.97395697914656,90.87016817659858,134.415119603187,0.8583394154754741,"[ 16.76893723   3.05541319   0.85833942 -26.2336139   -1.92048008
   7.43963925]",[0.         0.         0.         0.81612609 0.         0.        ],['Ti0' 'Aw' 'Ci' 'e11' 'p11' 'Ria'],6385.78432628302,1.0009777235819968
chicago_control_concrete_inf_schedFalse_job10,57.1984096813301,42.740285109328546,1410.751660814408,192.11246542238862,2636687.6756487205,89.97395697914656,90.87015796622504,124.551820140345,0.866503823388653,"[ 16.90301321   3.1320616    0.86650382 -26.20978807  -1.90013457
   8.02878672]",[0.         0.         0.         0.72267976 0.         0.        ],['Ti0' 'Aw' 'Ci' 'e11' 'p11' 'Ria'],6300.59346778971,1.0067268488340062
chicago_control_concrete_inf_schedFalse_job55,67.1991124600534,48.20583872469335,1411.4829133747012,193.99577566965598,2562297.737754357,89.97395697914656,90.83635460167565,132.49356408134,0.8589852379112071,"[ 16.71959489   3.17331455   0.85898524 -26.17308944  -1.89040258
   7.54753642]",[0.         0.         0.         0.89811831 0.         0.        ],['Ti0' 'Aw' 'Ci' 'e11' 'p11' 'Ria'],6275.822626226371,1.0552131094000003
chicago_control_concrete_inf_schedFalse_job7,78.11381470910628,53.87933929267725,1410.729429212517,198.0470964959121,2514356.3257742934,89.97395697914656,90.85597531100338,136.875663159683,0.8833522515371971,"[ 16.72545469   3.23208352   0.88335225 -26.29185116  -1.95303481
   7.30590068]",[0.         0.         0.         0.48489853 0.         0.        ],['Ti0' 'Aw' 'Ci' 'e11' 'p11' 'Ria'],6496.32159812006,1.0241229836690025
chicago_control_concrete_inf_schedFalse_job37,87.6304717575767,58.15796269023454,1412.132336948105,197.0503328487089,2506791.4071636293,89.97395697914656,90.83631967289708,140.361153457501,0.803188474814115,"[ 16.60670495   2.94250939   0.80318847 -26.20506092  -1.90790281
   7.12447836]",[0.         0.         0.         0.55306703 0.         0.        ],['Ti0' 'Aw' 'Ci' 'e11' 'p11' 'Ria'],6356.851208610539,0.9440815307640094
chicago_control_concrete_inf_schedFalse_job31,51.01645375432617,39.153149739308674,1410.3940077533111,191.19770292707128,2634950.22582816,89.97395697914656,90.89145946734384,120.67661017663099,0.86203218845842,"[ 16.98529989   3.1311331    0.86203219 -26.20924789  -1.90186789
   8.28660996]",[0.         0.         0.         0.81551419 0.         0.        ],['Ti0' 'Aw' 'Ci' 'e11' 'p11' 'Ria'],6296.426533393929,1.0357223948089995
chicago_control_concrete_inf_schedFalse_job110,59.22569622046479,43.942335037140005,1410.6416276558905,193.66194237469026,2560265.5926420395,89.97395697914656,90.85418394979322,127.968832438521,0.87084045358077,"[ 16.80395601   3.27155417   0.87084045 -26.17302886  -1.88285892
   7.81440278]",[0.         0.         0.         0.58652572 0.         0.        ],['Ti0' 'Aw' 'Ci' 'e11' 'p11' 'Ria'],6241.33460403379,1.0866100455940142
chicago_control_concrete_inf_schedFalse_job188,85.00554886018836,57.00763757598877,1411.9142382471146,197.26538968760903,2563740.7052267804,89.97395697914656,90.81225009838026,141.753580732154,0.854456777505759,"[ 16.60324135   3.15174047   0.85445678 -26.30818913  -1.96020521
   7.05449552]",[0.        0.        0.        0.9432211 0.        0.       ],['Ti0' 'Aw' 'Ci' 'e11' 'p11' 'Ria'],6528.68763224755,0.9607538521059951
chicago_control_concrete_inf_schedFalse_job165,70.8052299267768,50.03761852493743,1411.5809294648363,194.05087235853202,2562016.686216115,89.97395697914656,90.85345894711021,132.89578229420098,0.842336349396359,"[ 16.7196285    3.05005185   0.84233635 -26.23188992  -1.92048941
   7.52469328]",[0.         0.         0.         0.63770478 0.         0.        ],['Ti0' 'Aw' 'Ci' 'e11' 'p11' 'Ria'],6385.28214161088,0.9799846660770015
chicago_control_concrete_inf_schedFalse_job32,72.90724924680174,51.11704308273111,1411.7464605520538,194.6075328831746,2543202.2567002582,89.97395697914656,90.83360007997757,135.20031662276898,0.832620198412412,"[ 16.66671712   3.09480472   0.8326202  -26.18545127  -1.89394908
   7.39643238]",[0.         0.         0.         0.93468411 0.         0.        ],['Ti0' 'Aw' 'Ci' 'e11' 'p11' 'Ria'],6296.3944040395,1.0033119610020265
chicago_control_concrete_inf_schedFalse_job138,73.52729115486612,51.486356393162794,1411.6135763058478,195.5485390562999,2561111.3106231266,89.97395697914656,90.81570706574739,137.185051260148,0.851709357171095,"[ 16.61457721   3.21933441   0.85170936 -26.2029602   -1.90760543
   7.28942396]",[0.        0.        0.        0.7703436 0.        0.       ],['Ti0' 'Aw' 'Ci' 'e11' 'p11' 'Ria'],6340.376753428161,1.7875220574610182
chicago_control_concrete_inf_schedFalse_job63,56.05769249380419,42.11985804105563,1410.5174827255262,192.5281439409657,2607406.1740453993,89.97395697914656,90.8750987915128,124.716075404159,0.8802935108047171,"[ 16.91078495   3.18837026   0.88029351 -26.19934143  -1.89612436
   8.01821254]",[0.         0.         0.         0.76888784 0.         0.        ],['Ti0' 'Aw' 'Ci' 'e11' 'p11' 'Ria'],6287.5284267448205,1.1176123301979999
chicago_control_concrete_inf_schedFalse_job191,70.8156582405373,50.120361769205,1411.0454210945047,195.23220402800624,2521172.2736736895,89.97395697914656,90.86805489045504,132.13640008979098,0.835926409146545,"[ 16.75320178   3.08072485   0.83592641 -26.16222207  -1.88293497
   7.56793737]",[0.         0.         0.         0.79517201 0.         0.        ],['Ti0' 'Aw' 'Ci' 'e11' 'p11' 'Ria'],6254.1827657227395,1.0116359445000285
chicago_control_concrete_inf_schedFalse_job157,81.52892538971383,55.18701531721206,1412.649003755802,194.29816204745288,2600894.827104799,89.97395697914656,90.81236221165229,139.396869396511,0.8174857811823321,"[ 16.58789141   2.96033353   0.81748578 -26.25946969  -1.93770507
   7.17376225]",[0.         0.         0.         0.90078349 0.         0.        ],['Ti0' 'Aw' 'Ci' 'e11' 'p11' 'Ria'],6457.46766475291,0.9620299071659986
chicago_control_concrete_inf_schedFalse_job99,74.87731176490581,52.07787652938354,1412.001918528591,194.60488477057092,2637139.474722359,89.97395697914656,90.81642691252804,136.921894270064,0.8764550257555279,"[ 16.68301957   3.11653907   0.87645503 -26.2874403   -1.94542902
   7.30343387]",[0.         0.         0.         0.94229072 0.         0.        ],['Ti0' 'Aw' 'Ci' 'e11' 'p11' 'Ria'],6475.3776641288005,1.0175289256829956
chicago_control_concrete_inf_schedFalse_job118,71.28659783803444,50.342236689377884,1411.4853568948859,195.0199625140136,2614500.9098652494,89.97395697914656,90.81868238018757,135.771416395223,0.8654574801868109,"[ 16.65593362   3.2125935    0.86545748 -26.22935954  -1.92024784
   7.36532053]",[0.         0.         0.         0.54762165 0.         0.        ],['Ti0' 'Aw' 'Ci' 'e11' 'p11' 'Ria'],6383.41443155287,1.0058518426039882
chicago_control_concrete_inf_schedFalse_job117,62.3060932856948,45.61758831228416,1411.0833469841346,193.68961808445613,2575654.1983984793,89.97395697914656,90.84681778378071,129.795073711156,0.880883265134982,"[ 16.78210955   3.23104355   0.88088327 -26.19078049  -1.90102563
   7.70445265]",[0.         0.         0.         0.72233279 0.         0.        ],['Ti0' 'Aw' 'Ci' 'e11' 'p11' 'Ria'],6306.724802877379,1.0687107900319859
chicago_control_concrete_inf_schedFalse_job166,67.19922766485652,48.25322234486431,1410.9790256692406,194.77407924257042,2523127.0638319044,89.97395697914656,90.86193226415413,131.215702598541,0.8505529156477429,"[ 16.76505878   3.16431835   0.85055292 -26.13871533  -1.86770084
   7.6210391 ]",[0.         0.         0.         0.16491126 0.         0.        ],['Ti0' 'Aw' 'Ci' 'e11' 'p11' 'Ria'],6199.48358683381,0.9833051663780168
chicago_control_concrete_inf_schedFalse_job144,54.70651307528831,41.328828830759605,1410.457580355608,192.0183218736269,2573913.5054746238,89.97395697914656,90.8884941508709,123.16982229375401,0.86747400867313,"[ 16.92722281   3.16396957   0.86747401 -26.19593572  -1.89354035
   8.11887183]",[0.         0.         0.         0.26508555 0.         0.        ],['Ti0' 'Aw' 'Ci' 'e11' 'p11' 'Ria'],6273.84289295053,1.0414812799419906
chicago_control_concrete_inf_schedFalse_job71,69.9603172426652,49.64653382202785,1411.6136627677506,194.54622469034214,2545158.4527377905,89.97395697914656,90.83489151269838,133.914125419044,0.852364567625351,"[ 16.69576982   3.16138646   0.85236457 -26.17029719  -1.88695078
   7.46747213]",[0.         0.         0.         0.39555997 0.         0.        ],['Ti0' 'Aw' 'Ci' 'e11' 'p11' 'Ria'],6268.83862679068,1.0540880002989752
chicago_control_concrete_inf_schedFalse_job153,60.855093563335764,44.836010635660095,1410.7978908959906,193.71571342712988,2643843.778653419,89.97395697914656,90.85065051882948,129.032665977711,0.89712587451004,"[ 16.81900412   3.26161243   0.89712587 -26.23090879  -1.91522486
   7.7499755 ]",[0.         0.         0.         0.94364046 0.         0.        ],['Ti0' 'Aw' 'Ci' 'e11' 'p11' 'Ria'],6357.645976226159,1.1063587501290044
chicago_control_concrete_inf_schedFalse_job40,71.08245979441979,50.12438957453927,1411.633354355346,193.2815261005404,2595946.4891254273,89.97395697914656,90.83941416567932,132.268968004951,0.834540505996029,"[ 16.74786401   3.03270849   0.83454051 -26.20625318  -1.90384739
   7.56035233]",[0.         0.         0.         0.89236403 0.         0.        ],['Ti0' 'Aw' 'Ci' 'e11' 'p11' 'Ria'],6327.235667392329,0.9629807893079771
chicago_control_concrete_inf_schedFalse_job35,69.09016731766658,49.15845705617848,1411.432213194179,193.79695025294285,2581715.888286074,89.97395697914656,90.83376507930423,132.386794142331,0.85477794201089,"[ 16.73111382   3.14263988   0.85477794 -26.19394953  -1.90172567
   7.55362351]",[0.         0.         0.         0.91376461 0.         0.        ],['Ti0' 'Aw' 'Ci' 'e11' 'p11' 'Ria'],6318.30414233709,1.0389907964829774
chicago_control_concrete_inf_schedFalse_job159,91.12425819989934,59.863615490058,1412.2147367750879,199.1038843330766,2494065.2692891397,89.97395697914656,90.82125145612878,144.285831509748,0.8396208579199781,"[ 16.58678709   3.09885376   0.83962086 -26.21398301  -1.90857582
   6.93068744]",[0.         0.         0.         0.75405523 0.         0.        ],['Ti0' 'Aw' 'Ci' 'e11' 'p11' 'Ria'],6356.7251294952,0.9732530378039996
chicago_control_concrete_inf_schedFalse_job66,85.44690640420076,57.34816830593247,1411.4029227042147,198.97884783934532,2487390.4762330125,89.97395697914656,90.84251770222562,140.72433098758802,0.850095502569332,"[ 16.65271872   3.14947941   0.8500955  -26.17962862  -1.89326744
   7.1060917 ]",[0.         0.         0.         0.94771455 0.         0.        ],['Ti0' 'Aw' 'Ci' 'e11' 'p11' 'Ria'],6294.62667323193,1.0190529699209776
chicago_control_concrete_inf_schedFalse_job194,55.136802376216316,41.568828164137116,1410.4655314190295,191.909282068509,2620576.5504714227,89.97395697914656,90.88541001039837,123.476759318792,0.8682572880299508,"[ 16.92343545   3.15543628   0.86825729 -26.19222878  -1.89897168
   8.09869003]",[0.         0.         0.         0.18531163 0.         0.        ],['Ti0' 'Aw' 'Ci' 'e11' 'p11' 'Ria'],6292.41884161568,1.3324210829949834
chicago_control_concrete_inf_schedFalse_job124,59.497394052272575,44.07115495226913,1410.7955729856653,193.2628662410792,2577478.598222495,89.97395697914656,90.86131573434771,127.500450937883,0.878114003200451,"[ 16.83864666   3.22215876   0.878114   -26.18478224  -1.89007829
   7.84310952]",[0.         0.         0.         0.58591215 0.         0.        ],['Ti0' 'Aw' 'Ci' 'e11' 'p11' 'Ria'],6268.2679771885705,1.039691528559004
chicago_control_concrete_inf_schedFalse_job197,60.157379623368655,44.40994372096163,1410.8744928281478,192.84042064628483,2597539.473395058,89.97395697914656,90.86589120801929,126.712187175863,0.877763242648391,"[ 16.87558197   3.16894756   0.87776324 -26.20449005  -1.90405594
   7.89190071]",[0.         0.         0.         0.28467992 0.         0.        ],['Ti0' 'Aw' 'Ci' 'e11' 'p11' 'Ria'],6318.23569353785,0.9620504974900115
chicago_control_concrete_inf_schedFalse_job163,87.08840823452275,57.98256464748326,1411.9905062858707,197.79422618858487,2529170.430627834,89.97395697914656,90.82748427903898,141.673549954951,0.8687483613722778,"[ 16.65844315   3.10445584   0.86874836 -26.29541905  -1.95387572
   7.05848057]",[0.         0.         0.         0.57182199 0.         0.        ],['Ti0' 'Aw' 'Ci' 'e11' 'p11' 'Ria'],6508.59258993166,1.002910652037997
chicago_control_concrete_inf_schedFalse_job43,57.56126694737847,42.93044136923681,1410.818121546645,191.86888489604047,2638598.8950033826,89.97395697914656,90.87705689786898,124.818299613016,0.8755654556710981,"[ 16.9005553    3.11909277   0.87556546 -26.22582609  -1.91450946
   8.01164575]",[0.         0.         0.         0.04570646 0.         0.        ],['Ti0' 'Aw' 'Ci' 'e11' 'p11' 'Ria'],6348.81019746089,1.076727232720998
chicago_control_concrete_inf_schedFalse_job87,86.52787784579806,57.788957646122036,1411.623814157202,198.45321800536212,2484288.675805437,89.97395697914656,90.83806340772851,140.657841750386,0.8320379621482751,"[ 16.63743475   3.09094496   0.83203796 -26.16861053  -1.88485863
   7.10945076]",[0.         0.         0.         0.81138013 0.         0.        ],['Ti0' 'Aw' 'Ci' 'e11' 'p11' 'Ria'],6267.3069321545,1.010828509154976
chicago_control_concrete_inf_schedFalse_job62,52.812989413676526,40.22084243186037,1410.3612087512702,191.60915331720085,2616393.0765327746,89.97395697914656,90.8864354355429,122.001355289006,0.857089146405351,"[ 16.94263875   3.13423357   0.85708915 -26.18111302  -1.88815733
   8.19663026]",[0.         0.         0.         0.00381289 0.         0.        ],['Ti0' 'Aw' 'Ci' 'e11' 'p11' 'Ria'],6250.16644925034,1.006070582367002
chicago_control_concrete_inf_schedFalse_job94,55.35499832236077,41.72544190666481,1410.4418684656152,192.60476650780944,2617287.7706010104,89.97395697914656,90.87102700188856,124.70610016008999,0.8812004910671041,"[ 16.90419423   3.21860708   0.88120049 -26.1973159   -1.89555594
   8.01885392]",[0.         0.         0.         0.42948474 0.         0.        ],['Ti0' 'Aw' 'Ci' 'e11' 'p11' 'Ria'],6282.0455773782,1.061516498692015
chicago_control_concrete_inf_schedFalse_job54,54.07996845309845,40.956249036026996,1410.467990609184,191.71121728086942,2565515.0151732382,89.97395697914656,90.87983972326194,122.798973435722,0.8240033205741709,"[ 16.87336445   3.11028624   0.82400332 -26.13879786  -1.86360571
   8.14339055]",[0.         0.         0.         0.07603985 0.         0.        ],['Ti0' 'Aw' 'Ci' 'e11' 'p11' 'Ria'],6168.2970933727,0.9165008074429863
chicago_control_concrete_inf_schedFalse_job82,63.58551400676207,46.29920718700345,1410.7148249264178,193.68850546931301,2553995.6813968443,89.97395697914656,90.87270968457055,128.474459963731,0.8572431847893309,"[ 16.80809942   3.13679911   0.85724318 -26.20334877  -1.90320878
   7.78364821]",[0.         0.         0.         0.58757947 0.         0.        ],['Ti0' 'Aw' 'Ci' 'e11' 'p11' 'Ria'],6323.641215129771,1.0183601025800044
chicago_control_concrete_inf_schedFalse_job169,58.80531954443881,43.65214670518639,1410.8416502392126,192.5179899124409,2634185.6595059307,89.97395697914656,90.8607918255197,126.41265299681001,0.8735145952934721,"[ 16.8530374    3.15729468   0.8735146  -26.21751134  -1.90428656
   7.91060053]",[0.         0.         0.         0.94576501 0.         0.        ],['Ti0' 'Aw' 'Ci' 'e11' 'p11' 'Ria'],6318.86005075404,1.097130875570997
chicago_control_concrete_inf_schedFalse_job108,71.76371493676737,50.5321586545779,1411.819303357777,194.3085608346334,2575006.910193786,89.97395697914656,90.82130968734495,134.921936452153,0.855658104457328,"[ 16.67266955   3.14400055   0.8556581  -26.22656638  -1.91635996
   7.41169321]",[0.         0.         0.         0.81208709 0.         0.        ],['Ti0' 'Aw' 'Ci' 'e11' 'p11' 'Ria'],6372.0969396378605,1.049444052256007
chicago_control_concrete_inf_schedFalse_job136,55.71711493261286,41.93915737004076,1410.4275948948566,192.7802358189783,2579332.4363100305,89.97395697914656,90.87477806976686,124.771203441012,0.8708775371986359,"[ 16.89249483   3.2183424    0.87087754 -26.17431244  -1.88168882
   8.01466983]",[0.         0.         0.         0.92162333 0.         0.        ],['Ti0' 'Aw' 'Ci' 'e11' 'p11' 'Ria'],6234.78237139616,1.2418397081920034
chicago_control_concrete_inf_schedFalse_job173,62.8120742122354,45.837333787228324,1411.09219147039,192.7859205205378,2575950.3685615063,89.97395697914656,90.86228145125064,128.083978720593,0.846001026627481,"[ 16.79409484   3.10791978   0.84600103 -26.18060982  -1.89361254
   7.80737771]",[0.         0.         0.         0.84739822 0.         0.        ],['Ti0' 'Aw' 'Ci' 'e11' 'p11' 'Ria'],6282.84761312288,1.1048279048229972
chicago_control_concrete_inf_schedFalse_job181,56.343678079773206,42.26330651841588,1410.641570472791,192.157306082591,2562577.865615584,89.97395697914656,90.87846408958033,124.285829856445,0.834643243498728,"[ 16.85925648   3.13100016   0.83464324 -26.1422621   -1.86436143
   8.04596953]",[0.         0.         0.         0.88761934 0.         0.        ],['Ti0' 'Aw' 'Ci' 'e11' 'p11' 'Ria'],6172.1398051673905,1.0292026178439926
chicago_control_concrete_inf_schedFalse_job193,72.48334390661735,50.908887593799264,1411.4631703974026,194.62151983993996,2526192.0383603815,89.97395697914656,90.8521767092269,133.043907832758,0.824637752972008,"[ 16.72536832   3.06209197   0.82463775 -26.15449458  -1.87833745
   7.5163156 ]",[0.         0.         0.         0.63015335 0.         0.        ],['Ti0' 'Aw' 'Ci' 'e11' 'p11' 'Ria'],6239.552925884821,1.0444777565519985
chicago_control_concrete_inf_schedFalse_job57,63.755171125514096,46.35540339237058,1411.3042033273043,193.09151437897305,2533553.1369353374,89.97395697914656,90.85322215701177,129.46787688655002,0.83458665633167,"[ 16.74501453   3.10847198   0.83458666 -26.1473493   -1.87523252
   7.72392368]",[0.      0.      0.      0.72369 0.      0.     ],['Ti0' 'Aw' 'Ci' 'e11' 'p11' 'Ria'],6220.056059834499,1.018428978911004
chicago_control_concrete_inf_schedFalse_job120,75.98899554851587,52.58656086574775,1412.1650494508615,194.23764120928848,2546918.595159868,89.97395697914656,90.8312783764798,136.194661911467,0.8117666765807371,"[ 16.6308188    3.00861106   0.81176668 -26.21067554  -1.90738022
   7.34243168]",[0.         0.         0.         0.01472114 0.         0.        ],['Ti0' 'Aw' 'Ci' 'e11' 'p11' 'Ria'],6347.12531462621,0.9503404433669971
chicago_control_concrete_inf_schedFalse_job131,60.104146239465585,44.444171189725324,1410.4781469092718,194.04771755164742,2552243.794255691,89.97395697914656,90.85721354695106,128.382341887831,0.8660421635514229,"[ 16.79196227   3.28499763   0.86604216 -26.13925538  -1.86572825
   7.7892332 ]",[0.         0.         0.         0.68548479 0.         0.        ],['Ti0' 'Aw' 'Ci' 'e11' 'p11' 'Ria'],6183.956343569871,1.0617684817030124
chicago_control_concrete_inf_schedFalse_job4,71.267940571131,50.14764459912751,1411.8827827465757,192.26009557049463,2657266.4117457354,89.97395697914656,90.83650154310833,131.935706800664,0.832921753208345,"[ 16.72890508   2.97489899   0.83292175 -26.24918119  -1.93052564
   7.5794493 ]",[0.         0.         0.         0.93045107 0.         0.        ],['Ti0' 'Aw' 'Ci' 'e11' 'p11' 'Ria'],6416.48224374673,0.9383759664480067
chicago_control_concrete_inf_schedFalse_job86,62.39029097734943,45.60919554953571,1410.9739610820513,192.7325208208556,2556815.4091334813,89.97395697914656,90.86636423788109,127.90602269149099,0.823144398785751,"[ 16.7613328    3.09046932   0.8231444  -26.14145526  -1.8718602
   7.81824013]",[0.         0.         0.         0.90159581 0.         0.        ],['Ti0' 'Aw' 'Ci' 'e11' 'p11' 'Ria'],6205.84277989496,1.0032540245610164
chicago_control_concrete_inf_schedFalse_job160,81.17775731077829,55.23423999654388,1411.6245015114043,196.9409998433917,2529024.6449131635,89.97395697914656,90.84842063975209,137.996486038519,0.8528151246171228,"[ 16.68822607   3.04482654   0.85281512 -26.26985203  -1.94075245
   7.24656133]",[0.         0.         0.         0.85147101 0.         0.        ],['Ti0' 'Aw' 'Ci' 'e11' 'p11' 'Ria'],6462.79563812,0.9975157068539886
chicago_control_concrete_inf_schedFalse_job105,69.48706104558728,49.2966755202641,1411.9530236135865,192.82921104033383,2594917.802663649,89.97395697914656,90.83334297236587,132.570174536195,0.8174398230800842,"[ 16.69012948   3.00515267   0.81743982 -26.19584562  -1.89946887
   7.5431748 ]",[0.         0.         0.         0.94445494 0.         0.        ],['Ti0' 'Aw' 'Ci' 'e11' 'p11' 'Ria'],6309.927396069251,0.9925176184979989
chicago_control_concrete_inf_schedFalse_job127,80.3962420077315,54.68333796070288,1412.616467258749,194.52197033115917,2600549.361200413,89.97395697914656,90.80411441756651,139.521419515091,0.841337969357996,"[ 16.60976613   3.01191973   0.84133797 -26.27176485  -1.94134976
   7.16735827]",[0.         0.         0.         0.31014222 0.         0.        ],['Ti0' 'Aw' 'Ci' 'e11' 'p11' 'Ria'],6467.2536558007205,0.9114595183359882
chicago_control_concrete_inf_schedFalse_job6,64.66811202406053,46.81701541253593,1411.2303614632,192.76803677472242,2579005.7190123736,89.97395697914656,90.8576141964676,129.458616097017,0.837270347191174,"[ 16.74756795   3.07365445   0.83727035 -26.18955835  -1.89901604
   7.72447621]",[0.         0.         0.         0.72384364 0.         0.        ],['Ti0' 'Aw' 'Ci' 'e11' 'p11' 'Ria'],6300.8567230125,1.0085835796699882
chicago_control_concrete_inf_schedFalse_job180,71.33539929256287,50.35126555551569,1411.3947151294876,194.79244294066365,2575652.361601498,89.97395697914656,90.83305593448928,134.18892018981,0.8692242575706829,"[ 16.72013188   3.19712811   0.86922426 -26.19636044  -1.90191214
   7.45218009]",[0.         0.         0.         0.49071542 0.         0.        ],['Ti0' 'Aw' 'Ci' 'e11' 'p11' 'Ria'],6317.81971145239,1.063619852334
chicago_control_concrete_inf_schedFalse_job12,57.89988146623585,43.15093342200677,1410.6039748381954,192.5164615309972,2558708.2447662572,89.97395697914656,90.87934333688298,125.307847296676,0.845396188862886,"[ 16.84670058   3.14344683   0.84539619 -26.1773838   -1.87934204
   7.98034618]",[0.         0.         0.         0.81949944 0.         0.        ],['Ti0' 'Aw' 'Ci' 'e11' 'p11' 'Ria'],6228.60681831316,0.9909777992170063
chicago_control_concrete_inf_schedFalse_job65,61.21752254168983,45.048286366644795,1410.691870731434,194.01132117666012,2595231.7186778397,89.97395697914656,90.85589284999605,129.200157027967,0.900811323870894,"[ 16.82320352   3.28478473   0.90081132 -26.21203515  -1.90267522
   7.73992867]",[0.         0.         0.         0.89307435 0.         0.        ],['Ti0' 'Aw' 'Ci' 'e11' 'p11' 'Ria'],6314.845959355141,1.0711494745359857
chicago_control_concrete_inf_schedFalse_job64,54.44784614966995,41.177574054268,1410.5572774944474,191.9413645380207,2606471.775051821,89.97395697914656,90.87692382425341,123.398010447587,0.86558183374957,"[ 16.91491628   3.14410602   0.86558183 -26.19304746  -1.8931559
   8.10385837]",[0.         0.         0.         0.92648424 0.         0.        ],['Ti0' 'Aw' 'Ci' 'e11' 'p11' 'Ria'],6271.2401902228,1.0141932492719974
chicago_control_concrete_inf_schedFalse_job111,72.27368621062237,50.751613014460006,1411.9593599501306,193.8256018728994,2589961.7618514644,89.97395697914656,90.82885185136104,134.59429467226602,0.84660613448169,"[ 16.68936699   3.06157873   0.84660613 -26.22210386  -1.91800934
   7.42973543]",[0.         0.         0.         0.93080842 0.         0.        ],['Ti0' 'Aw' 'Ci' 'e11' 'p11' 'Ria'],6380.38141366664,1.0116848665940097
chicago_control_concrete_inf_schedFalse_job68,53.93124714131498,40.87530291812349,1410.467592553658,191.8082757058825,2610459.208260022,89.97395697914656,90.88230658630553,122.82049306742901,0.854436238307118,"[ 16.92156822   3.13411155   0.85443624 -26.1907932   -1.88747158
   8.14196373]",[0.         0.         0.         0.34917568 0.         0.        ],['Ti0' 'Aw' 'Ci' 'e11' 'p11' 'Ria'],6249.99808953942,1.082267431670985
chicago_control_concrete_inf_schedFalse_job60,77.93613931301012,53.61017882062226,1411.9697475669918,195.5444903306297,2590811.3543123947,89.97395697914656,90.82419979397484,138.031667262979,0.8660305936980909,"[ 16.66157105   3.12133093   0.86603059 -26.27963195  -1.94481128
   7.24471435]",[0.         0.         0.         0.54312662 0.         0.        ],['Ti0' 'Aw' 'Ci' 'e11' 'p11' 'Ria'],6476.822423487789,0.9805009124389983
chicago_control_concrete_inf_schedFalse_job75,74.51733928804998,51.87398326054788,1412.1828030852002,194.18730653194163,2619723.275440233,89.97395697914656,90.82215045052443,136.29306383120002,0.8577786468360842,"[ 16.68236483   3.06217314   0.85777865 -26.26223478  -1.93691519
   7.33713053]",[0.         0.         0.         0.91908854 0.         0.        ],['Ti0' 'Aw' 'Ci' 'e11' 'p11' 'Ria'],6447.19595798182,1.0461980218459814
chicago_control_concrete_inf_schedFalse_job132,55.33386880849611,41.685128320820354,1410.7764559126351,191.99654686195097,2548798.1632038034,89.97395697914656,90.87438636340994,123.767541315625,0.8271237198360909,"[ 16.86627912   3.11301532   0.82712372 -27.08806408  -1.86415704
   8.0796628 ]",[0.         0.         0.         0.90828083 0.         0.        ],['Ti0' 'Aw' 'Ci' 'e11' 'p11' 'Ria'],6173.647376344301,1.012133372761994
chicago_control_concrete_inf_schedFalse_job18,65.33364347894315,47.213102021984426,1411.2605018364375,193.57617175641388,2623214.0694151004,89.97395697914656,90.84700012692618,130.949777895376,0.8831182877348459,"[ 16.78901665   3.16248885   0.88311829 -26.22243497  -1.91309427
   7.63651543]","[0.00000000e+00 0.00000000e+00 0.00000000e+00 3.79145066e-06
 0.00000000e+00 0.00000000e+00]",['Ti0' 'Aw' 'Ci' 'e11' 'p11' 'Ria'],6353.662443307379,1.0878025451189899
chicago_control_concrete_inf_schedFalse_job170,73.34529016100946,51.298249757794494,1411.955886381131,194.119558399717,2583302.180818829,89.97395697914656,90.82233264416566,135.316841335491,0.841769011246669,"[ 16.67453911   3.08201223   0.84176901 -26.1958243   -1.90306434
   7.39006313]",[0.         0.         0.         0.93096229 0.         0.        ],['Ti0' 'Aw' 'Ci' 'e11' 'p11' 'Ria'],6326.68355435685,0.9800614139529955
chicago_control_concrete_inf_schedFalse_job112,70.79844134990525,50.01289285917684,1411.8944922044032,193.72444278867292,2623603.221828503,89.97395697914656,90.8260086659729,134.213033629922,0.8625530750369771,"[ 16.70670051   3.09204004   0.86255308 -26.01558514  -1.92521619
   7.4508412 ]",[0.         0.         0.         0.91767576 0.         0.        ],['Ti0' 'Aw' 'Ci' 'e11' 'p11' 'Ria'],6400.882524490229,1.0241938503370136
chicago_control_concrete_inf_schedFalse_job198,62.44469611407029,45.69795615276508,1410.5957083599585,193.80873870487252,2554001.9743869165,89.97395697914656,90.8757411515926,128.117195618671,0.8754557267647991,"[ 16.84022411   3.16953678   0.87545573 -26.63555526  -1.90036115
   7.80535349]",[0.        0.        0.        0.9008188 0.        0.       ],['Ti0' 'Aw' 'Ci' 'e11' 'p11' 'Ria'],6311.4748748294705,2.0202375482030277
chicago_control_concrete_inf_schedFalse_job158,57.790538691329296,43.04834628952045,1410.985799789415,191.6773260220206,2578306.072866703,89.97395697914656,90.86738858367856,125.18802334057399,0.829896589279637,"[ 16.81918709   3.07691938   0.82989659 -26.16624756  -1.88339191
   7.98798458]",[0.         0.         0.         0.89839588 0.         0.        ],['Ti0' 'Aw' 'Ci' 'e11' 'p11' 'Ria'],6238.2415996771,1.0206015369620047
chicago_control_concrete_inf_schedFalse_job133,66.57087065486567,47.894762246643104,1411.0679629499184,194.21844330304555,2636043.2602171977,89.97395697914656,90.83481084891513,132.081519637465,0.884194253339668,"[ 16.74089534   3.22924649   0.88419425 -26.23209948  -1.92063529
   7.57108188]",[0.         0.         0.         0.43706998 0.         0.        ],['Ti0' 'Aw' 'Ci' 'e11' 'p11' 'Ria'],6378.97580621297,1.0608084046430122
chicago_control_concrete_inf_schedFalse_job142,60.500679959086625,44.68649661624854,1410.2213343423084,194.54206623212318,2591252.8443129305,89.97395697914656,90.8583247091847,128.768647693374,0.9052847662463291,"[ 16.83085169   3.35728314   0.90528477 -26.24133065  -1.91735819
   7.76586551]",[0.         0.         0.         0.87688048 0.         0.        ],['Ti0' 'Aw' 'Ci' 'e11' 'p11' 'Ria'],6361.0944537184605,1.0372732352799972
chicago_control_concrete_inf_schedFalse_job73,91.09389551103632,59.764847017130485,1412.2766257292096,198.15779179737498,2498062.503058318,89.97395697914656,90.84116211899311,142.098212235047,0.840033400909593,"[ 16.64086393   2.97331217   0.8400334  -26.26014388  -1.93450875
   7.03738622]",[0.        0.        0.        0.8879465 0.        0.       ],['Ti0' 'Aw' 'Ci' 'e11' 'p11' 'Ria'],6445.670892086579,0.96381547728501
chicago_control_concrete_inf_schedFalse_job3,80.0447795699707,54.68208896994096,1411.563346180685,196.61498777925271,2514692.4985719044,89.97395697914656,90.84725275513163,136.979587429517,0.8309777836589108,"[ 16.69328024   3.06001376   0.83097778 -26.18353624  -1.8916497
   7.3003578 ]",[0.         0.         0.         0.79752076 0.         0.        ],['Ti0' 'Aw' 'Ci' 'e11' 'p11' 'Ria'],6289.76584220871,0.9934441188409835
chicago_control_concrete_inf_schedFalse_job135,62.302873621999495,45.551676806021,1411.1150316205756,192.5370632021208,2571928.1162866945,89.97395697914656,90.86246517163949,127.929701059531,0.8357382754691141,"[ 16.77446692   3.08819561   0.83573828 -26.15822689  -1.88571968
   7.81679306]",[0.         0.         0.         0.35780372 0.         0.        ],['Ti0' 'Aw' 'Ci' 'e11' 'p11' 'Ria'],6252.540931541391,0.979721082269009
chicago_control_concrete_inf_schedFalse_job175,65.74826483626407,47.39933787868366,1410.9382739411817,193.085006815142,2549452.775586227,89.97395697914656,90.86962410915555,128.61652515282802,0.8145674613528628,"[ 16.76163356   3.04752938   0.81456746 -26.14604395  -1.87443978
   7.77505067]",[0.         0.         0.         0.04485819 0.         0.        ],['Ti0' 'Aw' 'Ci' 'e11' 'p11' 'Ria'],6216.51932452158,0.977237972937985
chicago_control_concrete_inf_schedFalse_job92,66.55451636239437,47.91380228897036,1410.8342457441101,194.67615183110118,2548653.3209161116,89.97395697914656,90.86724822966322,130.87054864094,0.8874281717695941,"[ 16.81781713   3.19021029   0.88742817 -26.24445719  -1.91984198
   7.64113859]",[0.         0.         0.         0.86638809 0.         0.        ],['Ti0' 'Aw' 'Ci' 'e11' 'p11' 'Ria'],6382.02718143769,0.9753038389209792
chicago_control_concrete_inf_schedFalse_job69,60.884527125898025,44.809276130902795,1411.0213315180945,192.9173485428431,2578043.4250418902,89.97395697914656,90.8694835248495,127.428640740341,0.8770270944053931,"[ 16.84832301   3.14617998   0.87702709 -26.22358792  -1.90583676
   7.84752936]",[0.         0.         0.         0.02509976 0.         0.        ],['Ti0' 'Aw' 'Ci' 'e11' 'p11' 'Ria'],6326.7800000979605,1.112842253716991
chicago_control_concrete_inf_schedFalse_job168,64.99757772772661,47.03404914757116,1411.2127298472478,193.52114575080026,2573890.9810464843,89.97395697914656,90.86523019068395,129.720447894119,0.857339670046927,"[ 16.78802989   3.12081222   0.85733967 -26.21106989  -1.90305825
   7.70888488]",[0.         0.         0.         0.93551723 0.         0.        ],['Ti0' 'Aw' 'Ci' 'e11' 'p11' 'Ria'],6319.72497099948,1.0201822837320265
chicago_control_concrete_inf_schedFalse_job70,54.82195341736101,41.3885548572318,1410.4871854888947,191.88605161951747,2610746.3325116285,89.97395697914656,90.88870037535028,122.69361909722099,0.876232528638891,"[ 16.96726028   3.15457852   0.87623253 -26.21468084  -1.90437282
   8.1503831 ]",[0.        0.        0.        0.4487482 0.        0.       ],['Ti0' 'Aw' 'Ci' 'e11' 'p11' 'Ria'],6310.576592692801,1.0427567017520118
chicago_control_concrete_inf_schedFalse_job101,76.91705528648936,53.190750498372246,1411.7146717820738,196.42950199926972,2539124.9576308136,89.97395697914656,90.8221852416946,138.651194522155,0.851714932674682,"[ 16.61716263   3.19629214   0.85171493 -26.20360815  -1.90536642
   7.2123432 ]",[0.         0.         0.         0.89699879 0.         0.        ],['Ti0' 'Aw' 'Ci' 'e11' 'p11' 'Ria'],6336.5146991435995,1.0267832280359812
chicago_control_concrete_inf_schedFalse_job162,85.97019731259432,57.36011275439776,1412.658485147449,196.31345492888929,2530036.4083500896,89.97395697914656,90.82306362078361,141.58065070537398,0.8368682098309541,"[ 16.60558844   3.00100618   0.83686821 -26.26635232  -1.93994636
   7.06311205]",[0.         0.         0.         0.43213459 0.         0.        ],['Ti0' 'Aw' 'Ci' 'e11' 'p11' 'Ria'],6462.82736734456,0.9655049170000041
chicago_control_concrete_inf_schedFalse_job174,83.56350369010559,56.298208821696804,1411.94858186055,196.5653505225016,2528475.555764104,89.97395697914656,90.83598568964646,139.209929107968,0.8264396379345949,"[ 16.63255742   3.00250334   0.82643964 -26.23905158  -1.9298837
   7.18339566]",[0.         0.         0.         0.20378086 0.         0.        ],['Ti0' 'Aw' 'Ci' 'e11' 'p11' 'Ria'],6430.43883320174,0.9589326675960024
chicago_control_concrete_inf_schedFalse_job102,60.341709812851754,44.53674557979521,1410.9078981936973,193.33679763238902,2598853.8189760903,89.97395697914656,90.856822338696,128.192317313,0.881975223156658,"[ 16.82750747   3.21842812   0.88197522 -26.19633068  -1.89603061
   7.80077949]",[0.         0.         0.         0.42960688 0.         0.        ],['Ti0' 'Aw' 'Ci' 'e11' 'p11' 'Ria'],6288.89756367536,1.0976479792880127
chicago_control_concrete_inf_schedFalse_job148,73.67060092896384,51.54867996505708,1411.4416911580372,195.43817178807308,2580848.5559886275,89.97395697914656,90.81883212709894,136.091810322427,0.8534373450951619,"[ 16.6594066    3.21758335   0.85343735 -26.20717129  -1.90777093
   7.34798073]",[0.         0.         0.         0.49860641 0.         0.        ],['Ti0' 'Aw' 'Ci' 'e11' 'p11' 'Ria'],6341.15502934601,1.0434993333400087
chicago_control_concrete_inf_schedFalse_job103,76.7421740863022,53.026917414038664,1411.9284406885981,195.3334452102253,2597623.514262208,89.97395697914656,90.81362161273312,137.703540232156,0.8652864330448209,"[ 16.64906245   3.17030934   0.86528643 -26.25095483  -1.93095212
   7.26197742]",[0.         0.         0.         0.92893998 0.         0.        ],['Ti0' 'Aw' 'Ci' 'e11' 'p11' 'Ria'],6424.91975818188,1.0249852714289887
chicago_control_concrete_inf_schedFalse_job126,55.45517708568315,41.783544304336814,1410.4325891954718,192.63060918241024,2609219.3522845698,89.97395697914656,90.87179907155964,124.63033335924,0.873121435473706,"[ 16.90101856   3.21026912   0.87312144 -26.17879401  -1.88445891
   8.02372884]",[0.         0.         0.         0.72947686 0.         0.        ],['Ti0' 'Aw' 'Ci' 'e11' 'p11' 'Ria'],6243.13285363677,1.0576372137650054
chicago_control_concrete_inf_schedFalse_job115,57.13380273876467,42.77066764720672,1410.4787447305364,193.4701133795511,2562521.5600256664,89.97395697914656,90.85845936853262,126.551662269039,0.857787968406109,"[ 16.81526867   3.2785226    0.85778797 -26.14066647  -1.86638094
   7.90191122]",[0.         0.         0.         0.88243155 0.         0.        ],['Ti0' 'Aw' 'Ci' 'e11' 'p11' 'Ria'],6180.61101582802,1.042403608516011
chicago_control_concrete_inf_schedFalse_job139,61.608385636989006,45.19107958448789,1410.6901810461627,192.75876943599792,2584197.4186468325,89.97395697914656,90.87829769305392,126.551471406003,0.8482518517453009,"[ 16.83750595   3.10222635   0.84825185 -26.2003292   -1.89889885
   7.90192314]",[0.         0.         0.         0.84305251 0.         0.        ],['Ti0' 'Aw' 'Ci' 'e11' 'p11' 'Ria'],6301.34057063128,0.9705028430559821
chicago_control_concrete_inf_schedFalse_job200,73.46122978778979,51.43941235765744,1411.6950360925775,195.3370862934716,2608912.2529187924,89.97395697914656,90.8142029108701,137.111053652028,0.8657109778565658,"[ 16.64635257   3.20523052   0.86571098 -26.24360003  -1.92557168
   7.293358  ]",[0.         0.         0.         0.94034854 0.         0.        ],['Ti0' 'Aw' 'Ci' 'e11' 'p11' 'Ria'],6404.21070934792,0.9142149577469922
chicago_control_concrete_inf_schedFalse_job178,59.51645895556818,44.032873573175294,1410.8181283079057,192.3290782674678,2595948.6919521224,89.97395697914656,90.87492098200701,125.76510738106701,0.8644780102435901,"[ 16.86905944   3.12368134   0.86447801 -26.2102196   -1.90094043
   7.95133102]",[0.         0.         0.         0.04912036 0.         0.        ],['Ti0' 'Aw' 'Ci' 'e11' 'p11' 'Ria'],6305.3935054996,0.9985767684229785
chicago_control_concrete_inf_schedFalse_job83,74.1974098241822,51.67672175635059,1411.9646376882931,193.60033758844645,2564781.4202515106,89.97395697914656,90.8371117454704,133.919105502931,0.831845303912119,"[ 16.7050457    3.0113432    0.8318453  -26.22295979  -1.91664665
   7.46719444]",[0.         0.         0.         0.20077339 0.         0.        ],['Ti0' 'Aw' 'Ci' 'e11' 'p11' 'Ria'],6373.05287238905,0.9309989425450169
