envelope_hlc,envelope_hlc_pred
40.957848,41.539852142333984
50.879208,51.24698257446289
52.417625,53.006317138671875
44.02795,44.62955856323242
56.17203,56.59599685668945
41.569077,42.36751174926758
46.1981,46.98760223388672
42.945457,43.53602981567383
57.792946,58.557186126708984
47.76099,47.80548858642578
49.780228,50.496826171875
42.401386,42.95093536376953
54.91439,54.50960159301758
44.920956,45.53801727294922
49.635555,49.3682861328125
47.109715,47.839107513427734
49.19814,50.197914123535156
48.640705,48.839202880859375
41.043922,41.810630798339844
44.067856,44.932247161865234
45.25123,45.95929718017578
41.996666,42.80946350097656
45.215126,45.21976089477539
53.533546,54.471527099609375
55.961422,56.24005126953125
50.197895,49.96179962158203
52.257847,53.122718811035156
48.651432,48.50068664550781
42.624413,42.84840393066406
43.26769,43.32571792602539
53.916313,53.616764068603516
44.223602,44.8480110168457
48.24068,48.79496765136719
47.842445,48.63672637939453
53.60773,54.370201110839844
58.90188,59.14799499511719
53.68786,54.384605407714844
40.74358,41.37436294555664
55.67499,55.49193572998047
44.77112,45.53927993774414
52.106377,52.68492889404297
59.339344,59.68513107299805
53.274837,53.1109619140625
47.129097,47.67969512939453
44.069653,44.771732330322266
45.77804,46.74917221069336
53.838703,54.58810043334961
59.4654,59.03412628173828
59.535557,59.17018127441406
45.821392,45.902828216552734
51.870033,52.95692443847656
45.440224,46.06504821777344
41.97015,42.60805130004883
54.019135,54.70769119262695
57.40731,57.58567428588867
50.9904,50.672019958496094
53.264874,53.848785400390625
43.592873,43.875057220458984
44.23497,44.57489776611328
42.849277,43.601707458496094
50.41073,51.000404357910156
47.026848,47.62392807006836
56.541004,56.585140228271484
43.528103,44.07780456542969
40.064117,40.652408599853516
42.20658,42.91969680786133
54.840828,55.180564880371094
47.797367,48.2284049987793
51.794353,51.71113586425781
53.395485,54.2842903137207
54.487007,55.27947235107422
45.69889,46.156982421875
48.752216,49.59968566894531
51.33668,52.18146514892578
48.985386,49.64383316040039
46.74698,46.620086669921875
46.076168,46.312095642089844
48.2097,48.03269958496094
51.736965,52.65252685546875
63.043415,63.75857925415039
59.812374,60.42787551879883
53.156326,53.82343673706055
47.132404,47.523773193359375
48.950695,49.608917236328125
48.30853,48.93115997314453
60.241882,60.68963623046875
52.307426,52.00992965698242
41.140907,41.83349609375
46.092133,46.91466522216797
55.504524,56.363651275634766
42.966927,43.59381866455078
42.963623,43.626304626464844
56.828854,57.206172943115234
51.366055,51.037193298339844
51.455845,51.566917419433594
55.231556,55.12656784057617
53.090015,53.91739273071289
55.386883,55.9986686706543
42.92016,43.657562255859375
50.098663,50.46440505981445
46.539257,47.184654235839844
47.966755,47.983978271484375
57.008896,57.85615539550781
57.53421,58.14116287231445
44.22242,44.882293701171875
63.80068,63.978126525878906
48.270687,48.755672454833984
46.680603,47.326812744140625
53.609726,53.40775680541992
51.541878,52.37506866455078
43.58655,43.40101623535156
48.28732,48.737239837646484
54.790833,55.26031494140625
50.808765,51.25791549682617
60.31936,60.5738639831543
47.229588,47.661136627197266
43.21197,43.962528228759766
46.11218,46.652347564697266
61.48494,62.18238067626953
58.203815,58.91944122314453
42.52394,42.37265396118164
53.70207,53.30597686767578
53.77031,54.570701599121094
52.40547,53.004940032958984
50.98406,50.70304870605469
42.426624,43.03754425048828
59.384632,59.70431900024414
55.080124,55.43653869628906
50.978027,51.82651138305664
51.68759,51.91171646118164
48.228916,48.98288345336914
47.17784,47.32217025756836
45.62776,45.728240966796875
49.57961,49.83134460449219
54.118847,53.74967956542969
51.458313,52.05610275268555
57.425465,57.46520233154297
51.03986,50.67841720581055
50.463993,50.677791595458984
60.479126,60.181129455566406
46.82822,47.72163772583008
48.504833,49.09011459350586
42.820045,43.547035217285156
48.48752,48.9224853515625
48.560192,49.289573669433594
47.61255,47.29916763305664
45.867413,46.46101379394531
44.97339,44.84629440307617
54.18129,54.1927375793457
47.63799,48.01225662231445
42.58517,43.051551818847656
49.05204,48.84739685058594
53.24349,53.93718719482422
45.3216,45.269073486328125
43.80407,44.38716125488281
43.85643,43.95582962036133
42.756477,43.03845977783203
46.918346,47.0437126159668
47.484577,48.21906280517578
45.38528,46.19816970825195
49.456818,50.36054229736328
57.509064,57.722896575927734
50.930027,50.77784729003906
43.014828,43.75501251220703
49.8874,50.60110855102539
55.448467,55.592952728271484
52.608192,53.47952651977539
44.83076,45.13198471069336
43.182,43.457340240478516
52.781807,53.43068313598633
44.48826,45.0987434387207
57.44714,57.99473571777344
53.756405,54.43938446044922
63.07507,63.56281661987305
45.729385,46.22781753540039
51.899384,51.5262565612793
48.486694,49.05406188964844
61.322098,61.64494323730469
45.927597,46.686988830566406
