envelope_hlc,envelope_hlc_pred
41.465816,39.66658020019531
53.090782,51.616485595703125
50.130257,50.67293930053711
46.199566,45.95429229736328
55.209934,53.75873565673828
46.81524,48.17185974121094
42.700787,43.81739044189453
45.71535,45.87895965576172
47.268173,46.70583724975586
40.931488,41.73967742919922
45.328316,45.62638473510742
54.86467,56.51384735107422
55.93755,56.62449264526367
57.779625,55.904205322265625
46.40886,47.29335021972656
53.424644,55.503536224365234
50.461014,48.07902908325195
41.801617,41.674156188964844
39.107708,39.505401611328125
51.887505,49.01295471191406
46.960514,46.939605712890625
41.747093,40.08523941040039
57.122646,55.30568313598633
44.854187,44.760623931884766
39.946472,39.86244201660156
43.049335,41.60890197753906
40.9189,41.25611877441406
47.03505,46.48789596557617
49.861576,50.22627258300781
54.814686,53.70734405517578
53.397423,53.15800476074219
55.07136,54.35756301879883
43.982758,44.38539505004883
50.872086,49.17792510986328
49.708942,49.096065521240234
41.319496,39.432106018066406
46.385483,46.74833297729492
53.351833,52.08278274536133
52.01558,49.40311813354492
41.830173,41.96537780761719
47.34414,47.87762451171875
45.62699,44.603538513183594
49.11111,48.0495491027832
46.410076,45.36420822143555
44.677864,43.48239517211914
45.525475,45.10371398925781
50.25569,50.67462921142578
44.570618,44.31644821166992
53.573765,51.34242248535156
45.83632,43.18341064453125
51.454468,50.95505905151367
43.052063,42.0576057434082
45.33977,42.495391845703125
55.550297,51.773948669433594
51.68569,52.12119674682617
39.738377,40.509979248046875
41.873062,41.41438674926758
47.499958,48.076271057128906
55.313126,55.29267883300781
44.12673,43.061370849609375
51.498398,50.685516357421875
57.04138,57.89350128173828
46.24276,45.114593505859375
50.648346,49.122802734375
49.26512,48.99934387207031
58.62148,58.88527297973633
48.566383,47.833892822265625
47.953514,48.18599319458008
44.512352,43.441890716552734
52.16092,51.55767822265625
47.518444,43.98933410644531
44.09931,44.746822357177734
52.0148,48.623905181884766
44.40928,42.851539611816406
42.99321,42.94243621826172
45.380272,43.55454635620117
50.075417,51.537322998046875
44.357487,43.471435546875
51.397125,49.72265625
45.743687,44.23417663574219
41.854916,42.36022186279297
46.04955,43.11927795410156
42.12072,41.721649169921875
48.688637,46.60679626464844
57.968773,54.65758514404297
57.444077,58.99030303955078
53.182503,53.93329620361328
51.8567,50.56755447387695
42.836483,41.74771499633789
46.806526,46.739166259765625
45.79776,42.479896545410156
47.03959,45.90868377685547
42.053707,41.62850570678711
41.42035,40.96788024902344
51.073257,48.85051727294922
52.9247,53.472206115722656
52.51136,54.56624221801758
48.102383,48.22779846191406
47.12944,44.31124496459961
44.58773,44.72514343261719
50.34345,51.593544006347656
41.497925,39.660465240478516
51.86535,49.39961624145508
49.384754,48.02738952636719
44.794403,46.09135437011719
46.801235,48.93067932128906
43.519295,43.215065002441406
42.07739,41.95452117919922
49.73767,48.37058639526367
41.702705,40.92375183105469
42.454033,38.69928741455078
40.131943,40.40476989746094
58.74526,53.868812561035156
47.016403,44.97037124633789
57.014294,54.07940673828125
53.86939,52.72659683227539
44.34496,43.441795349121094
50.150143,47.950958251953125
52.282654,50.37197494506836
44.441357,46.92646789550781
43.551968,44.29778289794922
41.769424,38.99988555908203
40.524776,40.928749084472656
60.28755,60.656349182128906
46.776005,45.929298400878906
49.2965,45.039329528808594
46.499615,46.44602584838867
52.875782,53.25531005859375
48.28361,48.59956359863281
54.406837,54.88129806518555
49.661182,50.19965362548828
51.303818,51.41954040527344
42.905155,42.673316955566406
60.18122,59.57046127319336
57.89512,57.49679183959961
56.588306,56.02296447753906
50.499374,49.80019760131836
49.951363,49.11370086669922
51.375713,51.509429931640625
51.32061,50.24894332885742
52.92092,52.233760833740234
45.1336,45.645652770996094
41.1291,40.24488067626953
51.651264,50.80830383300781
43.770184,44.379188537597656
55.329395,51.840084075927734
50.54799,48.871116638183594
46.801594,45.6228141784668
41.642906,40.94748306274414
49.59037,48.4637565612793
52.26579,51.725181579589844
42.447536,41.682987213134766
47.089893,45.49349594116211
44.04894,43.8975715637207
51.701138,50.795745849609375
45.69618,43.79591751098633
43.97445,42.55574035644531
48.208347,47.06132125854492
54.0134,54.943485260009766
42.366447,40.66404724121094
48.718437,49.660003662109375
43.25142,42.89553451538086
60.968407,59.97507095336914
49.3927,49.287269592285156
43.699455,43.27955627441406
40.032047,39.9150390625
41.34918,40.4307975769043
42.647564,40.43278884887695
55.241253,55.21196365356445
47.994835,44.86942672729492
49.046604,49.02808380126953
47.74415,45.36756134033203
48.450123,45.09709930419922
46.889393,46.22459030151367
49.419865,46.43089294433594
51.672882,49.85881423950195
42.813366,41.27872085571289
57.10644,54.50578689575195
44.713257,46.220035552978516
