envelope_umat,envelope_umat_pred
70.286674,68.88883209228516
55.26719,55.614253997802734
58.83215,57.75587844848633
67.239914,66.00218963623047
77.363266,74.0889663696289
55.991875,55.26557159423828
60.180378,59.11111831665039
73.22386,72.5463638305664
55.41638,56.65818405151367
69.12592,65.36723327636719
60.331444,59.71139907836914
81.45826,78.44796752929688
66.61022,64.42027282714844
60.329224,58.71199417114258
62.479855,61.136680603027344
83.599495,80.76982879638672
59.868366,59.57496643066406
63.87302,63.17767333984375
61.7142,60.35725784301758
86.13865,84.21536254882812
76.765785,74.23087310791016
64.77426,63.847755432128906
53.271263,51.66171646118164
54.012135,53.17831039428711
73.361305,72.03223419189453
81.05092,79.60829162597656
60.807594,60.22609329223633
80.37572,78.00171661376953
81.36383,80.23339080810547
90.99385,90.05315399169922
64.89907,62.92530059814453
59.286606,59.136573791503906
84.8458,81.04936981201172
61.446404,60.90925979614258
57.021675,55.74907684326172
64.32007,63.07205581665039
63.821987,61.25269317626953
91.457504,90.28483581542969
77.961365,77.56151580810547
86.42648,84.58860778808594
64.338005,63.46224594116211
66.6182,65.38126373291016
64.62152,62.342594146728516
71.34979,68.07786560058594
93.00335,90.22260284423828
73.52603,73.34794616699219
73.68599,72.66808319091797
69.49047,67.147705078125
63.741837,61.68557357788086
66.3347,66.13695526123047
69.75871,66.14622497558594
56.622963,54.97504425048828
62.2602,61.71800231933594
62.318016,60.98711395263672
55.616753,55.99826431274414
57.20513,56.17048645019531
67.10037,65.74166870117188
74.44455,71.49456024169922
74.21993,74.02069091796875
80.54091,77.07911682128906
59.728977,58.33732986450195
73.158775,71.83671569824219
57.74552,56.67307662963867
74.96319,72.56794738769531
58.591057,57.808712005615234
60.719856,59.60530471801758
53.983086,54.09632110595703
70.28179,69.60487365722656
76.79016,74.55945587158203
76.48696,74.5325698852539
57.706066,56.099342346191406
65.31814,62.89534378051758
76.66007,74.16637420654297
74.11477,71.73992919921875
82.22221,80.01469421386719
69.74487,67.46308898925781
76.92523,74.38858032226562
55.516403,53.39876174926758
79.06316,74.5516128540039
57.12011,57.21992492675781
70.76262,69.31634521484375
80.6522,78.9349365234375
54.722614,54.3145637512207
52.355103,50.291378021240234
78.05229,75.11742401123047
57.417164,57.42867660522461
65.68362,62.6793098449707
55.948326,54.738948822021484
65.83213,65.7929458618164
76.249435,73.92708587646484
64.69413,63.627559661865234
59.307884,57.846248626708984
62.229496,59.603492736816406
56.428135,56.009395599365234
75.11073,71.15599822998047
59.062626,58.244136810302734
72.94935,71.63692474365234
68.664375,66.27635955810547
71.32435,68.7237548828125
67.651665,66.55419158935547
84.702354,81.4052963256836
62.59798,60.19989013671875
64.90808,62.09090805053711
64.329865,62.77079772949219
55.333183,54.90406036376953
54.65904,54.606475830078125
64.55198,63.88422775268555
63.163628,61.50259780883789
57.50048,56.66876220703125
68.89302,66.24482727050781
77.49824,74.3705825805664
58.339558,55.56977462768555
72.78818,71.63713073730469
84.74809,83.46121215820312
63.665806,63.41157531738281
73.0444,72.80567932128906
64.77658,62.11830520629883
59.619774,57.18661880493164
69.604294,65.6593017578125
69.57757,69.67510986328125
60.508244,59.861324310302734
59.476967,58.30324935913086
57.11615,55.917930603027344
59.994656,57.837337493896484
66.86698,64.3036117553711
70.68909,69.91492462158203
54.861275,54.24293899536133
54.847996,53.68931198120117
73.38546,72.15415954589844
75.28601,74.80543518066406
57.93667,58.98862075805664
74.29683,71.95527648925781
87.58313,87.178466796875
61.7481,59.33959197998047
51.93655,52.158363342285156
52.44684,51.35298156738281
76.1652,74.87910461425781
69.7861,67.2504653930664
72.976166,70.07073974609375
52.65569,51.90526580810547
61.227703,60.67641830444336
64.834526,64.4999008178711
73.63007,71.5823745727539
60.254124,57.78885269165039
71.29433,70.41657257080078
67.16375,67.74604797363281
74.81958,73.3904800415039
55.91224,53.56473159790039
74.55016,74.0617904663086
68.140724,66.70081329345703
50.969276,50.883846282958984
65.125946,64.42486572265625
64.56926,63.07208251953125
55.386993,53.834598541259766
71.05797,71.41976928710938
67.609344,65.68312072753906
71.18511,70.43635559082031
79.9168,77.56379699707031
60.323658,60.33549499511719
62.09771,60.35578536987305
79.88961,77.32844543457031
63.543755,61.008644104003906
55.49419,55.34366226196289
59.22354,58.68991470336914
70.94228,67.262451171875
54.91949,52.08340072631836
54.370987,53.60547637939453
86.46469,84.14916229248047
62.93589,62.60901641845703
84.91886,81.32685852050781
67.765335,67.19477844238281
71.77154,70.16539764404297
56.715336,53.60224914550781
87.51878,83.84504699707031
85.56182,83.89183044433594
72.25856,70.89659881591797
69.323654,66.69120025634766
62.619286,60.62205123901367
55.209793,53.880210876464844
