envelope_umat,envelope_umat_pred
65.33364,68.8712387084961
87.08841,86.70026397705078
59.084686,60.474395751953125
51.016453,56.7348747253418
63.95631,66.03408813476562
73.158966,76.75623321533203
57.561268,60.38633346557617
63.585514,65.96161651611328
59.225697,63.120784759521484
76.91705,80.18798065185547
62.812073,64.74893951416016
60.50068,63.86280822753906
64.36765,67.31663513183594
60.302124,62.34473419189453
65.20973,66.29827117919922
67.06513,68.54158020019531
76.34432,77.9411849975586
87.460304,87.8121566772461
73.00063,76.66500091552734
57.628895,61.36748123168945
60.104145,63.03501892089844
73.26164,76.97994995117188
52.2886,57.15634536743164
56.812996,58.57545852661133
75.39693,78.4954833984375
67.57417,69.91354370117188
73.6706,75.63426208496094
58.246895,62.67770767211914
55.98149,58.775901794433594
62.444695,65.52220916748047
74.3646,75.58255767822266
65.775375,68.6042709350586
70.3316,74.0533447265625
56.66582,59.186702728271484
71.267944,71.52472686767578
70.6208,73.4533920288086
65.74827,66.21163940429688
85.44691,86.1272201538086
76.5759,78.51122283935547
55.355,59.04058074951172
55.33387,60.22008514404297
62.624718,64.59306335449219
53.931248,58.7607307434082
64.99758,67.81453704833984
70.164635,70.69415283203125
69.58144,73.62360382080078
85.00555,85.69991302490234
64.50318,67.37967681884766
61.89461,63.77994155883789
81.17776,82.4430160522461
80.04478,79.53714752197266
68.56456,71.67022705078125
76.74217,78.36136627197266
57.11415,60.10165786743164
66.57087,69.45089721679688
62.306095,66.5402603149414
78.03377,79.07579803466797
85.9702,87.28241729736328
52.42414,57.31635665893555
76.35539,79.04656982421875
74.19741,75.16150665283203
60.884525,64.0654296875
70.81566,72.5545654296875
75.07428,76.11536407470703
64.64994,66.05831146240234
73.89628,78.40928649902344
59.47163,62.16805648803711
58.80532,61.80154037475586
61.21752,65.3128433227539
55.455177,58.92457962036133
73.34529,76.35478210449219
81.89511,82.53199768066406
66.7834,70.08368682861328
70.79844,74.91627502441406
74.33968,78.53075408935547
67.45269,69.15028381347656
59.654503,60.55747604370117
63.878586,66.58441162109375
67.19911,70.0797119140625
72.483345,74.4420166015625
66.34217,69.56736755371094
57.79054,60.51346206665039
54.079967,58.712623596191406
51.884624,57.18727111816406
64.74942,66.71684265136719
57.133804,63.076385498046875
54.706512,59.85239028930664
59.497395,63.379032135009766
82.378265,83.42174530029297
55.3042,58.99231719970703
63.755173,66.44017791748047
69.28725,70.09855651855469
69.96032,73.88230895996094
91.12426,92.57080841064453
75.989,78.238525390625
73.46123,77.9657974243164
77.645706,78.7007827758789
74.51734,78.42314910888672
71.76372,75.01702880859375
62.39029,64.23145294189453
56.057693,59.348182678222656
53.15365,58.08952331542969
57.43992,60.335391998291016
63.36024,66.84221649169922
84.834175,83.43169403076172
72.90725,76.33084869384766
77.404724,79.87980651855469
59.51646,61.591007232666016
55.136803,57.9362907409668
73.52729,77.8697738647461
64.258095,66.48773193359375
76.92393,78.41886138916016
70.61091,74.85762786865234
74.87731,78.42768859863281
80.39624,82.17586517333984
55.513195,58.2161979675293
60.34171,63.469078063964844
64.85277,67.45275115966797
77.93614,81.06367492675781
91.093895,90.68276977539062
75.031235,78.27457427978516
61.333286,65.27654266357422
82.15041,83.36591339111328
60.15738,62.78129577636719
91.8475,93.61247253417969
60.34399,63.3935661315918
62.036243,64.52664947509766
64.66811,66.88871002197266
55.93416,58.79401779174805
61.608387,63.561649322509766
54.684532,57.80125427246094
69.74721,71.07061004638672
58.463123,61.57353591918945
57.19841,59.41690444946289
57.899883,60.57270431518555
59.85487,63.19511032104492
65.2295,67.92876434326172
60.855095,65.01136016845703
69.693,70.24153900146484
64.902336,67.75897216796875
55.717113,61.31364059448242
64.82228,68.06077575683594
54.447845,57.58079528808594
67.18553,70.0458984375
55.30416,58.93208312988281
71.08246,71.78516387939453
69.05809,71.39167022705078
52.81299,58.02195358276367
66.55452,69.82164001464844
85.28808,87.18793487548828
60.10773,62.037357330322266
65.275955,66.40872192382812
71.2866,75.43240356445312
72.27369,75.59760284423828
60.468384,63.04532241821289
84.85366,86.00421905517578
54.821953,56.578975677490234
87.63047,86.5124282836914
69.090164,70.15113830566406
86.52788,86.14241790771484
57.350723,61.15145492553711
54.746727,59.98298263549805
81.07514,80.64111328125
55.292103,61.22877883911133
71.335396,73.76803588867188
62.302876,64.23731994628906
63.826492,66.0888442993164
56.343678,61.33066177368164
81.52892,82.8717041015625
80.79248,83.58396911621094
74.57013,78.11445617675781
63.61971,64.3960952758789
67.19923,69.89562225341797
69.826035,70.35108184814453
83.56351,83.51666259765625
72.78509,75.59490966796875
78.113815,79.28450012207031
69.48706,71.86127471923828
70.80523,74.40496063232422
