envelope_inf_hlc,envelope_inf_hlc_pred
53.592983,52.67674255371094
41.515247,40.86207580566406
50.542774,49.64027404785156
53.2877,51.690101623535156
43.11201,43.31419372558594
45.74916,44.83674240112305
51.709858,49.913330078125
44.737602,43.66069412231445
49.232086,47.6027717590332
42.88869,41.65697479248047
41.64143,41.400386810302734
54.95988,54.023624420166016
47.150364,46.30073928833008
39.9898,39.63833236694336
44.462826,44.30470657348633
46.91138,46.08367156982422
45.702084,44.88934326171875
43.99417,43.5734977722168
49.340305,47.89853286743164
57.273094,55.81010437011719
52.55934,51.82664489746094
58.14689,56.96364974975586
54.724518,53.2474365234375
41.298428,40.622520446777344
46.259293,45.89643859863281
49.760098,48.75637435913086
49.68277,48.07655715942383
53.0187,51.27523422241211
51.01939,50.26301574707031
57.82886,56.41181564331055
50.055134,48.4926643371582
41.77866,41.08021545410156
46.16698,44.427947998046875
41.73406,41.960540771484375
53.963444,52.28630065917969
52.13277,49.708412170410156
44.41353,43.571807861328125
48.259445,47.885353088378906
46.467663,45.085689544677734
43.014866,42.580684661865234
51.788548,51.260372161865234
41.11579,41.06367492675781
57.440174,56.341522216796875
43.005917,43.17082595825195
44.503468,43.976253509521484
58.082905,57.24161148071289
52.675446,51.51707458496094
49.946228,49.48961639404297
51.287224,50.97944641113281
42.216053,41.95817947387695
48.445347,47.99848556518555
51.5731,50.27326965332031
42.765175,42.52122116088867
42.603428,41.77168273925781
49.488693,49.735877990722656
41.728455,41.140869140625
43.65509,42.7477912902832
41.943718,41.49113464355469
48.031338,47.47663497924805
46.76733,46.41669845581055
52.776867,51.541587829589844
55.745678,54.46451187133789
57.061424,55.25553512573242
45.497955,44.881683349609375
46.708706,46.73311233520508
56.992706,55.97016525268555
51.80258,51.2706184387207
44.02485,43.46635055541992
46.390976,45.08758544921875
49.96528,49.132083892822266
47.240566,47.122554779052734
40.394306,39.86199188232422
40.186665,39.71327590942383
42.02841,41.2391357421875
49.988564,49.331668853759766
46.573185,46.126304626464844
56.298336,54.859737396240234
55.123787,54.105918884277344
59.744884,57.709014892578125
39.63848,39.66944122314453
57.96099,56.31257629394531
44.001434,42.78389358520508
54.64267,53.104740142822266
41.29416,40.666770935058594
43.368572,42.8979377746582
46.302505,45.575531005859375
47.387344,46.17481231689453
50.899097,49.24740982055664
49.642838,48.63207244873047
56.778233,55.05119705200195
51.5815,49.942413330078125
42.808807,42.008052825927734
45.2787,44.59193420410156
60.132156,59.22538375854492
47.340496,46.279014587402344
49.581497,48.302146911621094
52.077267,51.011653900146484
52.38059,51.659881591796875
45.062843,44.72555160522461
53.196434,52.305328369140625
52.857597,51.33207321166992
51.258457,50.61873245239258
41.313744,40.26964569091797
41.681725,42.01168441772461
42.049473,41.36678695678711
46.134804,45.57294845581055
55.526035,54.512603759765625
46.93807,46.70524597167969
44.764378,44.18315887451172
47.24514,46.4351921081543
53.525517,51.557621002197266
49.618805,48.353363037109375
45.643017,45.65319061279297
52.15749,50.5045051574707
55.64855,54.82278060913086
50.149944,49.87371826171875
47.64558,47.138065338134766
45.54369,44.706199645996094
42.458015,40.81306457519531
51.597576,51.77984619140625
49.12412,47.420936584472656
44.340687,43.23684310913086
43.35979,42.52517318725586
47.17503,46.40464401245117
50.076633,47.912628173828125
41.6193,40.74052047729492
46.98508,46.357242584228516
48.85062,47.7350959777832
47.927753,47.53096389770508
53.83692,53.165443420410156
50.395096,49.12691879272461
44.847305,43.987335205078125
50.89945,49.69480895996094
49.37268,49.303863525390625
51.79933,51.153717041015625
44.338684,43.425838470458984
56.797245,55.39381790161133
49.146492,47.998817443847656
39.131054,39.28921890258789
44.469948,44.60248947143555
51.43707,50.62898254394531
45.704906,44.803466796875
44.31864,43.47291564941406
55.23948,53.8956184387207
46.723335,45.49065399169922
48.162064,47.135501861572266
45.423107,44.240699768066406
44.0437,42.674461364746094
42.841988,42.1046142578125
48.318554,48.1370735168457
42.708477,41.86428451538086
51.4075,50.50563430786133
46.782955,45.629554748535156
45.16877,44.141021728515625
59.868023,58.62059783935547
41.7273,41.579505920410156
42.092514,41.5627555847168
47.95297,46.640750885009766
40.839645,40.31307601928711
50.718525,50.040794372558594
43.97653,43.550743103027344
44.595276,43.87172317504883
39.83637,39.304412841796875
48.1707,47.698944091796875
53.175972,52.752410888671875
45.187588,45.139808654785156
47.000076,46.59839630126953
55.147804,53.16069412231445
47.88471,47.41328811645508
40.88964,40.19089889526367
51.141926,50.78230285644531
42.393333,41.72789764404297
50.374084,48.8430061340332
51.499893,51.24965286254883
43.74227,43.465030670166016
46.654118,45.69529724121094
41.31477,41.29475021362305
46.2863,45.03096008300781
49.974255,49.47284698486328
