envelope_inf_hlc,envelope_inf_hlc_pred
133.65088,133.69091796875
143.53941,143.16981506347656
145.07768,144.6917266845703
136.7143,136.54690551757812
148.83987,148.01275634765625
134.25775,134.39515686035156
138.88004,139.06402587890625
135.63614,135.77169799804688
150.45004,150.19236755371094
140.4424,139.74533081054688
142.45285,142.401123046875
135.09299,135.0711669921875
147.57397,146.23046875
137.60664,137.43695068359375
142.31929,141.44818115234375
139.7837,139.92318725585938
141.87296,141.9355010986328
141.3175,140.77159118652344
133.7339,133.9184112548828
136.74379,136.72654724121094
137.93109,137.8544921875
134.68494,134.82667541503906
137.90736,137.36769104003906
146.20125,146.22396850585938
148.61948,148.0089111328125
142.879,142.08999633789062
144.91704,144.9163055419922
141.33252,140.43284606933594
135.31541,134.83740234375
135.96164,135.58392333984375
146.57959,145.28436279296875
136.91032,136.94847106933594
140.91322,140.6794891357422
140.51259,140.58448791503906
146.25826,146.13494873046875
151.56116,150.76377868652344
146.3581,146.1402130126953
133.43831,133.59107971191406
148.32376,147.26792907714844
137.45613,137.4818115234375
144.77486,144.54739379882812
151.99603,151.6640167236328
145.93715,144.74366760253906
139.8154,139.82398986816406
136.75441,136.6628875732422
138.4513,138.51101684570312
146.50166,146.42445373535156
152.12764,150.67263793945312
152.19797,150.94578552246094
138.50987,137.88668823242188
144.53627,144.67845153808594
138.11984,138.1674041748047
134.66632,134.70594787597656
146.68193,146.54275512695312
150.06221,149.52169799804688
143.66298,142.4446563720703
145.92207,145.5122833251953
136.2866,136.0948486328125
136.93015,136.69813537597656
135.53343,135.5354766845703
143.07353,142.8558349609375
139.702,139.464111328125
149.21172,148.10911560058594
136.21361,136.033935546875
132.7696,132.96681213378906
134.90094,135.01205444335938
147.49586,146.90814208984375
140.46983,140.0763702392578
144.4724,143.40054321289062
146.05226,146.01907348632812
147.14018,147.06341552734375
138.37645,138.04006958007812
141.43149,141.50918579101562
143.99023,144.01661682128906
141.65605,141.4755859375
139.43596,138.65164184570312
138.76054,138.45028686523438
140.89546,139.88705444335938
144.40427,144.31167602539062
155.68138,154.74493408203125
152.46716,152.2152862548828
145.81424,145.58119201660156
139.8076,139.44557189941406
141.62032,141.52548217773438
140.9786,141.0305938720703
152.89075,152.09921264648438
144.9738,143.98985290527344
133.8401,134.00607299804688
138.76067,138.75421142578125
148.15303,147.8577423095703
135.65446,135.60501098632812
135.6537,135.7191925048828
149.4831,149.1782684326172
144.03743,142.97665405273438
144.14166,143.60723876953125
147.88846,146.8691864013672
145.75282,145.6346893310547
148.03836,147.7450408935547
135.60501,135.7076416015625
142.77573,142.66360473632812
139.21953,139.35919189453125
140.64075,140.04354858398438
149.67741,149.19606018066406
150.18704,149.92681884765625
136.90585,136.77464294433594
156.45053,154.9400177001953
140.94916,140.8555145263672
139.3575,139.2147674560547
146.268,145.18878173828125
144.20152,144.10533142089844
136.28433,135.47251892089844
140.9644,140.50009155273438
147.45102,147.1759796142578
143.47276,143.27032470703125
152.97702,151.88168334960938
139.90706,139.566162109375
135.90747,136.00048828125
138.79817,138.78700256347656
154.12946,153.05361938476562
150.85963,150.5327911376953
135.2265,134.70567321777344
146.37083,144.99864196777344
146.43492,146.35977172851562
145.07104,144.6724090576172
143.66925,142.74725341796875
135.11775,135.0839385986328
152.02696,151.59707641601562
147.73303,147.2448272705078
143.64143,143.5487823486328
144.34943,143.82342529296875
140.90082,140.80514526367188
139.85727,139.32958984375
138.31566,137.76113891601562
142.25156,141.90431213378906
146.78407,145.47007751464844
144.11717,143.99327087402344
150.089,148.79306030273438
143.71303,142.6292724609375
143.12466,142.52825927734375
153.14186,151.94418334960938
139.49783,139.2784423828125
141.17726,141.01345825195312
135.5108,135.69949340820312
141.1619,140.97354125976562
141.22426,141.28201293945312
140.30084,139.2960662841797
138.54884,138.43862915039062
137.66344,136.77919006347656
146.85101,145.96511840820312
140.32202,140.13290405273438
135.28015,135.21847534179688
141.73175,140.75128173828125
145.90697,145.69473266601562
138.00436,137.0665740966797
136.49358,136.3124237060547
136.55026,135.9425811767578
135.45428,135.3798065185547
139.59842,139.08177185058594
140.16885,140.33216857910156
138.05927,138.08148193359375
142.13116,142.23919677734375
150.16525,148.8279571533203
143.59935,142.72142028808594
135.70326,135.88851928710938
142.55304,142.63424682617188
148.12425,147.18572998046875
145.27193,145.16482543945312
137.50868,136.86624145507812
135.88275,135.5329132080078
145.445,145.14089965820312
137.1731,137.03221130371094
150.114,149.67982482910156
146.41283,145.90545654296875
155.71384,155.32098388671875
138.40993,138.2019805908203
144.57417,143.23562622070312
141.16449,141.05221557617188
153.96819,152.63787841796875
138.60689,138.76429748535156
