envelope_inf_hlc,envelope_inf_hlc_pred
136.35173,136.31448364257812
147.77072,146.7528076171875
144.92389,145.12704467773438
141.03802,140.60687255859375
149.94408,148.8195037841797
141.5589,140.470947265625
137.4709,136.09927368164062
140.51831,140.6626434326172
141.97429,141.6761932373047
135.72923,135.42190551757812
140.08815,140.24508666992188
149.52583,148.64048767089844
150.7411,150.19989013671875
152.64372,151.965087890625
141.1991,141.03089904785156
148.23434,147.23757934570312
145.33003,145.53526306152344
136.63919,137.13919067382812
134.0381,133.9963836669922
146.67136,146.68939208984375
141.66417,140.8321533203125
136.67072,136.37472534179688
151.80579,150.00489807128906
139.59634,139.44273376464844
134.70708,133.79701232910156
137.945,137.71095275878906
135.81787,135.7444305419922
141.72714,141.23751831054688
144.63002,144.41741943359375
149.60918,148.76478576660156
148.27342,147.42227172851562
149.74467,148.0028839111328
138.85617,139.2872772216797
145.70186,145.63925170898438
144.5311,144.6319122314453
136.25168,136.0142059326172
141.29977,140.23419189453125
148.02437,147.8629608154297
146.6629,145.2211456298828
136.65509,136.86083984375
142.11969,142.26959228515625
140.36357,139.62664794921875
143.81647,142.9363555908203
141.13072,140.79397583007812
139.58435,139.78366088867188
140.24069,138.7415313720703
144.94429,143.32461547851562
139.46666,139.914794921875
148.30746,147.135009765625
140.79404,140.6348876953125
146.29062,146.1392059326172
137.913,137.5127716064453
140.16911,140.31983947753906
150.2804,150.16619873046875
146.45076,146.48678588867188
134.60051,135.33824157714844
136.80965,137.25323486328125
142.20445,141.56820678710938
150.08109,150.07456970214844
138.89392,138.57838439941406
146.18683,145.63882446289062
151.78812,151.31015014648438
141.02675,139.7392578125
145.48338,145.15731811523438
143.97314,142.49749755859375
153.2738,151.95338439941406
143.41986,143.52142333984375
142.73663,142.77108764648438
139.22324,137.82664489746094
146.9704,146.69180297851562
142.38751,141.10647583007812
138.95442,137.78733825683594
146.80168,146.60842895507812
139.17876,139.87799072265625
137.78027,137.5008544921875
140.21045,139.94744873046875
144.8575,144.88446044921875
139.21965,138.58311462402344
146.2412,146.18731689453125
140.56802,140.4122772216797
136.73953,137.5641632080078
140.78969,140.33282470703125
136.98943,136.84902954101562
143.4528,143.537841796875
152.62328,151.12014770507812
152.14946,151.33265686035156
147.83311,146.57318115234375
146.53748,146.1428985595703
137.66829,137.48829650878906
141.60037,140.6827850341797
140.52011,139.32293701171875
141.9254,141.29095458984375
137.02542,137.0650634765625
136.20142,135.45462036132812
145.87106,145.30816650390625
147.7092,147.05197143554688
147.29153,147.49984741210938
142.88351,142.6152801513672
141.93774,141.3433380126953
139.31136,138.58309936523438
145.14691,145.18955993652344
136.24243,135.1274871826172
146.54349,145.19625854492188
144.07893,142.99551391601562
139.65843,139.69293212890625
141.60895,141.538330078125
138.2511,137.31239318847656
136.91011,136.80426025390625
144.63428,143.8941650390625
136.60751,136.40948486328125
137.3607,136.42257690429688
135.00722,135.11328125
153.46962,152.6128692626953
141.791,142.01197814941406
151.66219,150.69984436035156
148.63284,147.31175231933594
139.20395,138.59658813476562
144.92868,143.85084533691406
147.06511,146.7926025390625
139.34132,138.8061981201172
138.31888,137.5950469970703
136.7041,136.89195251464844
135.43321,135.31085205078125
155.04193,154.7994384765625
141.5556,141.6173553466797
144.22165,144.23104858398438
141.3341,140.14710998535156
147.62866,146.94175720214844
142.95457,142.79876708984375
149.21773,147.71673583984375
144.4484,143.4993438720703
145.9707,145.2649383544922
137.78343,137.7592315673828
154.84927,153.67344665527344
152.63818,151.67539978027344
151.38094,149.92926025390625
145.34514,144.63430786132812
144.73637,144.7861328125
146.24915,145.20791625976562
146.18747,145.89910888671875
147.6937,147.0264892578125
139.93907,139.72410583496094
135.925,135.4654083251953
146.38199,146.8098602294922
138.68198,138.00558471679688
150.03236,149.06961059570312
145.3904,145.36734008789062
141.64781,142.0469512939453
136.46292,135.5318145751953
144.39067,145.0516357421875
147.05379,145.48973083496094
137.40852,137.449462890625
141.98668,141.53717041015625
138.88441,138.78639221191406
146.52629,146.37387084960938
140.61188,141.02931213378906
138.88127,138.2791748046875
142.89998,142.481689453125
148.79427,148.8990478515625
137.23601,137.40345764160156
143.39525,142.7648162841797
138.07002,138.3837432861328
155.68399,154.3526611328125
144.15411,143.4399871826172
138.63017,138.79042053222656
134.99109,135.1641845703125
136.29274,136.6073760986328
137.42064,136.51087951660156
149.99222,149.27139282226562
142.82193,142.93316650390625
143.79819,143.82351684570312
142.57217,142.2556915283203
143.38435,143.0419921875
141.77383,140.6516571044922
144.30269,143.1522216796875
146.39845,145.01690673828125
137.56404,137.8307647705078
151.8953,150.53419494628906
139.41132,139.51458740234375
