envelope_inf_hlc,envelope_inf_hlc_pred
43.9971,43.352237701416016
52.553078,52.109596252441406
58.65703,57.61892318725586
42.467075,41.99844741821289
47.896297,46.136940002441406
47.971565,46.7261848449707
43.59591,42.948246002197266
59.0313,57.807926177978516
51.045677,50.065853118896484
41.01536,40.880802154541016
47.84212,46.959407806396484
48.868755,48.06405258178711
44.254707,43.44895553588867
51.24081,50.93042755126953
41.77842,41.55231475830078
52.958496,52.09281539916992
59.77658,58.08610534667969
45.77176,45.113895416259766
58.380585,56.4142951965332
46.54454,45.33624267578125
46.604885,46.13145446777344
51.154438,50.07320785522461
45.066624,43.50533676147461
40.77222,40.58987045288086
42.53959,42.111976623535156
52.94603,51.947113037109375
42.649143,42.296749114990234
42.121407,42.02505874633789
45.75642,45.392127990722656
54.76035,53.42603302001953
47.996735,47.85518264770508
48.17374,47.44611358642578
49.195877,47.94602584838867
50.04984,49.5078125
45.52831,45.09461212158203
44.937893,44.653221130371094
42.585957,42.38874435424805
48.045864,47.43916702270508
57.022285,56.009437561035156
52.343246,51.11252975463867
42.19862,41.54862594604492
50.74867,49.797630310058594
40.695602,40.4517822265625
52.93583,52.24785614013672
53.528725,51.2359504699707
45.33742,44.295013427734375
56.63004,55.8917350769043
44.998825,44.66904830932617
56.578064,55.174903869628906
43.121548,42.6370964050293
46.20349,45.9217643737793
50.70574,50.19926071166992
47.45773,46.39241027832031
53.03717,51.0992317199707
59.595757,57.82980728149414
61.625668,60.3303337097168
52.38435,51.676692962646484
50.81217,48.31336212158203
53.104244,51.5555534362793
53.066,51.25515365600586
57.22023,56.32162094116211
42.175747,41.83671951293945
51.29046,50.273956298828125
50.660713,48.57017517089844
48.466305,47.404396057128906
51.903393,50.61287307739258
44.014797,43.780982971191406
43.840244,43.20754623413086
52.066048,51.076995849609375
50.58992,49.555049896240234
43.790356,43.089176177978516
44.744545,43.305152893066406
42.63154,42.34149932861328
51.48009,50.94501495361328
47.146797,46.976707458496094
50.426083,48.67915725708008
49.187073,48.01377868652344
51.502174,49.31411361694336
42.879997,42.345497131347656
43.75627,43.19773483276367
53.540215,51.97840881347656
53.987423,52.93164825439453
46.099724,45.75407791137695
44.96363,44.07786560058594
46.571846,45.876800537109375
44.98212,44.5204963684082
52.536617,51.617618560791016
47.57869,46.3680419921875
52.119896,50.92012023925781
50.407013,48.89604187011719
48.30278,47.676090240478516
41.210133,41.1127815246582
55.12772,53.16539764404297
53.12411,52.63966369628906
42.970936,42.63996887207031
48.290237,48.15771484375
56.525528,55.41035461425781
46.634865,46.567481994628906
43.404903,42.258522033691406
53.49572,52.381805419921875
45.445675,44.97609329223633
49.42309,48.50010299682617
49.402466,48.65338134765625
42.395576,42.14244079589844
42.63967,42.1812629699707
50.84963,50.23636245727539
47.509808,46.17270278930664
40.42417,40.35323715209961
54.582935,52.71149826049805
51.28058,50.639957427978516
53.240673,52.4388427734375
42.89896,42.199214935302734
48.226006,47.680519104003906
54.211754,52.92539596557617
45.450832,45.02273941040039
52.629997,51.371543884277344
46.737724,46.19349670410156
47.900364,47.373844146728516
42.533115,42.39878845214844
51.290195,50.95102310180664
44.385365,43.904090881347656
55.41719,54.395687103271484
46.333813,45.817474365234375
43.69908,43.296897888183594
58.761967,56.660369873046875
54.503654,53.5338134765625
42.147514,41.842987060546875
46.13703,45.322296142578125
54.982098,53.90291213989258
56.271557,54.63656997680664
48.540573,47.51485824584961
43.99298,43.474761962890625
43.63432,42.61698532104492
59.45082,57.79490661621094
47.800495,47.369686126708984
54.633713,53.97273635864258
51.79665,50.89055633544922
46.726948,46.22468185424805
45.923542,45.37712860107422
43.30578,42.758583068847656
39.922432,39.761722564697266
54.305965,53.18478775024414
45.29506,44.94203567504883
51.66414,50.0812873840332
44.593132,43.86972427368164
45.656544,44.988529205322266
52.69696,52.244693756103516
54.369312,52.025917053222656
46.850807,45.91947937011719
49.090843,48.52418518066406
42.749832,42.581661224365234
47.31164,45.701881408691406
47.666824,47.20631408691406
61.45518,59.84202575683594
49.668606,48.890472412109375
58.977028,57.85664749145508
58.492584,56.86479187011719
47.270496,46.99284362792969
45.311954,44.3343620300293
56.062214,54.67034912109375
57.109028,56.3397102355957
56.81959,55.193721771240234
61.875183,60.938873291015625
42.00643,41.77727508544922
47.400337,46.9630126953125
41.697845,41.425540924072266
57.78734,56.50920486450195
48.213722,47.288570404052734
49.32194,49.080322265625
45.43924,44.37569046020508
55.137955,54.265830993652344
50.57802,50.18281936645508
50.87517,49.62619400024414
59.71055,58.3711051940918
48.06782,47.80058670043945
49.41013,48.69985580444336
53.258717,52.28071975708008
53.7756,52.96233367919922
48.94246,48.86004638671875
50.81248,49.999454498291016
51.40033,49.423892974853516
