envelope_inf_hlc,envelope_inf_hlc_pred
143.82611,143.05422973632812
146.02579,145.8863525390625
144.02838,142.90753173828125
151.09747,150.61985778808594
137.07579,137.14523315429688
133.01984,133.5662384033203
143.92517,143.18902587890625
140.71947,140.0570526123047
145.2186,143.80616760253906
136.4303,136.21224975585938
154.30392,153.54957580566406
146.6411,146.1978759765625
141.42647,141.37123107910156
136.69182,135.45362854003906
155.93237,155.22952270507812
133.63687,134.23989868164062
155.82907,154.35882568359375
135.77647,136.3826141357422
141.55386,141.06924438476562
144.22104,142.84423828125
138.81775,139.4869384765625
137.60269,136.7049560546875
144.73106,145.20477294921875
144.54488,144.4402313232422
144.35101,144.0308074951172
135.97319,135.28994750976562
146.47636,144.81370544433594
134.52397,134.86978149414062
153.25095,151.61276245117188
152.25381,150.58935546875
152.10323,151.6925811767578
140.52716,140.261474609375
136.1559,135.89846801757812
141.16188,141.29931640625
148.27353,147.4918670654297
143.9371,142.3112335205078
156.61842,154.8080291748047
150.39458,149.97171020507812
146.64482,146.6645050048828
135.42058,134.03762817382812
146.21194,145.23788452148438
146.18422,145.71951293945312
136.99495,137.22866821289062
141.97928,141.31341552734375
139.64836,139.16835021972656
143.72772,142.43994140625
140.28299,139.1750030517578
151.76886,150.3587646484375
138.18163,138.90379333496094
148.49995,146.75563049316406
141.05838,140.3441162109375
137.94028,137.88836669921875
147.35425,147.20716857910156
145.1867,145.35968017578125
136.57042,136.39187622070312
146.15121,146.23651123046875
141.34207,141.35670471191406
146.17883,145.6032257080078
145.52083,145.35806274414062
140.46669,138.98373413085938
145.30794,145.51296997070312
135.8341,136.01272583007812
135.62894,134.54005432128906
139.96524,138.55337524414062
148.80966,147.71475219726562
141.78952,141.0749969482422
135.85654,135.85975646972656
149.40775,148.03604125976562
143.82437,142.8326416015625
135.49213,135.21697998046875
139.02216,139.1240997314453
139.41307,139.2606964111328
134.06012,134.43865966796875
152.41913,150.44943237304688
150.28766,149.29727172851562
138.25835,137.6265869140625
153.16957,152.64291381835938
140.8727,140.76976013183594
147.87337,146.5946807861328
149.77333,149.27818298339844
147.98871,146.30191040039062
138.65764,137.67633056640625
148.28789,147.133544921875
139.00589,138.76251220703125
141.58835,141.1973876953125
136.63461,135.6600341796875
146.42128,146.58409118652344
143.70142,143.43991088867188
146.45943,145.9708251953125
150.2127,149.0350341796875
141.08319,140.928955078125
134.84854,134.63504028320312
144.6529,142.78895568847656
136.08585,135.9495849609375
139.71825,138.4597930908203
143.23672,143.00299072265625
142.6602,142.50668334960938
144.21568,144.9578399658203
135.34836,134.475341796875
148.37492,148.111572265625
136.87535,136.80502319335938
136.17052,136.59666442871094
149.71394,149.1282501220703
144.37079,143.64480590820312
137.63664,136.53463745117188
140.60713,140.5330810546875
143.59906,142.41050720214844
139.83424,139.2146759033203
142.55354,142.2556610107422
138.61232,137.99008178710938
143.08708,142.9056854248047
135.36188,135.1181640625
141.79338,141.81703186035156
135.87563,135.63279724121094
145.31271,144.62060546875
137.36195,137.54229736328125
145.93344,145.3329315185547
138.24722,137.29591369628906
153.15358,152.6973876953125
152.23944,151.65548706054688
141.18793,141.44569396972656
144.68477,142.98167419433594
140.06088,140.13414001464844
135.8015,136.34512329101562
140.01564,139.8815460205078
139.5232,139.6838836669922
138.73505,138.63623046875
137.90019,137.6640625
133.77576,133.11932373046875
141.2259,140.4349822998047
140.721,141.16607666015625
138.6097,139.50196838378906
138.5463,137.66188049316406
146.99654,145.57310485839844
138.61548,137.17764282226562
134.90309,134.17466735839844
138.15672,137.14768981933594
134.0218,133.9193572998047
140.20003,140.0160369873047
147.04407,146.3484649658203
145.64905,144.8899383544922
141.33398,141.67257690429688
142.31703,142.3148651123047
136.91618,136.56832885742188
143.06764,143.21929931640625
149.02043,149.42877197265625
142.46547,141.6942901611328
146.43982,145.07603454589844
142.49611,141.42251586914062
146.66689,145.33470153808594
154.07301,152.6636199951172
150.32709,148.72315979003906
147.65807,147.21717834472656
141.08107,140.69827270507812
136.51695,135.55935668945312
141.29663,141.10923767089844
150.61302,149.96343994140625
142.11095,142.3111114501953
144.59538,143.9620819091797
141.51845,140.4989013671875
146.71965,146.61253356933594
137.15411,136.46408081054688
139.70325,139.88638305664062
150.19157,148.39056396484375
144.98009,145.4152374267578
147.7835,146.98939514160156
139.0268,138.63528442382812
135.89255,136.51870727539062
147.68312,147.0981903076172
135.38115,135.5557098388672
143.23,142.93841552734375
137.14105,137.28652954101562
152.63821,152.1588897705078
139.99167,140.26560974121094
146.92152,146.52552795410156
138.87627,138.62681579589844
144.38498,143.6230926513672
146.37991,146.72216796875
135.0509,134.73641967773438
138.29816,138.82652282714844
