envelope_inf_hlc,envelope_inf_hlc_pred
49.752216,51.3099479675293
41.613533,43.31833267211914
43.596874,44.97096252441406
48.445957,50.71946716308594
53.333992,54.44063186645508
42.012333,43.77241516113281
44.33396,46.9826545715332
51.80981,53.5573616027832
41.697308,44.32807159423828
49.158817,51.53832244873047
44.479862,46.24747085571289
55.18147,54.80510711669922
47.965786,48.43650817871094
44.658855,47.46968078613281
45.618183,49.401546478271484
56.582226,59.0391731262207
44.354015,47.12339401245117
46.274357,48.29537582397461
45.211918,47.84184265136719
57.783653,58.99333953857422
53.122456,54.23363494873047
46.97388,49.18906784057617
40.42266,43.20903015136719
40.80346,44.12286376953125
51.451763,51.65479278564453
55.24111,57.940956115722656
44.800858,46.8479118347168
54.700172,55.80250549316406
55.50899,58.35682678222656
60.232986,63.05094528198242
46.918232,48.0105094909668
44.018356,47.815940856933594
56.95479,58.192466735839844
45.337177,47.152835845947266
42.513866,45.67406463623047
46.720005,49.286930084228516
46.42822,48.227508544921875
60.34254,64.64120483398438
54.046955,55.45473861694336
57.88553,59.19313049316406
46.716923,49.11100387573242
47.830902,50.420204162597656
46.68315,47.273643493652344
50.11229,49.7633056640625
61.032856,62.36716842651367
51.609924,55.37541961669922
51.58489,53.27201843261719
49.25519,51.6209716796875
46.265827,48.58190155029297
47.63255,49.805198669433594
49.609966,49.30269241333008
42.342808,46.29435729980469
45.634613,49.01998519897461
45.64201,47.25979995727539
41.764614,45.606529235839844
42.738583,45.32417297363281
48.0949,49.594425201416016
51.899006,52.02491760253906
51.71235,53.86359786987305
55.277985,56.98859786987305
44.31723,45.574012756347656
51.2201,53.1406364440918
42.957333,45.56349563598633
52.185696,52.54812240600586
43.419804,46.607173919677734
44.681683,46.178157806396484
40.817135,43.644874572753906
49.850197,53.151729583740234
53.33022,54.25530242919922
52.793575,53.873497009277344
42.929462,44.11423873901367
47.129986,49.41944122314453
52.963985,55.75403594970703
51.80163,54.80874252319336
55.92767,58.880245208740234
49.748116,51.72100830078125
53.42174,55.46173095703125
41.787502,42.5998649597168
54.43441,54.19200134277344
42.733612,45.19350051879883
49.949413,51.60258483886719
55.221523,56.97974395751953
41.252308,42.29896926879883
39.822388,42.55400848388672
53.827187,54.102664947509766
42.80031,44.35924530029297
47.468533,49.50707244873047
41.961884,44.631568908691406
47.36142,49.601722717285156
52.856197,55.38800048828125
47.086857,48.536746978759766
43.867023,45.59865188598633
45.515305,46.88067626953125
42.256687,44.49121856689453
52.16374,53.755699157714844
43.68205,44.738807678222656
51.168434,53.7271614074707
49.028717,49.766571044921875
50.457676,52.13074493408203
48.662697,50.3011360168457
57.127483,58.25906753540039
45.663464,48.5142707824707
47.09274,47.36712646484375
46.671284,47.799869537353516
41.7168,43.197601318359375
41.222157,43.64995574951172
46.888924,49.33879089355469
46.10729,47.87076187133789
42.90028,45.359317779541016
49.291878,51.3684196472168
53.56148,55.50160598754883
43.44565,45.96104049682617
50.93207,53.481773376464844
56.914745,57.995880126953125
46.294598,48.54985427856445
51.341797,54.29620361328125
46.77609,47.22091293334961
43.99735,45.78447341918945
49.2948,50.16021728515625
49.517418,53.39904022216797
44.625244,47.71530532836914
44.007183,46.14561462402344
42.58115,44.32693099975586
44.236443,47.84836959838867
47.973362,50.99633026123047
50.042183,52.415401458740234
41.36607,42.41442108154297
41.288593,46.881103515625
51.35012,53.83818054199219
52.44083,53.36985778808594
43.150806,46.038429260253906
51.730083,52.39514923095703
58.88891,60.057029724121094
45.292927,46.62434387207031
39.64017,42.1981315612793
39.940647,42.709163665771484
52.80026,54.752567291259766
49.65831,49.899375915527344
51.366558,52.209354400634766
40.030132,42.594173431396484
45.078915,48.39230728149414
46.892258,50.78696823120117
51.66535,52.6726188659668
44.382576,44.249603271484375
50.463673,53.5943489074707
48.16244,50.92882537841797
52.06363,53.208343505859375
41.952305,41.87798309326172
51.89387,54.24589157104492
49.097565,51.65029525756836
39.025738,41.176246643066406
47.276085,49.9884033203125
46.691864,48.69979476928711
41.642277,44.123592376708984
50.26784,53.214412689208984
48.525375,49.98788833618164
50.549923,50.885292053222656
54.80276,56.75600814819336
44.464825,48.04069900512695
45.44395,45.62731170654297
55.178623,57.4807014465332
46.11286,47.0100212097168
41.731995,44.7403564453125
43.886375,47.21195983886719
50.021793,49.30400085449219
41.38326,42.465858459472656
41.006706,43.941036224365234
57.921623,58.15092086791992
45.94746,46.41263198852539
57.044857,59.17061996459961
48.663273,50.77045440673828
50.567207,52.14169692993164
42.346977,42.10783386230469
58.69413,57.68384552001953
57.33966,59.667755126953125
50.76652,53.78740692138672
49.25127,51.32209396362305
45.751537,48.522159576416016
41.534096,42.616172790527344
