envelope_hlc,envelope_hlc_pred,md
43.64324,43.34372329711914,"[b'chicago', b'control_wood', b'False', b'job169']"
42.606815,42.23142623901367,"[b'chicago', b'control_wood', b'False', b'job61']"
42.026863,41.7069091796875,"[b'chicago', b'control_wood', b'False', b'job63']"
52.214252,51.17265701293945,"[b'chicago', b'control_wood', b'False', b'job114']"
41.64287,41.697139739990234,"[b'chicago', b'control_wood', b'False', b'job94']"
54.938457,54.20773696899414,"[b'chicago', b'control_wood', b'False', b'job7']"
46.328644,45.51287841796875,"[b'chicago', b'control_wood', b'False', b'job195']"
46.35107,46.10651397705078,"[b'chicago', b'control_wood', b'False', b'job57']"
54.294846,53.179168701171875,"[b'chicago', b'control_wood', b'False', b'job109']"
42.939816,42.646461486816406,"[b'chicago', b'control_wood', b'False', b'job91']"
42.763283,42.31112289428711,"[b'chicago', b'control_wood', b'False', b'job47']"
49.21888,48.436607360839844,"[b'chicago', b'control_wood', b'False', b'job35']"
44.600452,43.7065544128418,"[b'chicago', b'control_wood', b'False', b'job142']"
51.971558,51.8132438659668,"[b'chicago', b'control_wood', b'False', b'job75']"
41.297543,40.999351501464844,"[b'chicago', b'control_wood', b'False', b'job85']"
49.348278,49.279541015625,"[b'chicago', b'control_wood', b'False', b'job105']"
46.37173,46.162837982177734,"[b'chicago', b'control_wood', b'False', b'job130']"
43.97882,43.84984588623047,"[b'chicago', b'control_wood', b'False', b'job110']"
41.588276,41.02291488647461,"[b'chicago', b'control_wood', b'False', b'job194']"
41.995556,41.34739685058594,"[b'chicago', b'control_wood', b'False', b'job58']"
46.873653,46.69411849975586,"[b'chicago', b'control_wood', b'False', b'job96']"
43.450645,42.795223236083984,"[b'chicago', b'control_wood', b'False', b'job8']"
53.885586,53.25856018066406,"[b'chicago', b'control_wood', b'False', b'job21']"
58.649555,58.3179931640625,"[b'chicago', b'control_wood', b'False', b'job66']"
54.74824,54.450523376464844,"[b'chicago', b'control_wood', b'False', b'job192']"
57.89865,56.65400314331055,"[b'chicago', b'control_wood', b'False', b'job163']"
46.11591,45.61930847167969,"[b'chicago', b'control_wood', b'False', b'job82']"
41.266636,41.29145431518555,"[b'chicago', b'control_wood', b'False', b'job5']"
45.63351,45.22711944580078,"[b'chicago', b'control_wood', b'False', b'job198']"
47.899773,47.739112854003906,"[b'chicago', b'control_wood', b'False', b'job125']"
57.384777,56.82410430908203,"[b'chicago', b'control_wood', b'False', b'job177']"
42.38916,41.78820037841797,"[b'chicago', b'control_wood', b'False', b'job121']"
55.138626,54.68896484375,"[b'chicago', b'control_wood', b'False', b'job160']"
50.819992,50.562068939208984,"[b'chicago', b'control_wood', b'False', b'job111']"
55.285072,54.49943923950195,"[b'chicago', b'control_wood', b'False', b'job157']"
48.932945,48.503414154052734,"[b'chicago', b'control_wood', b'False', b'job27']"
49.616016,48.72785186767578,"[b'chicago', b'control_wood', b'False', b'job9']"
42.75034,42.756195068359375,"[b'chicago', b'control_wood', b'False', b'job115']"
39.98254,39.59862518310547,"[b'chicago', b'control_wood', b'False', b'job38']"
52.45542,52.0806999206543,"[b'chicago', b'control_wood', b'False', b'job16']"
56.996265,56.17565155029297,"[b'chicago', b'control_wood', b'False', b'job129']"
50.389866,50.46904373168945,"[b'chicago', b'control_wood', b'False', b'job118']"
51.94495,50.80998611450195,"[b'chicago', b'control_wood', b'False', b'job167']"
47.92177,47.43156433105469,"[b'chicago', b'control_wood', b'False', b'job133']"
47.692467,47.62517166137695,"[b'chicago', b'control_wood', b'False', b'job137']"
57.67159,56.94854736328125,"[b'chicago', b'control_wood', b'False', b'job187']"
42.852314,42.70981979370117,"[b'chicago', b'control_wood', b'False', b'job36']"
41.80787,41.67129898071289,"[b'chicago', b'control_wood', b'False', b'job143']"
46.43892,45.8549690246582,"[b'chicago', b'control_wood', b'False', b'job24']"
56.494015,55.651939392089844,"[b'chicago', b'control_wood', b'False', b'job174']"
49.366913,48.185123443603516,"[b'chicago', b'control_wood', b'False', b'job122']"
46.19412,45.055240631103516,"[b'chicago', b'control_wood', b'False', b'job171']"
50.076466,49.979766845703125,"[b'chicago', b'control_wood', b'False', b'job176']"
39.909355,39.70586395263672,"[b'chicago', b'control_wood', b'False', b'job123']"
46.761806,45.55611801147461,"[b'chicago', b'control_wood', b'False', b'job107']"
45.266792,44.92671203613281,"[b'chicago', b'control_wood', b'False', b'job42']"
46.841072,46.348541259765625,"[b'chicago', b'control_wood', b'False', b'job119']"
52.860077,51.749603271484375,"[b'chicago', b'control_wood', b'False', b'job186']"
43.18064,42.742431640625,"[b'chicago', b'control_wood', b'False', b'job12']"
51.267193,51.002227783203125,"[b'chicago', b'control_wood', b'False', b'job34']"
41.811646,41.747379302978516,"[b'chicago', b'control_wood', b'False', b'job136']"
46.74475,46.4124870300293,"[b'chicago', b'control_wood', b'False', b'job52']"
42.653866,42.16783142089844,"[b'chicago', b'control_wood', b'False', b'job10']"
45.747215,45.09353256225586,"[b'chicago', b'control_wood', b'False', b'job173']"
54.764553,54.23802185058594,"[b'chicago', b'control_wood', b'False', b'job127']"
50.02789,50.306087493896484,"[b'chicago', b'control_wood', b'False', b'job112']"
51.83637,51.29264450073242,"[b'chicago', b'control_wood', b'False', b'job33']"
43.906013,43.64413070678711,"[b'chicago', b'control_wood', b'False', b'job104']"
49.054874,48.814552307128906,"[b'chicago', b'control_wood', b'False', b'job152']"
51.404354,50.9321403503418,"[b'chicago', b'control_wood', b'False', b'job170']"
39.065044,38.720306396484375,"[b'chicago', b'control_wood', b'False', b'job31']"
42.305656,41.88969421386719,"[b'chicago', b'control_wood', b'False', b'job181']"
51.313004,50.99962615966797,"[b'chicago', b'control_wood', b'False', b'job11']"
44.26729,43.768882751464844,"[b'chicago', b'control_wood', b'False', b'job189']"
45.5627,45.212242126464844,"[b'chicago', b'control_wood', b'False', b'job86']"
55.08909,54.49717330932617,"[b'chicago', b'control_wood', b'False', b'job3']"
40.867874,40.490821838378906,"[b'chicago', b'control_wood', b'False', b'job68']"
40.082676,39.59247589111328,"[b'chicago', b'control_wood', b'False', b'job62']"
50.59208,50.513057708740234,"[b'chicago', b'control_wood', b'False', b'job108']"
49.568863,48.7028694152832,"[b'chicago', b'control_wood', b'False', b'job164']"
57.78086,56.82081604003906,"[b'chicago', b'control_wood', b'False', b'job37']"
41.697742,41.72380447387695,"[b'chicago', b'control_wood', b'False', b'job141']"
50.431213,49.4687385559082,"[b'chicago', b'control_wood', b'False', b'job180']"
52.880825,52.56453323364258,"[b'chicago', b'control_wood', b'False', b'job51']"
48.65495,48.04719161987305,"[b'chicago', b'control_wood', b'False', b'job30']"
45.25842,44.9323616027832,"[b'chicago', b'control_wood', b'False', b'job56']"
45.473194,44.79951095581055,"[b'chicago', b'control_wood', b'False', b'job39']"
47.46154,47.28521728515625,"[b'chicago', b'control_wood', b'False', b'job44']"
51.8111,51.40016555786133,"[b'chicago', b'control_wood', b'False', b'job128']"
50.413933,49.99372100830078,"[b'chicago', b'control_wood', b'False', b'job191']"
44.78896,44.70710372924805,"[b'chicago', b'control_wood', b'False', b'job153']"
53.81635,53.15860366821289,"[b'chicago', b'control_wood', b'False', b'job60']"
60.855846,59.91904067993164,"[b'chicago', b'control_wood', b'False', b'job73']"
46.719788,46.31184005737305,"[b'chicago', b'control_wood', b'False', b'job168']"
45.68382,45.17979049682617,"[b'chicago', b'control_wood', b'False', b'job135']"
41.36994,40.708919525146484,"[b'chicago', b'control_wood', b'False', b'job70']"
45.06789,44.58116912841797,"[b'chicago', b'control_wood', b'False', b'job65']"
43.912556,42.850990295410156,"[b'chicago', b'control_wood', b'False', b'job178']"
48.569767,48.34548568725586,"[b'chicago', b'control_wood', b'False', b'job166']"
40.890896,40.99116134643555,"[b'chicago', b'control_wood', b'False', b'job54']"
41.776955,41.77231216430664,"[b'chicago', b'control_wood', b'False', b'job126']"
47.247425,46.928253173828125,"[b'chicago', b'control_wood', b'False', b'job190']"
45.63064,45.33492660522461,"[b'chicago', b'control_wood', b'False', b'job117']"
48.343384,47.96355438232422,"[b'chicago', b'control_wood', b'False', b'job92']"
44.33607,44.15443420410156,"[b'chicago', b'control_wood', b'False', b'job131']"
53.372066,53.086761474609375,"[b'chicago', b'control_wood', b'False', b'job183']"
39.68542,39.2166748046875,"[b'chicago', b'control_wood', b'False', b'job23']"
58.52175,57.781593322753906,"[b'chicago', b'control_wood', b'False', b'job87']"
46.77142,46.77347183227539,"[b'chicago', b'control_wood', b'False', b'job20']"
43.510887,43.36574172973633,"[b'chicago', b'control_wood', b'False', b'job45']"
46.957516,46.5760498046875,"[b'chicago', b'control_wood', b'False', b'job6']"
44.072178,43.68891906738281,"[b'chicago', b'control_wood', b'False', b'job124']"
42.996784,42.31146240234375,"[b'chicago', b'control_wood', b'False', b'job43']"
44.464073,43.3781623840332,"[b'chicago', b'control_wood', b'False', b'job197']"
52.112823,52.06525802612305,"[b'chicago', b'control_wood', b'False', b'job99']"
41.438213,40.8790397644043,"[b'chicago', b'control_wood', b'False', b'job72']"
48.23504,47.939048767089844,"[b'chicago', b'control_wood', b'False', b'job55']"
57.045944,55.69527816772461,"[b'chicago', b'control_wood', b'False', b'job188']"
55.468525,55.10129928588867,"[b'chicago', b'control_wood', b'False', b'job106']"
49.8865,49.1201057434082,"[b'chicago', b'control_wood', b'False', b'job172']"
51.60604,50.617393493652344,"[b'chicago', b'control_wood', b'False', b'job148']"
44.04313,43.55498504638672,"[b'chicago', b'control_wood', b'False', b'job150']"
51.02937,50.74276351928711,"[b'chicago', b'control_wood', b'False', b'job149']"
44.502007,44.142112731933594,"[b'chicago', b'control_wood', b'False', b'job14']"
51.58801,51.1091423034668,"[b'chicago', b'control_wood', b'False', b'job155']"
55.26869,54.85251998901367,"[b'chicago', b'control_wood', b'False', b'job161']"
47.42246,46.48243713378906,"[b'chicago', b'control_wood', b'False', b'job175']"
51.26549,50.39692687988281,"[b'chicago', b'control_wood', b'False', b'job193']"
50.1006,49.31647491455078,"[b'chicago', b'control_wood', b'False', b'job40']"
44.539387,44.39859390258789,"[b'chicago', b'control_wood', b'False', b'job102']"
43.005943,42.79851150512695,"[b'chicago', b'control_wood', b'False', b'job158']"
44.73193,44.19841003417969,"[b'chicago', b'control_wood', b'False', b'job69']"
41.401978,40.9487419128418,"[b'chicago', b'control_wood', b'False', b'job144']"
53.517563,52.70481872558594,"[b'chicago', b'control_wood', b'False', b'job147']"
52.231113,50.873661041259766,"[b'chicago', b'control_wood', b'False', b'job184']"
43.721104,43.13471984863281,"[b'chicago', b'control_wood', b'False', b'job185']"
60.218052,59.932308197021484,"[b'chicago', b'control_wood', b'False', b'job179']"
53.29684,53.255096435546875,"[b'chicago', b'control_wood', b'False', b'job101']"
46.70386,46.47803497314453,"[b'chicago', b'control_wood', b'False', b'job145']"
51.4449,51.591705322265625,"[b'chicago', b'control_wood', b'False', b'job200']"
53.040024,52.725215911865234,"[b'chicago', b'control_wood', b'False', b'job89']"
53.28578,52.40750503540039,"[b'chicago', b'control_wood', b'False', b'job22']"
55.854534,55.42450714111328,"[b'chicago', b'control_wood', b'False', b'job79']"
41.74438,41.38534164428711,"[b'chicago', b'control_wood', b'False', b'job151']"
49.6503,49.185302734375,"[b'chicago', b'control_wood', b'False', b'job71']"
44.656273,44.500816345214844,"[b'chicago', b'control_wood', b'False', b'job182']"
50.266907,49.92894744873047,"[b'chicago', b'control_wood', b'False', b'job165']"
41.6948,41.65230178833008,"[b'chicago', b'control_wood', b'False', b'job132']"
56.95627,56.35677719116211,"[b'chicago', b'control_wood', b'False', b'job162']"
40.474968,40.209808349609375,"[b'chicago', b'control_wood', b'False', b'job13']"
60.081657,59.754878997802734,"[b'chicago', b'control_wood', b'False', b'job159']"
49.524643,49.354949951171875,"[b'chicago', b'control_wood', b'False', b'job41']"
46.955956,46.442874908447266,"[b'chicago', b'control_wood', b'False', b'job59']"
42.057526,41.21751022338867,"[b'chicago', b'control_wood', b'False', b'job74']"
46.978687,46.591819763183594,"[b'chicago', b'control_wood', b'False', b'job90']"
48.46081,47.43581771850586,"[b'chicago', b'control_wood', b'False', b'job76']"
49.168087,47.979373931884766,"[b'chicago', b'control_wood', b'False', b'job154']"
53.138527,52.16764450073242,"[b'chicago', b'control_wood', b'False', b'job103']"
51.818794,50.58909606933594,"[b'chicago', b'control_wood', b'False', b'job83']"
49.81242,49.5396842956543,"[b'chicago', b'control_wood', b'False', b'job81']"
49.31849,48.23731231689453,"[b'chicago', b'control_wood', b'False', b'job140']"
57.037685,55.734432220458984,"[b'chicago', b'control_wood', b'False', b'job196']"
44.387447,44.0204963684082,"[b'chicago', b'control_wood', b'False', b'job98']"
48.15745,48.16240310668945,"[b'chicago', b'control_wood', b'False', b'job67']"
45.76321,45.27410888671875,"[b'chicago', b'control_wood', b'False', b'job116']"
42.406967,41.66996383666992,"[b'chicago', b'control_wood', b'False', b'job146']"
48.035004,46.92266082763672,"[b'chicago', b'control_wood', b'False', b'job113']"
44.301994,43.466407775878906,"[b'chicago', b'control_wood', b'False', b'job199']"
52.80274,52.30876541137695,"[b'chicago', b'control_wood', b'False', b'job120']"
51.624786,51.51286315917969,"[b'chicago', b'control_wood', b'False', b'job46']"
50.229343,49.19011306762695,"[b'chicago', b'control_wood', b'False', b'job4']"
46.9696,46.77860641479492,"[b'chicago', b'control_wood', b'False', b'job134']"
51.248592,51.172725677490234,"[b'chicago', b'control_wood', b'False', b'job32']"
41.09228,41.118045806884766,"[b'chicago', b'control_wood', b'False', b'job64']"
45.990055,45.4384880065918,"[b'chicago', b'control_wood', b'False', b'job156']"
47.02752,46.223167419433594,"[b'chicago', b'control_wood', b'False', b'job100']"
45.29427,44.291725158691406,"[b'chicago', b'control_wood', b'False', b'job139']"
47.225323,47.09640884399414,"[b'chicago', b'control_wood', b'False', b'job18']"
51.594135,51.48737335205078,"[b'chicago', b'control_wood', b'False', b'job138']"
