envelope_hlc,envelope_hlc_pred,md
43.64324,43.81638717651367,"[b'chicago', b'control_wood', b'False', b'job169']"
42.606815,42.50833511352539,"[b'chicago', b'control_wood', b'False', b'job61']"
42.026863,41.905731201171875,"[b'chicago', b'control_wood', b'False', b'job63']"
52.214252,51.553627014160156,"[b'chicago', b'control_wood', b'False', b'job114']"
41.64287,41.9615364074707,"[b'chicago', b'control_wood', b'False', b'job94']"
54.938457,53.791282653808594,"[b'chicago', b'control_wood', b'False', b'job7']"
46.328644,45.71907424926758,"[b'chicago', b'control_wood', b'False', b'job195']"
46.35107,46.58700942993164,"[b'chicago', b'control_wood', b'False', b'job57']"
54.294846,54.23851013183594,"[b'chicago', b'control_wood', b'False', b'job109']"
42.939816,42.93918991088867,"[b'chicago', b'control_wood', b'False', b'job91']"
42.763283,42.25933837890625,"[b'chicago', b'control_wood', b'False', b'job47']"
49.21888,48.49430847167969,"[b'chicago', b'control_wood', b'False', b'job35']"
44.600452,44.829227447509766,"[b'chicago', b'control_wood', b'False', b'job142']"
51.971558,52.34194564819336,"[b'chicago', b'control_wood', b'False', b'job75']"
41.297543,41.383338928222656,"[b'chicago', b'control_wood', b'False', b'job85']"
49.348278,49.743125915527344,"[b'chicago', b'control_wood', b'False', b'job105']"
46.37173,46.18842315673828,"[b'chicago', b'control_wood', b'False', b'job130']"
43.97882,44.15293502807617,"[b'chicago', b'control_wood', b'False', b'job110']"
41.588276,41.60194778442383,"[b'chicago', b'control_wood', b'False', b'job194']"
41.995556,41.387245178222656,"[b'chicago', b'control_wood', b'False', b'job58']"
46.873653,47.606834411621094,"[b'chicago', b'control_wood', b'False', b'job96']"
43.450645,43.72559356689453,"[b'chicago', b'control_wood', b'False', b'job8']"
53.885586,53.28575897216797,"[b'chicago', b'control_wood', b'False', b'job21']"
58.649555,58.267520904541016,"[b'chicago', b'control_wood', b'False', b'job66']"
54.74824,55.411659240722656,"[b'chicago', b'control_wood', b'False', b'job192']"
57.89865,56.313804626464844,"[b'chicago', b'control_wood', b'False', b'job163']"
46.11591,45.64194107055664,"[b'chicago', b'control_wood', b'False', b'job82']"
41.266636,41.781307220458984,"[b'chicago', b'control_wood', b'False', b'job5']"
45.63351,46.02743148803711,"[b'chicago', b'control_wood', b'False', b'job198']"
47.899773,48.86197280883789,"[b'chicago', b'control_wood', b'False', b'job125']"
57.384777,57.129478454589844,"[b'chicago', b'control_wood', b'False', b'job177']"
42.38916,41.82660675048828,"[b'chicago', b'control_wood', b'False', b'job121']"
55.138626,54.829612731933594,"[b'chicago', b'control_wood', b'False', b'job160']"
50.819992,50.935516357421875,"[b'chicago', b'control_wood', b'False', b'job111']"
55.285072,55.30895233154297,"[b'chicago', b'control_wood', b'False', b'job157']"
48.932945,48.742515563964844,"[b'chicago', b'control_wood', b'False', b'job27']"
49.616016,48.74500274658203,"[b'chicago', b'control_wood', b'False', b'job9']"
42.75034,42.38188552856445,"[b'chicago', b'control_wood', b'False', b'job115']"
39.98254,41.01654052734375,"[b'chicago', b'control_wood', b'False', b'job38']"
52.45542,53.99385070800781,"[b'chicago', b'control_wood', b'False', b'job16']"
56.996265,57.16701889038086,"[b'chicago', b'control_wood', b'False', b'job129']"
50.389866,50.09404373168945,"[b'chicago', b'control_wood', b'False', b'job118']"
51.94495,50.67238235473633,"[b'chicago', b'control_wood', b'False', b'job167']"
47.92177,47.87486267089844,"[b'chicago', b'control_wood', b'False', b'job133']"
47.692467,48.10944747924805,"[b'chicago', b'control_wood', b'False', b'job137']"
57.67159,58.05791473388672,"[b'chicago', b'control_wood', b'False', b'job187']"
42.852314,43.32121276855469,"[b'chicago', b'control_wood', b'False', b'job36']"
41.80787,42.01927947998047,"[b'chicago', b'control_wood', b'False', b'job143']"
46.43892,45.83091735839844,"[b'chicago', b'control_wood', b'False', b'job24']"
56.494015,55.25621032714844,"[b'chicago', b'control_wood', b'False', b'job174']"
49.366913,48.06237030029297,"[b'chicago', b'control_wood', b'False', b'job122']"
46.19412,45.53108596801758,"[b'chicago', b'control_wood', b'False', b'job171']"
50.076466,50.35334396362305,"[b'chicago', b'control_wood', b'False', b'job176']"
39.909355,40.633941650390625,"[b'chicago', b'control_wood', b'False', b'job123']"
46.761806,45.93044662475586,"[b'chicago', b'control_wood', b'False', b'job107']"
45.266792,45.01353454589844,"[b'chicago', b'control_wood', b'False', b'job42']"
46.841072,46.01304626464844,"[b'chicago', b'control_wood', b'False', b'job119']"
52.860077,52.21672058105469,"[b'chicago', b'control_wood', b'False', b'job186']"
43.18064,43.294288635253906,"[b'chicago', b'control_wood', b'False', b'job12']"
51.267193,52.41899108886719,"[b'chicago', b'control_wood', b'False', b'job34']"
41.811646,42.564430236816406,"[b'chicago', b'control_wood', b'False', b'job136']"
46.74475,46.893218994140625,"[b'chicago', b'control_wood', b'False', b'job52']"
42.653866,42.266632080078125,"[b'chicago', b'control_wood', b'False', b'job10']"
45.747215,45.57902526855469,"[b'chicago', b'control_wood', b'False', b'job173']"
54.764553,55.1190071105957,"[b'chicago', b'control_wood', b'False', b'job127']"
50.02789,50.23291015625,"[b'chicago', b'control_wood', b'False', b'job112']"
51.83637,51.9636344909668,"[b'chicago', b'control_wood', b'False', b'job33']"
43.906013,43.933876037597656,"[b'chicago', b'control_wood', b'False', b'job104']"
49.054874,49.19305419921875,"[b'chicago', b'control_wood', b'False', b'job152']"
51.404354,51.033851623535156,"[b'chicago', b'control_wood', b'False', b'job170']"
39.065044,38.76520919799805,"[b'chicago', b'control_wood', b'False', b'job31']"
42.305656,42.42146301269531,"[b'chicago', b'control_wood', b'False', b'job181']"
51.313004,51.41917419433594,"[b'chicago', b'control_wood', b'False', b'job11']"
44.26729,44.494171142578125,"[b'chicago', b'control_wood', b'False', b'job189']"
45.5627,45.054935455322266,"[b'chicago', b'control_wood', b'False', b'job86']"
55.08909,54.174346923828125,"[b'chicago', b'control_wood', b'False', b'job3']"
40.867874,41.206153869628906,"[b'chicago', b'control_wood', b'False', b'job68']"
40.082676,40.12531280517578,"[b'chicago', b'control_wood', b'False', b'job62']"
50.59208,50.379119873046875,"[b'chicago', b'control_wood', b'False', b'job108']"
49.568863,48.68808364868164,"[b'chicago', b'control_wood', b'False', b'job164']"
57.78086,57.47967529296875,"[b'chicago', b'control_wood', b'False', b'job37']"
41.697742,42.622657775878906,"[b'chicago', b'control_wood', b'False', b'job141']"
50.431213,49.12174987792969,"[b'chicago', b'control_wood', b'False', b'job180']"
52.880825,52.929481506347656,"[b'chicago', b'control_wood', b'False', b'job51']"
48.65495,47.75055694580078,"[b'chicago', b'control_wood', b'False', b'job30']"
45.25842,45.18299102783203,"[b'chicago', b'control_wood', b'False', b'job56']"
45.473194,45.09912109375,"[b'chicago', b'control_wood', b'False', b'job39']"
47.46154,47.47418975830078,"[b'chicago', b'control_wood', b'False', b'job44']"
51.8111,51.4101448059082,"[b'chicago', b'control_wood', b'False', b'job128']"
50.413933,50.38585662841797,"[b'chicago', b'control_wood', b'False', b'job191']"
44.78896,44.99421691894531,"[b'chicago', b'control_wood', b'False', b'job153']"
53.81635,53.511688232421875,"[b'chicago', b'control_wood', b'False', b'job60']"
60.855846,59.787078857421875,"[b'chicago', b'control_wood', b'False', b'job73']"
46.719788,46.50209045410156,"[b'chicago', b'control_wood', b'False', b'job168']"
45.68382,46.385009765625,"[b'chicago', b'control_wood', b'False', b'job135']"
41.36994,40.5993766784668,"[b'chicago', b'control_wood', b'False', b'job70']"
45.06789,45.57219696044922,"[b'chicago', b'control_wood', b'False', b'job65']"
43.912556,43.32658004760742,"[b'chicago', b'control_wood', b'False', b'job178']"
48.569767,48.64863586425781,"[b'chicago', b'control_wood', b'False', b'job166']"
40.890896,41.44424819946289,"[b'chicago', b'control_wood', b'False', b'job54']"
41.776955,41.953975677490234,"[b'chicago', b'control_wood', b'False', b'job126']"
47.247425,47.145790100097656,"[b'chicago', b'control_wood', b'False', b'job190']"
45.63064,46.13740158081055,"[b'chicago', b'control_wood', b'False', b'job117']"
48.343384,48.53173828125,"[b'chicago', b'control_wood', b'False', b'job92']"
44.33607,45.01594543457031,"[b'chicago', b'control_wood', b'False', b'job131']"
53.372066,54.07117462158203,"[b'chicago', b'control_wood', b'False', b'job183']"
39.68542,40.18423080444336,"[b'chicago', b'control_wood', b'False', b'job23']"
58.52175,58.0182991027832,"[b'chicago', b'control_wood', b'False', b'job87']"
46.77142,46.664451599121094,"[b'chicago', b'control_wood', b'False', b'job20']"
43.510887,43.59654235839844,"[b'chicago', b'control_wood', b'False', b'job45']"
46.957516,47.219444274902344,"[b'chicago', b'control_wood', b'False', b'job6']"
44.072178,44.33134460449219,"[b'chicago', b'control_wood', b'False', b'job124']"
42.996784,42.78952407836914,"[b'chicago', b'control_wood', b'False', b'job43']"
44.464073,43.49396514892578,"[b'chicago', b'control_wood', b'False', b'job197']"
52.112823,52.63898468017578,"[b'chicago', b'control_wood', b'False', b'job99']"
41.438213,41.15453338623047,"[b'chicago', b'control_wood', b'False', b'job72']"
48.23504,48.8662109375,"[b'chicago', b'control_wood', b'False', b'job55']"
57.045944,55.50208282470703,"[b'chicago', b'control_wood', b'False', b'job188']"
55.468525,55.56316375732422,"[b'chicago', b'control_wood', b'False', b'job106']"
49.8865,49.276893615722656,"[b'chicago', b'control_wood', b'False', b'job172']"
51.60604,50.501556396484375,"[b'chicago', b'control_wood', b'False', b'job148']"
44.04313,43.56924057006836,"[b'chicago', b'control_wood', b'False', b'job150']"
51.02937,51.022762298583984,"[b'chicago', b'control_wood', b'False', b'job149']"
44.502007,44.553409576416016,"[b'chicago', b'control_wood', b'False', b'job14']"
51.58801,51.22453689575195,"[b'chicago', b'control_wood', b'False', b'job155']"
55.26869,54.589088439941406,"[b'chicago', b'control_wood', b'False', b'job161']"
47.42246,46.58539962768555,"[b'chicago', b'control_wood', b'False', b'job175']"
51.26549,50.48744201660156,"[b'chicago', b'control_wood', b'False', b'job193']"
50.1006,49.37116622924805,"[b'chicago', b'control_wood', b'False', b'job40']"
44.539387,44.95620346069336,"[b'chicago', b'control_wood', b'False', b'job102']"
43.005943,43.51197052001953,"[b'chicago', b'control_wood', b'False', b'job158']"
44.73193,44.947845458984375,"[b'chicago', b'control_wood', b'False', b'job69']"
41.401978,41.551570892333984,"[b'chicago', b'control_wood', b'False', b'job144']"
53.517563,53.41814422607422,"[b'chicago', b'control_wood', b'False', b'job147']"
52.231113,51.850521087646484,"[b'chicago', b'control_wood', b'False', b'job184']"
43.721104,42.6796875,"[b'chicago', b'control_wood', b'False', b'job185']"
60.218052,59.466285705566406,"[b'chicago', b'control_wood', b'False', b'job179']"
53.29684,53.47728729248047,"[b'chicago', b'control_wood', b'False', b'job101']"
46.70386,46.9913330078125,"[b'chicago', b'control_wood', b'False', b'job145']"
51.4449,51.78987121582031,"[b'chicago', b'control_wood', b'False', b'job200']"
53.040024,53.29761505126953,"[b'chicago', b'control_wood', b'False', b'job89']"
53.28578,52.6237678527832,"[b'chicago', b'control_wood', b'False', b'job22']"
55.854534,55.56111145019531,"[b'chicago', b'control_wood', b'False', b'job79']"
41.74438,41.852203369140625,"[b'chicago', b'control_wood', b'False', b'job151']"
49.6503,50.508140563964844,"[b'chicago', b'control_wood', b'False', b'job71']"
44.656273,45.185306549072266,"[b'chicago', b'control_wood', b'False', b'job182']"
50.266907,49.57783889770508,"[b'chicago', b'control_wood', b'False', b'job165']"
41.6948,41.92082595825195,"[b'chicago', b'control_wood', b'False', b'job132']"
56.95627,56.652984619140625,"[b'chicago', b'control_wood', b'False', b'job162']"
40.474968,40.50200653076172,"[b'chicago', b'control_wood', b'False', b'job13']"
60.081657,60.00181198120117,"[b'chicago', b'control_wood', b'False', b'job159']"
49.524643,49.74443054199219,"[b'chicago', b'control_wood', b'False', b'job41']"
46.955956,47.213443756103516,"[b'chicago', b'control_wood', b'False', b'job59']"
42.057526,41.61415100097656,"[b'chicago', b'control_wood', b'False', b'job74']"
46.978687,47.0478630065918,"[b'chicago', b'control_wood', b'False', b'job90']"
48.46081,48.02569580078125,"[b'chicago', b'control_wood', b'False', b'job76']"
49.168087,48.68581008911133,"[b'chicago', b'control_wood', b'False', b'job154']"
53.138527,52.812721252441406,"[b'chicago', b'control_wood', b'False', b'job103']"
51.818794,50.64849853515625,"[b'chicago', b'control_wood', b'False', b'job83']"
49.81242,50.07866668701172,"[b'chicago', b'control_wood', b'False', b'job81']"
49.31849,49.001190185546875,"[b'chicago', b'control_wood', b'False', b'job140']"
57.037685,55.23392105102539,"[b'chicago', b'control_wood', b'False', b'job196']"
44.387447,44.58407211303711,"[b'chicago', b'control_wood', b'False', b'job98']"
48.15745,48.517093658447266,"[b'chicago', b'control_wood', b'False', b'job67']"
45.76321,46.302181243896484,"[b'chicago', b'control_wood', b'False', b'job116']"
42.406967,42.053192138671875,"[b'chicago', b'control_wood', b'False', b'job146']"
48.035004,46.98596954345703,"[b'chicago', b'control_wood', b'False', b'job113']"
44.301994,44.082679748535156,"[b'chicago', b'control_wood', b'False', b'job199']"
52.80274,52.01261901855469,"[b'chicago', b'control_wood', b'False', b'job120']"
51.624786,52.4181022644043,"[b'chicago', b'control_wood', b'False', b'job46']"
50.229343,49.09443283081055,"[b'chicago', b'control_wood', b'False', b'job4']"
46.9696,47.98216247558594,"[b'chicago', b'control_wood', b'False', b'job134']"
51.248592,51.325286865234375,"[b'chicago', b'control_wood', b'False', b'job32']"
41.09228,41.307273864746094,"[b'chicago', b'control_wood', b'False', b'job64']"
45.990055,45.91572952270508,"[b'chicago', b'control_wood', b'False', b'job156']"
47.02752,46.29325485229492,"[b'chicago', b'control_wood', b'False', b'job100']"
45.29427,44.54454803466797,"[b'chicago', b'control_wood', b'False', b'job139']"
47.225323,47.752376556396484,"[b'chicago', b'control_wood', b'False', b'job18']"
51.594135,52.00873947143555,"[b'chicago', b'control_wood', b'False', b'job138']"
