envelope_hlc,envelope_hlc_pred,md
53.592983,51.46318054199219,"[b'chicago', b'control_concrete', b'True', b'job60']"
41.515247,41.2042236328125,"[b'chicago', b'control_concrete', b'True', b'job194']"
50.542774,48.59329605102539,"[b'chicago', b'control_concrete', b'True', b'job108']"
53.2877,51.08244323730469,"[b'chicago', b'control_concrete', b'True', b'job183']"
43.11201,42.855010986328125,"[b'chicago', b'control_concrete', b'True', b'job12']"
45.74916,45.35847091674805,"[b'chicago', b'control_concrete', b'True', b'job173']"
51.709858,50.687984466552734,"[b'chicago', b'control_concrete', b'True', b'job167']"
44.737602,44.571109771728516,"[b'chicago', b'control_concrete', b'True', b'job142']"
49.232086,49.467979431152344,"[b'chicago', b'control_concrete', b'True', b'job105']"
42.88869,42.41302490234375,"[b'chicago', b'control_concrete', b'True', b'job43']"
41.64143,41.88755798339844,"[b'chicago', b'control_concrete', b'True', b'job132']"
54.95988,56.14611053466797,"[b'chicago', b'control_concrete', b'True', b'job161']"
47.150364,47.74058532714844,"[b'chicago', b'control_concrete', b'True', b'job18']"
39.9898,38.503929138183594,"[b'chicago', b'control_concrete', b'True', b'job38']"
44.462826,45.12471389770508,"[b'chicago', b'control_concrete', b'True', b'job14']"
46.91138,45.3032341003418,"[b'chicago', b'control_concrete', b'True', b'job90']"
45.702084,45.66612243652344,"[b'chicago', b'control_concrete', b'True', b'job198']"
43.99417,44.40333557128906,"[b'chicago', b'control_concrete', b'True', b'job104']"
49.340305,47.311988830566406,"[b'chicago', b'control_concrete', b'True', b'job122']"
57.273094,56.147552490234375,"[b'chicago', b'control_concrete', b'True', b'job162']"
52.55934,51.31821823120117,"[b'chicago', b'control_concrete', b'True', b'job120']"
58.14689,58.09322738647461,"[b'chicago', b'control_concrete', b'True', b'job37']"
54.724518,53.93818283081055,"[b'chicago', b'control_concrete', b'True', b'job3']"
41.298428,40.64547348022461,"[b'chicago', b'control_concrete', b'True', b'job85']"
46.259293,46.37897491455078,"[b'chicago', b'control_concrete', b'True', b'job130']"
49.760098,50.256954193115234,"[b'chicago', b'control_concrete', b'True', b'job81']"
49.68277,49.21333312988281,"[b'chicago', b'control_concrete', b'True', b'job164']"
53.0187,51.99846649169922,"[b'chicago', b'control_concrete', b'True', b'job103']"
51.01939,49.57633590698242,"[b'chicago', b'control_concrete', b'True', b'job32']"
57.82886,57.0916633605957,"[b'chicago', b'control_concrete', b'True', b'job87']"
50.055134,48.37260437011719,"[b'chicago', b'control_concrete', b'True', b'job40']"
41.77866,41.87640380859375,"[b'chicago', b'control_concrete', b'True', b'job126']"
46.16698,45.750816345214844,"[b'chicago', b'control_concrete', b'True', b'job171']"
41.73406,41.48583984375,"[b'chicago', b'control_concrete', b'True', b'job94']"
53.963444,53.919349670410156,"[b'chicago', b'control_concrete', b'True', b'job7']"
52.13277,50.0916633605957,"[b'chicago', b'control_concrete', b'True', b'job114']"
44.41353,44.68006896972656,"[b'chicago', b'control_concrete', b'True', b'job98']"
48.259445,47.14485168457031,"[b'chicago', b'control_concrete', b'True', b'job166']"
46.467663,44.56642150878906,"[b'chicago', b'control_concrete', b'True', b'job24']"
43.014866,42.64140701293945,"[b'chicago', b'control_concrete', b'True', b'job91']"
51.788548,52.162235260009766,"[b'chicago', b'control_concrete', b'True', b'job46']"
41.11579,41.69242858886719,"[b'chicago', b'control_concrete', b'True', b'job64']"
57.440174,57.36146545410156,"[b'chicago', b'control_concrete', b'True', b'job66']"
43.005917,43.900047302246094,"[b'chicago', b'control_concrete', b'True', b'job158']"
44.503468,44.401878356933594,"[b'chicago', b'control_concrete', b'True', b'job102']"
58.082905,56.733787536621094,"[b'chicago', b'control_concrete', b'True', b'job187']"
52.675446,52.66233825683594,"[b'chicago', b'control_concrete', b'True', b'job51']"
49.946228,49.68960189819336,"[b'chicago', b'control_concrete', b'True', b'job172']"
51.287224,51.223873138427734,"[b'chicago', b'control_concrete', b'True', b'job11']"
42.216053,41.764766693115234,"[b'chicago', b'control_concrete', b'True', b'job181']"
48.445347,48.26161193847656,"[b'chicago', b'control_concrete', b'True', b'job30']"
51.5731,51.249107360839844,"[b'chicago', b'control_concrete', b'True', b'job148']"
42.765175,43.1686897277832,"[b'chicago', b'control_concrete', b'True', b'job115']"
42.603428,42.14973068237305,"[b'chicago', b'control_concrete', b'True', b'job61']"
49.488693,49.850738525390625,"[b'chicago', b'control_concrete', b'True', b'job41']"
41.728455,42.019691467285156,"[b'chicago', b'control_concrete', b'True', b'job141']"
43.65509,43.46497344970703,"[b'chicago', b'control_concrete', b'True', b'job169']"
41.943718,41.42316436767578,"[b'chicago', b'control_concrete', b'True', b'job136']"
48.031338,48.98519515991211,"[b'chicago', b'control_concrete', b'True', b'job113']"
46.76733,46.116981506347656,"[b'chicago', b'control_concrete', b'True', b'job6']"
52.776867,52.21759796142578,"[b'chicago', b'control_concrete', b'True', b'job89']"
55.745678,54.81550216674805,"[b'chicago', b'control_concrete', b'True', b'job79']"
57.061424,55.346839904785156,"[b'chicago', b'control_concrete', b'True', b'job188']"
45.497955,46.161834716796875,"[b'chicago', b'control_concrete', b'True', b'job135']"
46.708706,47.28868103027344,"[b'chicago', b'control_concrete', b'True', b'job52']"
56.992706,57.717525482177734,"[b'chicago', b'control_concrete', b'True', b'job177']"
51.80258,51.952239990234375,"[b'chicago', b'control_concrete', b'True', b'job75']"
44.02485,43.90009689331055,"[b'chicago', b'control_concrete', b'True', b'job124']"
46.390976,46.060211181640625,"[b'chicago', b'control_concrete', b'True', b'job195']"
49.96528,49.88022232055664,"[b'chicago', b'control_concrete', b'True', b'job176']"
47.240566,47.09162521362305,"[b'chicago', b'control_concrete', b'True', b'job190']"
40.394306,40.684696197509766,"[b'chicago', b'control_concrete', b'True', b'job13']"
40.186665,40.654823303222656,"[b'chicago', b'control_concrete', b'True', b'job62']"
42.02841,42.041419982910156,"[b'chicago', b'control_concrete', b'True', b'job74']"
49.988564,49.894248962402344,"[b'chicago', b'control_concrete', b'True', b'job165']"
46.573185,47.51226043701172,"[b'chicago', b'control_concrete', b'True', b'job145']"
56.298336,57.01683044433594,"[b'chicago', b'control_concrete', b'True', b'job174']"
55.123787,53.787071228027344,"[b'chicago', b'control_concrete', b'True', b'job157']"
59.744884,57.296287536621094,"[b'chicago', b'control_concrete', b'True', b'job73']"
39.63848,39.488494873046875,"[b'chicago', b'control_concrete', b'True', b'job23']"
57.96099,57.9838752746582,"[b'chicago', b'control_concrete', b'True', b'job163']"
44.001434,42.691776275634766,"[b'chicago', b'control_concrete', b'True', b'job178']"
54.64267,53.56871032714844,"[b'chicago', b'control_concrete', b'True', b'job127']"
41.29416,41.31633377075195,"[b'chicago', b'control_concrete', b'True', b'job144']"
43.368572,44.14822769165039,"[b'chicago', b'control_concrete', b'True', b'job45']"
46.302505,46.33744430541992,"[b'chicago', b'control_concrete', b'True', b'job57']"
47.387344,46.937103271484375,"[b'chicago', b'control_concrete', b'True', b'job175']"
50.899097,49.69026184082031,"[b'chicago', b'control_concrete', b'True', b'job193']"
49.642838,49.70359420776367,"[b'chicago', b'control_concrete', b'True', b'job71']"
56.778233,56.256351470947266,"[b'chicago', b'control_concrete', b'True', b'job196']"
51.5815,50.28992462158203,"[b'chicago', b'control_concrete', b'True', b'job83']"
42.808807,42.49289321899414,"[b'chicago', b'control_concrete', b'True', b'job47']"
45.2787,44.27069854736328,"[b'chicago', b'control_concrete', b'True', b'job42']"
60.132156,61.107078552246094,"[b'chicago', b'control_concrete', b'True', b'job179']"
47.340496,47.7396125793457,"[b'chicago', b'control_concrete', b'True', b'job44']"
49.581497,48.31097412109375,"[b'chicago', b'control_concrete', b'True', b'job9']"
52.077267,52.469120025634766,"[b'chicago', b'control_concrete', b'True', b'job99']"
52.38059,52.90455627441406,"[b'chicago', b'control_concrete', b'True', b'job16']"
45.062843,43.80078887939453,"[b'chicago', b'control_concrete', b'True', b'job65']"
53.196434,51.433956146240234,"[b'chicago', b'control_concrete', b'True', b'job22']"
52.857597,51.659420013427734,"[b'chicago', b'control_concrete', b'True', b'job186']"
51.258457,50.40608215332031,"[b'chicago', b'control_concrete', b'True', b'job170']"
41.313744,40.61033248901367,"[b'chicago', b'control_concrete', b'True', b'job5']"
41.681725,41.58363342285156,"[b'chicago', b'control_concrete', b'True', b'job151']"
42.049473,39.92154312133789,"[b'chicago', b'control_concrete', b'True', b'job58']"
46.134804,46.032535552978516,"[b'chicago', b'control_concrete', b'True', b'job156']"
55.526035,55.236968994140625,"[b'chicago', b'control_concrete', b'True', b'job192']"
46.93807,47.136985778808594,"[b'chicago', b'control_concrete', b'True', b'job96']"
44.764378,45.62259292602539,"[b'chicago', b'control_concrete', b'True', b'job69']"
47.24514,45.50156021118164,"[b'chicago', b'control_concrete', b'True', b'job59']"
53.525517,52.95416259765625,"[b'chicago', b'control_concrete', b'True', b'job147']"
49.618805,48.31842041015625,"[b'chicago', b'control_concrete', b'True', b'job154']"
45.643017,44.875946044921875,"[b'chicago', b'control_concrete', b'True', b'job117']"
52.15749,51.03446960449219,"[b'chicago', b'control_concrete', b'True', b'job184']"
55.64855,54.68900680541992,"[b'chicago', b'control_concrete', b'True', b'job106']"
50.149944,50.228492736816406,"[b'chicago', b'control_concrete', b'True', b'job191']"
47.64558,47.944915771484375,"[b'chicago', b'control_concrete', b'True', b'job137']"
45.54369,45.835906982421875,"[b'chicago', b'control_concrete', b'True', b'job86']"
42.458015,40.89128112792969,"[b'chicago', b'control_concrete', b'True', b'job146']"
51.597576,51.373077392578125,"[b'chicago', b'control_concrete', b'True', b'job33']"
49.12412,48.49925994873047,"[b'chicago', b'control_concrete', b'True', b'job35']"
44.340687,43.71181106567383,"[b'chicago', b'control_concrete', b'True', b'job197']"
43.35979,43.37468719482422,"[b'chicago', b'control_concrete', b'True', b'job8']"
47.17503,46.78201675415039,"[b'chicago', b'control_concrete', b'True', b'job100']"
50.076633,47.66038513183594,"[b'chicago', b'control_concrete', b'True', b'job4']"
41.6193,41.37771224975586,"[b'chicago', b'control_concrete', b'True', b'job72']"
46.98508,47.555381774902344,"[b'chicago', b'control_concrete', b'True', b'job134']"
48.85062,48.97940444946289,"[b'chicago', b'control_concrete', b'True', b'job152']"
47.927753,47.5906867980957,"[b'chicago', b'control_concrete', b'True', b'job133']"
53.83692,53.92525863647461,"[b'chicago', b'control_concrete', b'True', b'job21']"
50.395096,49.108150482177734,"[b'chicago', b'control_concrete', b'True', b'job118']"
44.847305,46.34135818481445,"[b'chicago', b'control_concrete', b'True', b'job153']"
50.89945,49.80308532714844,"[b'chicago', b'control_concrete', b'True', b'job149']"
49.37268,48.93928527832031,"[b'chicago', b'control_concrete', b'True', b'job27']"
51.79933,51.38591384887695,"[b'chicago', b'control_concrete', b'True', b'job128']"
44.338684,44.61574172973633,"[b'chicago', b'control_concrete', b'True', b'job189']"
56.797245,56.10791015625,"[b'chicago', b'control_concrete', b'True', b'job129']"
49.146492,48.56588363647461,"[b'chicago', b'control_concrete', b'True', b'job140']"
39.131054,39.68442153930664,"[b'chicago', b'control_concrete', b'True', b'job31']"
44.469948,43.95445251464844,"[b'chicago', b'control_concrete', b'True', b'job131']"
51.43707,51.84046173095703,"[b'chicago', b'control_concrete', b'True', b'job200']"
45.704906,45.19861602783203,"[b'chicago', b'control_concrete', b'True', b'job116']"
44.31864,44.56421661376953,"[b'chicago', b'control_concrete', b'True', b'job199']"
55.23948,54.78065490722656,"[b'chicago', b'control_concrete', b'True', b'job160']"
46.723335,46.589351654052734,"[b'chicago', b'control_concrete', b'True', b'job107']"
48.162064,47.21430969238281,"[b'chicago', b'control_concrete', b'True', b'job67']"
45.423107,44.674713134765625,"[b'chicago', b'control_concrete', b'True', b'job39']"
44.0437,42.759639739990234,"[b'chicago', b'control_concrete', b'True', b'job150']"
42.841988,43.80014419555664,"[b'chicago', b'control_concrete', b'True', b'job36']"
48.318554,47.03828430175781,"[b'chicago', b'control_concrete', b'True', b'job76']"
42.708477,43.00135040283203,"[b'chicago', b'control_concrete', b'True', b'job10']"
51.4075,51.307350158691406,"[b'chicago', b'control_concrete', b'True', b'job155']"
46.782955,46.5882568359375,"[b'chicago', b'control_concrete', b'True', b'job119']"
45.16877,45.23627471923828,"[b'chicago', b'control_concrete', b'True', b'job139']"
59.868023,58.29788589477539,"[b'chicago', b'control_concrete', b'True', b'job159']"
41.7273,42.786441802978516,"[b'chicago', b'control_concrete', b'True', b'job143']"
42.092514,42.092628479003906,"[b'chicago', b'control_concrete', b'True', b'job63']"
47.95297,47.488800048828125,"[b'chicago', b'control_concrete', b'True', b'job92']"
40.839645,40.64885330200195,"[b'chicago', b'control_concrete', b'True', b'job68']"
50.718525,50.885013580322266,"[b'chicago', b'control_concrete', b'True', b'job111']"
43.97653,44.45446014404297,"[b'chicago', b'control_concrete', b'True', b'job110']"
44.595276,45.226627349853516,"[b'chicago', b'control_concrete', b'True', b'job182']"
39.83637,38.96498489379883,"[b'chicago', b'control_concrete', b'True', b'job123']"
48.1707,47.752349853515625,"[b'chicago', b'control_concrete', b'True', b'job55']"
53.175972,52.78158187866211,"[b'chicago', b'control_concrete', b'True', b'job101']"
45.187588,45.725914001464844,"[b'chicago', b'control_concrete', b'True', b'job56']"
47.000076,46.9416618347168,"[b'chicago', b'control_concrete', b'True', b'job168']"
55.147804,53.98062515258789,"[b'chicago', b'control_concrete', b'True', b'job109']"
47.88471,47.79987716674805,"[b'chicago', b'control_concrete', b'True', b'job125']"
40.88964,39.94236373901367,"[b'chicago', b'control_concrete', b'True', b'job54']"
51.141926,49.9859619140625,"[b'chicago', b'control_concrete', b'True', b'job34']"
42.393333,42.10932922363281,"[b'chicago', b'control_concrete', b'True', b'job121']"
50.374084,49.32362365722656,"[b'chicago', b'control_concrete', b'True', b'job180']"
51.499893,52.154441833496094,"[b'chicago', b'control_concrete', b'True', b'job138']"
43.74227,43.30611801147461,"[b'chicago', b'control_concrete', b'True', b'job185']"
46.654118,47.073307037353516,"[b'chicago', b'control_concrete', b'True', b'job20']"
41.31477,41.19097137451172,"[b'chicago', b'control_concrete', b'True', b'job70']"
46.2863,45.95807647705078,"[b'chicago', b'control_concrete', b'True', b'job82']"
49.974255,50.38501739501953,"[b'chicago', b'control_concrete', b'True', b'job112']"
