envelope_umat,envelope_umat_pred,md
58.83215,58.592803955078125,"[b'chicago', b'control_wood', b'False', b'job169']"
57.021675,55.94419479370117,"[b'chicago', b'control_wood', b'False', b'job61']"
55.948326,55.63037109375,"[b'chicago', b'control_wood', b'False', b'job63']"
75.11073,73.38438415527344,"[b'chicago', b'control_wood', b'False', b'job114']"
55.26719,56.09770584106445,"[b'chicago', b'control_wood', b'False', b'job94']"
79.88961,80.19176483154297,"[b'chicago', b'control_wood', b'False', b'job7']"
63.741837,62.755184173583984,"[b'chicago', b'control_wood', b'False', b'job195']"
63.665806,64.49736022949219,"[b'chicago', b'control_wood', b'False', b'job57']"
79.06316,77.6787109375,"[b'chicago', b'control_wood', b'False', b'job109']"
57.50048,57.75315475463867,"[b'chicago', b'control_wood', b'False', b'job91']"
57.20513,55.703468322753906,"[b'chicago', b'control_wood', b'False', b'job47']"
69.12592,67.6063232421875,"[b'chicago', b'control_wood', b'False', b'job35']"
60.329224,61.04419708251953,"[b'chicago', b'control_wood', b'False', b'job142']"
74.55016,74.88194274902344,"[b'chicago', b'control_wood', b'False', b'job75']"
54.722614,54.823974609375,"[b'chicago', b'control_wood', b'False', b'job85']"
69.49047,69.98114013671875,"[b'chicago', b'control_wood', b'False', b'job105']"
63.87302,65.07831573486328,"[b'chicago', b'control_wood', b'False', b'job130']"
59.286606,60.162750244140625,"[b'chicago', b'control_wood', b'False', b'job110']"
55.209793,55.66108322143555,"[b'chicago', b'control_wood', b'False', b'job194']"
55.91224,55.34537124633789,"[b'chicago', b'control_wood', b'False', b'job58']"
64.55198,65.49069213867188,"[b'chicago', b'control_wood', b'False', b'job96']"
58.339558,57.63951110839844,"[b'chicago', b'control_wood', b'False', b'job8']"
77.961365,80.43602752685547,"[b'chicago', b'control_wood', b'False', b'job21']"
87.58313,92.1701431274414,"[b'chicago', b'control_wood', b'False', b'job66']"
79.9168,80.73921966552734,"[b'chicago', b'control_wood', b'False', b'job192']"
86.46469,84.8692398071289,"[b'chicago', b'control_wood', b'False', b'job163']"
63.163628,62.97725296020508,"[b'chicago', b'control_wood', b'False', b'job82']"
54.65904,55.82015609741211,"[b'chicago', b'control_wood', b'False', b'job5']"
62.2602,63.471214294433594,"[b'chicago', b'control_wood', b'False', b'job198']"
66.6182,67.13980102539062,"[b'chicago', b'control_wood', b'False', b'job125']"
85.56182,84.21897888183594,"[b'chicago', b'control_wood', b'False', b'job177']"
56.622963,55.684967041015625,"[b'chicago', b'control_wood', b'False', b'job121']"
80.6522,80.646240234375,"[b'chicago', b'control_wood', b'False', b'job160']"
72.25856,72.90611267089844,"[b'chicago', b'control_wood', b'False', b'job111']"
81.45826,81.51201629638672,"[b'chicago', b'control_wood', b'False', b'job157']"
68.140724,73.03355407714844,"[b'chicago', b'control_wood', b'False', b'job27']"
69.74487,68.28372192382812,"[b'chicago', b'control_wood', b'False', b'job9']"
57.12011,58.5288200378418,"[b'chicago', b'control_wood', b'False', b'job115']"
52.44684,53.28705596923828,"[b'chicago', b'control_wood', b'False', b'job38']"
75.28601,76.28377532958984,"[b'chicago', b'control_wood', b'False', b'job16']"
84.8458,85.02584075927734,"[b'chicago', b'control_wood', b'False', b'job129']"
71.29433,72.54842376708984,"[b'chicago', b'control_wood', b'False', b'job118']"
74.44455,72.92418670654297,"[b'chicago', b'control_wood', b'False', b'job167']"
66.61022,66.25257110595703,"[b'chicago', b'control_wood', b'False', b'job133']"
66.3347,65.59248352050781,"[b'chicago', b'control_wood', b'False', b'job137']"
86.13865,83.72854614257812,"[b'chicago', b'control_wood', b'False', b'job187']"
57.417164,57.14284133911133,"[b'chicago', b'control_wood', b'False', b'job36']"
55.616753,56.52920913696289,"[b'chicago', b'control_wood', b'False', b'job143']"
63.821987,63.57522964477539,"[b'chicago', b'control_wood', b'False', b'job24']"
83.599495,81.02153015136719,"[b'chicago', b'control_wood', b'False', b'job174']"
69.604294,67.81385040283203,"[b'chicago', b'control_wood', b'False', b'job122']"
63.543755,62.5071907043457,"[b'chicago', b'control_wood', b'False', b'job171']"
70.68909,71.3818130493164,"[b'chicago', b'control_wood', b'False', b'job176']"
52.355103,52.6587028503418,"[b'chicago', b'control_wood', b'False', b'job123']"
64.62152,63.40403366088867,"[b'chicago', b'control_wood', b'False', b'job107']"
61.7142,62.183319091796875,"[b'chicago', b'control_wood', b'False', b'job42']"
64.77658,64.564697265625,"[b'chicago', b'control_wood', b'False', b'job119']"
76.249435,75.79487609863281,"[b'chicago', b'control_wood', b'False', b'job186']"
57.93667,56.9760856628418,"[b'chicago', b'control_wood', b'False', b'job12']"
73.158775,73.80984497070312,"[b'chicago', b'control_wood', b'False', b'job34']"
55.516403,56.25925827026367,"[b'chicago', b'control_wood', b'False', b'job136']"
64.32007,64.38160705566406,"[b'chicago', b'control_wood', b'False', b'job52']"
57.11615,56.5034294128418,"[b'chicago', b'control_wood', b'False', b'job10']"
62.59798,62.551212310791016,"[b'chicago', b'control_wood', b'False', b'job173']"
80.37572,80.74773406982422,"[b'chicago', b'control_wood', b'False', b'job127']"
70.76262,72.10465240478516,"[b'chicago', b'control_wood', b'False', b'job112']"
74.11477,74.02485656738281,"[b'chicago', b'control_wood', b'False', b'job33']"
59.22354,60.63455581665039,"[b'chicago', b'control_wood', b'False', b'job104']"
68.664375,70.66107940673828,"[b'chicago', b'control_wood', b'False', b'job152']"
73.38546,73.2491455078125,"[b'chicago', b'control_wood', b'False', b'job170']"
50.969276,51.003623962402344,"[b'chicago', b'control_wood', b'False', b'job31']"
56.428135,56.736724853515625,"[b'chicago', b'control_wood', b'False', b'job181']"
73.0444,72.41144561767578,"[b'chicago', b'control_wood', b'False', b'job11']"
59.728977,61.50199508666992,"[b'chicago', b'control_wood', b'False', b'job189']"
62.229496,62.243099212646484,"[b'chicago', b'control_wood', b'False', b'job86']"
80.54091,81.24583435058594,"[b'chicago', b'control_wood', b'False', b'job3']"
53.983086,54.89004135131836,"[b'chicago', b'control_wood', b'False', b'job68']"
52.65569,53.06142807006836,"[b'chicago', b'control_wood', b'False', b'job62']"
71.77154,72.72447204589844,"[b'chicago', b'control_wood', b'False', b'job108']"
69.75871,68.7343521118164,"[b'chicago', b'control_wood', b'False', b'job164']"
86.42648,84.54424285888672,"[b'chicago', b'control_wood', b'False', b'job37']"
55.333183,55.676666259765625,"[b'chicago', b'control_wood', b'False', b'job141']"
71.32435,70.61930084228516,"[b'chicago', b'control_wood', b'False', b'job180']"
76.48696,74.85441589355469,"[b'chicago', b'control_wood', b'False', b'job51']"
67.765335,69.09048461914062,"[b'chicago', b'control_wood', b'False', b'job30']"
61.446404,62.70706558227539,"[b'chicago', b'control_wood', b'False', b'job56']"
62.09771,62.39750289916992,"[b'chicago', b'control_wood', b'False', b'job39']"
65.83213,66.6207046508789,"[b'chicago', b'control_wood', b'False', b'job44']"
74.21993,72.67475891113281,"[b'chicago', b'control_wood', b'False', b'job128']"
71.18511,72.67610168457031,"[b'chicago', b'control_wood', b'False', b'job191']"
60.807594,60.90089797973633,"[b'chicago', b'control_wood', b'False', b'job153']"
78.05229,78.68367004394531,"[b'chicago', b'control_wood', b'False', b'job60']"
93.00335,90.9432373046875,"[b'chicago', b'control_wood', b'False', b'job73']"
64.338005,63.647762298583984,"[b'chicago', b'control_wood', b'False', b'job168']"
62.479855,63.49398422241211,"[b'chicago', b'control_wood', b'False', b'job135']"
54.847996,56.217262268066406,"[b'chicago', b'control_wood', b'False', b'job70']"
61.227703,62.620208740234375,"[b'chicago', b'control_wood', b'False', b'job65']"
59.307884,57.6535758972168,"[b'chicago', b'control_wood', b'False', b'job178']"
67.651665,70.48735046386719,"[b'chicago', b'control_wood', b'False', b'job166']"
54.012135,57.20949172973633,"[b'chicago', b'control_wood', b'False', b'job54']"
55.49419,55.70417022705078,"[b'chicago', b'control_wood', b'False', b'job126']"
65.125946,67.62883758544922,"[b'chicago', b'control_wood', b'False', b'job190']"
62.318016,63.29859924316406,"[b'chicago', b'control_wood', b'False', b'job117']"
67.239914,68.83673095703125,"[b'chicago', b'control_wood', b'False', b'job92']"
59.868366,61.24519348144531,"[b'chicago', b'control_wood', b'False', b'job131']"
77.363266,75.97303009033203,"[b'chicago', b'control_wood', b'False', b'job183']"
51.93655,51.824344635009766,"[b'chicago', b'control_wood', b'False', b'job23']"
87.51878,87.99175262451172,"[b'chicago', b'control_wood', b'False', b'job87']"
64.56926,65.2707748413086,"[b'chicago', b'control_wood', b'False', b'job20']"
58.591057,58.974517822265625,"[b'chicago', b'control_wood', b'False', b'job45']"
64.834526,65.25299835205078,"[b'chicago', b'control_wood', b'False', b'job6']"
59.476967,61.10909652709961,"[b'chicago', b'control_wood', b'False', b'job124']"
57.706066,55.51740264892578,"[b'chicago', b'control_wood', b'False', b'job43']"
60.254124,59.48228454589844,"[b'chicago', b'control_wood', b'False', b'job197']"
74.81958,74.29637908935547,"[b'chicago', b'control_wood', b'False', b'job99']"
54.91949,55.574920654296875,"[b'chicago', b'control_wood', b'False', b'job72']"
67.16375,68.14691162109375,"[b'chicago', b'control_wood', b'False', b'job55']"
84.702354,83.57410430908203,"[b'chicago', b'control_wood', b'False', b'job188']"
81.36383,80.61477661132812,"[b'chicago', b'control_wood', b'False', b'job106']"
70.28179,70.28244018554688,"[b'chicago', b'control_wood', b'False', b'job172']"
73.63007,72.51361846923828,"[b'chicago', b'control_wood', b'False', b'job148']"
59.619774,59.2964973449707,"[b'chicago', b'control_wood', b'False', b'job150']"
72.78818,72.6924819946289,"[b'chicago', b'control_wood', b'False', b'job149']"
60.323658,61.2075080871582,"[b'chicago', b'control_wood', b'False', b'job14']"
73.22386,74.38849639892578,"[b'chicago', b'control_wood', b'False', b'job155']"
81.05092,80.22494506835938,"[b'chicago', b'control_wood', b'False', b'job161']"
65.68362,63.62450408935547,"[b'chicago', b'control_wood', b'False', b'job175']"
72.976166,73.69917297363281,"[b'chicago', b'control_wood', b'False', b'job193']"
70.94228,69.14456939697266,"[b'chicago', b'control_wood', b'False', b'job40']"
60.331444,61.71577072143555,"[b'chicago', b'control_wood', b'False', b'job102']"
57.74552,57.70212173461914,"[b'chicago', b'control_wood', b'False', b'job158']"
60.719856,61.70624542236328,"[b'chicago', b'control_wood', b'False', b'job69']"
54.861275,55.491817474365234,"[b'chicago', b'control_wood', b'False', b'job144']"
77.49824,76.10108947753906,"[b'chicago', b'control_wood', b'False', b'job147']"
74.96319,73.59793853759766,"[b'chicago', b'control_wood', b'False', b'job184']"
59.062626,56.65630340576172,"[b'chicago', b'control_wood', b'False', b'job185']"
91.457504,91.2678451538086,"[b'chicago', b'control_wood', b'False', b'job179']"
76.79016,79.88026428222656,"[b'chicago', b'control_wood', b'False', b'job101']"
64.329865,64.24832916259766,"[b'chicago', b'control_wood', b'False', b'job145']"
73.361305,73.74948120117188,"[b'chicago', b'control_wood', b'False', b'job200']"
76.66007,76.15550231933594,"[b'chicago', b'control_wood', b'False', b'job89']"
76.92523,74.69517517089844,"[b'chicago', b'control_wood', b'False', b'job22']"
82.22221,81.3609619140625,"[b'chicago', b'control_wood', b'False', b'job79']"
55.41638,54.84088897705078,"[b'chicago', b'control_wood', b'False', b'job151']"
69.7861,70.09814453125,"[b'chicago', b'control_wood', b'False', b'job71']"
60.508244,62.21531295776367,"[b'chicago', b'control_wood', b'False', b'job182']"
71.05797,71.01042175292969,"[b'chicago', b'control_wood', b'False', b'job165']"
55.386993,55.947723388671875,"[b'chicago', b'control_wood', b'False', b'job132']"
84.74809,81.25670623779297,"[b'chicago', b'control_wood', b'False', b'job162']"
53.271263,55.372440338134766,"[b'chicago', b'control_wood', b'False', b'job13']"
90.99385,93.24777221679688,"[b'chicago', b'control_wood', b'False', b'job159']"
69.57757,71.22647857666016,"[b'chicago', b'control_wood', b'False', b'job41']"
64.69413,64.57231903076172,"[b'chicago', b'control_wood', b'False', b'job59']"
55.991875,55.7528190612793,"[b'chicago', b'control_wood', b'False', b'job74']"
64.89907,64.38507080078125,"[b'chicago', b'control_wood', b'False', b'job90']"
67.609344,67.07601165771484,"[b'chicago', b'control_wood', b'False', b'job76']"
68.89302,69.76412963867188,"[b'chicago', b'control_wood', b'False', b'job154']"
76.765785,75.43501281738281,"[b'chicago', b'control_wood', b'False', b'job103']"
74.29683,72.5918197631836,"[b'chicago', b'control_wood', b'False', b'job83']"
70.286674,71.00495147705078,"[b'chicago', b'control_wood', b'False', b'job81']"
69.323654,68.06069946289062,"[b'chicago', b'control_wood', b'False', b'job140']"
84.91886,81.2311019897461,"[b'chicago', b'control_wood', b'False', b'job196']"
60.180378,62.145565032958984,"[b'chicago', b'control_wood', b'False', b'job98']"
67.10037,67.20965576171875,"[b'chicago', b'control_wood', b'False', b'job67']"
62.619286,63.37941360473633,"[b'chicago', b'control_wood', b'False', b'job116']"
56.715336,55.903282165527344,"[b'chicago', b'control_wood', b'False', b'job146']"
66.86698,64.16140747070312,"[b'chicago', b'control_wood', b'False', b'job113']"
59.994656,60.5422248840332,"[b'chicago', b'control_wood', b'False', b'job199']"
76.1652,75.65856170654297,"[b'chicago', b'control_wood', b'False', b'job120']"
73.68599,73.49835968017578,"[b'chicago', b'control_wood', b'False', b'job46']"
71.34979,68.97914123535156,"[b'chicago', b'control_wood', b'False', b'job4']"
64.77426,65.95289611816406,"[b'chicago', b'control_wood', b'False', b'job134']"
72.94935,73.55469512939453,"[b'chicago', b'control_wood', b'False', b'job32']"
54.370987,54.569541931152344,"[b'chicago', b'control_wood', b'False', b'job64']"
62.93589,62.87466812133789,"[b'chicago', b'control_wood', b'False', b'job156']"
64.90808,64.60790252685547,"[b'chicago', b'control_wood', b'False', b'job100']"
61.7481,61.68915939331055,"[b'chicago', b'control_wood', b'False', b'job139']"
65.31814,64.64298248291016,"[b'chicago', b'control_wood', b'False', b'job18']"
73.52603,74.92768859863281,"[b'chicago', b'control_wood', b'False', b'job138']"
