envelope_inf_hlc,envelope_inf_hlc_pred,md
144.2459,144.346923828125,"[b'chicago', b'control_wood_inf', b'False', b'job71']"
137.24472,137.187255859375,"[b'chicago', b'control_wood_inf', b'False', b'job61']"
140.63802,140.7418975830078,"[b'chicago', b'control_wood_inf', b'False', b'job156']"
146.03612,146.17564392089844,"[b'chicago', b'control_wood_inf', b'False', b'job200']"
134.62971,134.9055633544922,"[b'chicago', b'control_wood_inf', b'False', b'job38']"
140.31256,140.1480712890625,"[b'chicago', b'control_wood_inf', b'False', b'job135']"
146.4186,146.50418090820312,"[b'chicago', b'control_wood_inf', b'False', b'job33']"
147.71896,147.0172882080078,"[b'chicago', b'control_wood_inf', b'False', b'job103']"
152.29381,151.77137756347656,"[b'chicago', b'control_wood_inf', b'False', b'job187']"
138.27867,138.2823486328125,"[b'chicago', b'control_wood_inf', b'False', b'job169']"
137.04465,136.9014129638672,"[b'chicago', b'control_wood_inf', b'False', b'job121']"
149.41898,149.0275421142578,"[b'chicago', b'control_wood_inf', b'False', b'job192']"
154.70164,154.15646362304688,"[b'chicago', b'control_wood_inf', b'False', b'job159']"
140.96281,141.0814208984375,"[b'chicago', b'control_wood_inf', b'False', b'job57']"
138.35368,137.61837768554688,"[b'chicago', b'control_wood_inf', b'False', b'job185']"
137.84094,137.7930145263672,"[b'chicago', b'control_wood_inf', b'False', b'job12']"
150.4663,150.26113891601562,"[b'chicago', b'control_wood_inf', b'False', b'job79']"
148.97253,148.14315795898438,"[b'chicago', b'control_wood_inf', b'False', b'job109']"
139.00728,138.63522338867188,"[b'chicago', b'control_wood_inf', b'False', b'job98']"
138.61835,138.83425903320312,"[b'chicago', b'control_wood_inf', b'False', b'job110']"
138.92667,138.88507080078125,"[b'chicago', b'control_wood_inf', b'False', b'job189']"
140.30338,140.29193115234375,"[b'chicago', b'control_wood_inf', b'False', b'job198']"
144.48465,144.1230010986328,"[b'chicago', b'control_wood_inf', b'False', b'job172']"
146.54173,146.4953155517578,"[b'chicago', b'control_wood_inf', b'False', b'job75']"
139.96281,139.2706298828125,"[b'chicago', b'control_wood_inf', b'False', b'job139']"
140.78035,140.6076202392578,"[b'chicago', b'control_wood_inf', b'False', b'job82']"
143.82118,143.0425567626953,"[b'chicago', b'control_wood_inf', b'False', b'job35']"
151.62498,150.6357879638672,"[b'chicago', b'control_wood_inf', b'False', b'job188']"
138.1002,137.72613525390625,"[b'chicago', b'control_wood_inf', b'False', b'job8']"
138.14383,138.28904724121094,"[b'chicago', b'control_wood_inf', b'False', b'job45']"
149.83641,149.1915740966797,"[b'chicago', b'control_wood_inf', b'False', b'job157']"
148.56743,147.97402954101562,"[b'chicago', b'control_wood_inf', b'False', b'job21']"
141.90038,142.019287109375,"[b'chicago', b'control_wood_inf', b'False', b'job190']"
153.26704,152.6648406982422,"[b'chicago', b'control_wood_inf', b'False', b'job66']"
141.57971,141.73951721191406,"[b'chicago', b'control_wood_inf', b'False', b'job134']"
147.61836,147.35763549804688,"[b'chicago', b'control_wood_inf', b'False', b'job89']"
135.52133,135.6378631591797,"[b'chicago', b'control_wood_inf', b'False', b'job68']"
139.26001,139.0727081298828,"[b'chicago', b'control_wood_inf', b'False', b'job142']"
136.35406,136.61737060546875,"[b'chicago', b'control_wood_inf', b'False', b'job141']"
146.22731,146.3270721435547,"[b'chicago', b'control_wood_inf', b'False', b'job46']"
145.91086,145.1527557373047,"[b'chicago', b'control_wood_inf', b'False', b'job193']"
138.56346,138.08885192871094,"[b'chicago', b'control_wood_inf', b'False', b'job178']"
137.47919,137.49761962890625,"[b'chicago', b'control_wood_inf', b'False', b'job36']"
135.53265,135.73516845703125,"[b'chicago', b'control_wood_inf', b'False', b'job54']"
143.87813,143.0060272216797,"[b'chicago', b'control_wood_inf', b'False', b'job154']"
139.37653,139.35220336914062,"[b'chicago', b'control_wood_inf', b'False', b'job69']"
138.70808,138.84812927246094,"[b'chicago', b'control_wood_inf', b'False', b'job124']"
154.78093,154.7619171142578,"[b'chicago', b'control_wood_inf', b'False', b'job179']"
149.82416,149.74191284179688,"[b'chicago', b'control_wood_inf', b'False', b'job161']"
139.90202,140.02322387695312,"[b'chicago', b'control_wood_inf', b'False', b'job56']"
140.3768,140.0078887939453,"[b'chicago', b'control_wood_inf', b'False', b'job173']"
145.92915,145.95875549316406,"[b'chicago', b'control_wood_inf', b'False', b'job11']"
141.58118,141.52134704589844,"[b'chicago', b'control_wood_inf', b'False', b'job6']"
143.2716,143.1462860107422,"[b'chicago', b'control_wood_inf', b'False', b'job30']"
141.3741,141.2650146484375,"[b'chicago', b'control_wood_inf', b'False', b'job20']"
155.49948,154.43084716796875,"[b'chicago', b'control_wood_inf', b'False', b'job73']"
136.0781,136.09210205078125,"[b'chicago', b'control_wood_inf', b'False', b'job144']"
141.65858,141.23983764648438,"[b'chicago', b'control_wood_inf', b'False', b'job59']"
137.2983,136.91110229492188,"[b'chicago', b'control_wood_inf', b'False', b'job10']"
144.98889,145.1488494873047,"[b'chicago', b'control_wood_inf', b'False', b'job118']"
141.45073,140.99758911132812,"[b'chicago', b'control_wood_inf', b'False', b'job119']"
139.89645,139.89295959472656,"[b'chicago', b'control_wood_inf', b'False', b'job42']"
142.29329,142.3372802734375,"[b'chicago', b'control_wood_inf', b'False', b'job137']"
143.93994,142.99070739746094,"[b'chicago', b'control_wood_inf', b'False', b'job140']"
140.82133,139.85382080078125,"[b'chicago', b'control_wood_inf', b'False', b'job171']"
136.25578,136.19912719726562,"[b'chicago', b'control_wood_inf', b'False', b'job194']"
141.83727,141.88714599609375,"[b'chicago', b'control_wood_inf', b'False', b'job18']"
146.821,146.1219482421875,"[b'chicago', b'control_wood_inf', b'False', b'job184']"
136.4653,136.7112274169922,"[b'chicago', b'control_wood_inf', b'False', b'job136']"
141.06033,140.67141723632812,"[b'chicago', b'control_wood_inf', b'False', b'job24']"
137.58826,137.73739624023438,"[b'chicago', b'control_wood_inf', b'False', b'job91']"
144.6715,144.8746337890625,"[b'chicago', b'control_wood_inf', b'False', b'job176']"
139.17105,139.3929443359375,"[b'chicago', b'control_wood_inf', b'False', b'job102']"
151.54097,151.2898712158203,"[b'chicago', b'control_wood_inf', b'False', b'job162']"
136.04626,135.59445190429688,"[b'chicago', b'control_wood_inf', b'False', b'job70']"
133.73613,133.9598846435547,"[b'chicago', b'control_wood_inf', b'False', b'job31']"
136.42526,136.5992889404297,"[b'chicago', b'control_wood_inf', b'False', b'job126']"
153.1503,152.19650268554688,"[b'chicago', b'control_wood_inf', b'False', b'job87']"
145.60301,145.32540893554688,"[b'chicago', b'control_wood_inf', b'False', b'job149']"
139.14195,139.11630249023438,"[b'chicago', b'control_wood_inf', b'False', b'job14']"
146.41196,146.28396606445312,"[b'chicago', b'control_wood_inf', b'False', b'job128']"
140.97922,140.6019744873047,"[b'chicago', b'control_wood_inf', b'False', b'job130']"
143.2384,143.315185546875,"[b'chicago', b'control_wood_inf', b'False', b'job166']"
139.43074,139.6713104248047,"[b'chicago', b'control_wood_inf', b'False', b'job153']"
143.66493,143.77040100097656,"[b'chicago', b'control_wood_inf', b'False', b'job152']"
138.66634,137.7975616455078,"[b'chicago', b'control_wood_inf', b'False', b'job150']"
139.27884,139.4002685546875,"[b'chicago', b'control_wood_inf', b'False', b'job182']"
150.07024,149.93899536132812,"[b'chicago', b'control_wood_inf', b'False', b'job106']"
147.97165,147.2313232421875,"[b'chicago', b'control_wood_inf', b'False', b'job22']"
146.56194,145.59835815429688,"[b'chicago', b'control_wood_inf', b'False', b'job167']"
149.74733,148.85467529296875,"[b'chicago', b'control_wood_inf', b'False', b'job3']"
145.40057,145.3270721435547,"[b'chicago', b'control_wood_inf', b'False', b'job111']"
144.39488,144.3385009765625,"[b'chicago', b'control_wood_inf', b'False', b'job81']"
138.97511,139.16387939453125,"[b'chicago', b'control_wood_inf', b'False', b'job131']"
149.78674,149.50823974609375,"[b'chicago', b'control_wood_inf', b'False', b'job160']"
142.66658,141.92652893066406,"[b'chicago', b'control_wood_inf', b'False', b'job113']"
137.05605,136.45291137695312,"[b'chicago', b'control_wood_inf', b'False', b'job146']"
142.06323,141.86245727539062,"[b'chicago', b'control_wood_inf', b'False', b'job44']"
151.65741,150.4535369873047,"[b'chicago', b'control_wood_inf', b'False', b'job196']"
147.44128,146.39964294433594,"[b'chicago', b'control_wood_inf', b'False', b'job186']"
135.74268,135.97328186035156,"[b'chicago', b'control_wood_inf', b'False', b'job64']"
144.21446,143.44822692871094,"[b'chicago', b'control_wood_inf', b'False', b'job164']"
141.33325,141.30955505371094,"[b'chicago', b'control_wood_inf', b'False', b'job145']"
142.54967,142.31332397460938,"[b'chicago', b'control_wood_inf', b'False', b'job133']"
137.41835,137.307373046875,"[b'chicago', b'control_wood_inf', b'False', b'job47']"
148.39908,148.02468872070312,"[b'chicago', b'control_wood_inf', b'False', b'job60']"
140.20102,140.13778686523438,"[b'chicago', b'control_wood_inf', b'False', b'job86']"
137.65253,137.43899536132812,"[b'chicago', b'control_wood_inf', b'False', b'job43']"
144.89658,144.9096221923828,"[b'chicago', b'control_wood_inf', b'False', b'job165']"
146.17784,146.30670166015625,"[b'chicago', b'control_wood_inf', b'False', b'job138']"
145.97646,145.64599609375,"[b'chicago', b'control_wood_inf', b'False', b'job170']"
144.61153,144.5767364501953,"[b'chicago', b'control_wood_inf', b'False', b'job112']"
136.40154,136.609130859375,"[b'chicago', b'control_wood_inf', b'False', b'job151']"
136.29648,136.58750915527344,"[b'chicago', b'control_wood_inf', b'False', b'job94']"
145.83856,145.77455139160156,"[b'chicago', b'control_wood_inf', b'False', b'job32']"
149.30946,148.79562377929688,"[b'chicago', b'control_wood_inf', b'False', b'job127']"
144.81995,143.6164093017578,"[b'chicago', b'control_wood_inf', b'False', b'job4']"
145.09862,144.97959899902344,"[b'chicago', b'control_wood_inf', b'False', b'job191']"
143.59972,143.61041259765625,"[b'chicago', b'control_wood_inf', b'False', b'job27']"
141.36024,141.5716552734375,"[b'chicago', b'control_wood_inf', b'False', b'job52']"
135.12225,135.3357391357422,"[b'chicago', b'control_wood_inf', b'False', b'job13']"
136.32709,136.43984985351562,"[b'chicago', b'control_wood_inf', b'False', b'job132']"
141.38208,140.38473510742188,"[b'chicago', b'control_wood_inf', b'False', b'job107']"
142.08173,141.317626953125,"[b'chicago', b'control_wood_inf', b'False', b'job175']"
147.02818,147.12525939941406,"[b'chicago', b'control_wood_inf', b'False', b'job16']"
142.50908,142.56971740722656,"[b'chicago', b'control_wood_inf', b'False', b'job125']"
147.88383,148.0215606689453,"[b'chicago', b'control_wood_inf', b'False', b'job101']"
138.55104,138.57431030273438,"[b'chicago', b'control_wood_inf', b'False', b'job104']"
145.84825,145.8121795654297,"[b'chicago', b'control_wood_inf', b'False', b'job34']"
140.10634,139.75457763671875,"[b'chicago', b'control_wood_inf', b'False', b'job39']"
146.69034,146.5986328125,"[b'chicago', b'control_wood_inf', b'False', b'job99']"
143.01521,142.98046875,"[b'chicago', b'control_wood_inf', b'False', b'job92']"
147.9236,147.63238525390625,"[b'chicago', b'control_wood_inf', b'False', b'job183']"
135.91646,136.0540771484375,"[b'chicago', b'control_wood_inf', b'False', b'job5']"
143.96054,142.82196044921875,"[b'chicago', b'control_wood_inf', b'False', b'job122']"
139.10423,138.60321044921875,"[b'chicago', b'control_wood_inf', b'False', b'job197']"
144.3235,143.80941772460938,"[b'chicago', b'control_wood_inf', b'False', b'job9']"
140.40274,140.24789428710938,"[b'chicago', b'control_wood_inf', b'False', b'job116']"
140.25693,140.519287109375,"[b'chicago', b'control_wood_inf', b'False', b'job117']"
136.44827,136.487548828125,"[b'chicago', b'control_wood_inf', b'False', b'job143']"
134.74596,134.95314025878906,"[b'chicago', b'control_wood_inf', b'False', b'job62']"
145.17899,144.94708251953125,"[b'chicago', b'control_wood_inf', b'False', b'job108']"
136.65923,136.4201202392578,"[b'chicago', b'control_wood_inf', b'False', b'job58']"
152.42395,151.49490356445312,"[b'chicago', b'control_wood_inf', b'False', b'job37']"
137.6338,137.59698486328125,"[b'chicago', b'control_wood_inf', b'False', b'job158']"
141.368,141.37594604492188,"[b'chicago', b'control_wood_inf', b'False', b'job168']"
143.143,142.49656677246094,"[b'chicago', b'control_wood_inf', b'False', b'job76']"
141.59785,141.53123474121094,"[b'chicago', b'control_wood_inf', b'False', b'job90']"
141.53624,141.58352661132812,"[b'chicago', b'control_wood_inf', b'False', b'job96']"
136.72333,136.43650817871094,"[b'chicago', b'control_wood_inf', b'False', b'job74']"
146.41322,145.28233337402344,"[b'chicago', b'control_wood_inf', b'False', b'job83']"
145.03333,144.38290405273438,"[b'chicago', b'control_wood_inf', b'False', b'job180']"
151.52448,151.0264434814453,"[b'chicago', b'control_wood_inf', b'False', b'job129']"
136.95021,136.87649536132812,"[b'chicago', b'control_wood_inf', b'False', b'job181']"
137.3921,137.59823608398438,"[b'chicago', b'control_wood_inf', b'False', b'job115']"
149.62991,148.6899871826172,"[b'chicago', b'control_wood_inf', b'False', b'job7']"
134.35287,134.52000427246094,"[b'chicago', b'control_wood_inf', b'False', b'job23']"
136.10826,135.78526306152344,"[b'chicago', b'control_wood_inf', b'False', b'job72']"
134.55984,134.7038116455078,"[b'chicago', b'control_wood_inf', b'False', b'job123']"
152.50536,151.53353881835938,"[b'chicago', b'control_wood_inf', b'False', b'job163']"
144.69492,143.66624450683594,"[b'chicago', b'control_wood_inf', b'False', b'job40']"
142.77202,142.7223663330078,"[b'chicago', b'control_wood_inf', b'False', b'job67']"
136.68033,136.82215881347656,"[b'chicago', b'control_wood_inf', b'False', b'job63']"
143.92755,143.81951904296875,"[b'chicago', b'control_wood_inf', b'False', b'job105']"
139.71005,139.89010620117188,"[b'chicago', b'control_wood_inf', b'False', b'job65']"
146.2018,145.45741271972656,"[b'chicago', b'control_wood_inf', b'False', b'job148']"
141.7023,140.99533081054688,"[b'chicago', b'control_wood_inf', b'False', b'job100']"
151.9594,151.80303955078125,"[b'chicago', b'control_wood_inf', b'False', b'job177']"
135.946,136.00732421875,"[b'chicago', b'control_wood_inf', b'False', b'job85']"
148.09358,147.38784790039062,"[b'chicago', b'control_wood_inf', b'False', b'job147']"
140.94939,140.28359985351562,"[b'chicago', b'control_wood_inf', b'False', b'job195']"
151.11845,150.47328186035156,"[b'chicago', b'control_wood_inf', b'False', b'job174']"
146.23872,146.19190979003906,"[b'chicago', b'control_wood_inf', b'False', b'job155']"
144.11603,144.31240844726562,"[b'chicago', b'control_wood_inf', b'False', b'job41']"
138.94284,138.50608825683594,"[b'chicago', b'control_wood_inf', b'False', b'job199']"
146.79083,145.62652587890625,"[b'chicago', b'control_wood_inf', b'False', b'job114']"
142.83379,142.92543029785156,"[b'chicago', b'control_wood_inf', b'False', b'job55']"
147.39545,147.0966796875,"[b'chicago', b'control_wood_inf', b'False', b'job120']"
147.4439,147.16725158691406,"[b'chicago', b'control_wood_inf', b'False', b'job51']"
